[
    {
        "_id":"c-01",
        "_parentId":"b-01",
        "_type":"component",
        "_component":"graphic",
        "_classes":"intro-logo",
        "_layout":"right",
        "title":"",
        "displayTitle":"",
        "body":"",
        "instruction":"",
        "_graphic": {
            "alt": "",
            "title": "",
            "large": "",
            "medium": "",
            "small": ""
        }
    },
    {
        "_id":"c-02",
        "_parentId":"b-01",
        "_type":"component",
        "_component":"text",
        "_classes":"",
        "_layout":"left",
        "title":"Datos abiertos: un agente de cambio",
        "displayTitle":"Datos abiertos: un agente de cambio",
        "body":"<p>Las iniciativas de datos abiertos con mayor éxito comparten características similares. Comprender los enfoques exitosos puede ayudar a aprovechar el valor de los datos abiertos.</p><h5>En este módulo estudiaremos lo siguiente:</h5><ul class='ticks'><li>Datos abiertos como un agente de cambio</li><li>Líderes y compromiso</li><li>Oferta y demanda</li><li>Cambio de cultura para los nuevos mercados</li></ul>",
        "instruction":"",
        "_pageLevelProgress": {
            "_isEnabled": true
        }
    },
    {
    "_id":"c-11",
    "_parentId":"b-10",
    "_type":"component",
    "_component":"iFrame-vimeo",
    "_classes":"",
    "_layout":"full",
        "title":"Participar en iniciativas de datos abiertos en 2 minutos",
        "displayTitle": "Participar en iniciativas de datos abiertos en 2 minutos",
        "body": "Liz Carolan, Responsable de Desarrollo Internacional del Open Data Institute (ODI), nos muestra cinco características de iniciativas de datos abiertos exitosas.",
        "instruction": "Para activar o desactivar los subtítulos, haga clic en el botón «cc» que encontrará en la parte inferior derecha del vídeo",
        "_setCompletionOn":"ended",
        "_source": "//europa.eu/webtools/crs/iframe/?lang=es&oriurl=https://www.youtube.com/embed/-QMBjFjYAak&list=PLT5rARDev_rnG9rj7hZG0hALPWQS8mLGA&index=3",
        "_media": {
		"mp4": "course/es/video/video.mp4",
		"poster": "course/es/video/placeholder.jpg"
	},
        "_height": {
            "_small" : 250,
            "_medium" : 350,
            "_large" : 508
        }
    },
    {
        "_id":"c-21",
        "_parentId":"b-20",
        "_type":"component",
        "_component":"graphic",
        "_classes":"",
        "_layout":"left",
        "_graphic": {
            "alt": "Datos abiertos: un agente de cambio.",
            "title": "Datos abiertos: un agente de cambio.",
            "large": "course/es/images/odi-001-text_image_large.png",
            "medium": "course/es/images/odi-001-text_image_large.png",
            "small": "course/es/images/odi-001-text_image_large.png",
            "*source":"http://www.shutterstock.com/pic-134315933.html",
            "*credit":"Photoraidz",
            "*license":"Shutterstock Standard License"
        }
    },
    {
        "_id":"c-22",
        "_parentId":"b-20",
        "_type":"component",
        "_component":"text",
        "_classes":"",
        "_layout":"right",
        "title":"Datos abiertos: un agente de cambio.",
        "displayTitle":"Datos abiertos: un agente de cambio.",
        "body":"<p>Para implementar una iniciativa de datos abiertos se suele requerir un cambio cultura e institucional.</p><p>Abrir los datos no solo consiste en colocar los datos en un sitio web con una licencia abierta. Aplicar la tecnología es la parte más fácil, lograr el cambio cultural puede ser mucho más complicado.</p>"
    },
     {
        "_id": "c-25",
        "_parentId": "b-25",
        "_classes": "",
        "_type":"component",
        "_layout": "full",
        "_component": "narrative",
        "title": "Líderes y compromiso",
        "displayTitle": "Líderes y compromiso",
        "body": "Active leadership and engagement helps foster successful open data initiatives and bring about positive change.",
        "instruction": "<em class='desktop-instruction'>Haga clic en la flecha derecha para ver más.</em><em class='mobile-instruction'>Seleccione el símbolo «+» para ver otras opciones y, a continuación, pase la imagen para ver más.</em>",
        "_items": [
            {
                "title": "Líderes activos",
                "body": "<p>Contar con unos líderes y un compromiso activos ayuda a promover las iniciativas de datos abiertos exitosas y lograr un cambio positivo.</p><p>El apoyo de los altos cargos puede ayudar a promover la aceptación institucional.</p>",
                "_graphic": {
                    "src": "course/es/images/odi-002_large.jpg",
                    "alt": "Líderes activos",
                    "title": "Líderes activos",
                    "*source":"http://www.shutterstock.com/pic-238771996.html",
                    "*credit":"Mangsaab",
                    "*license":"Shutterstock Standard License"
                },
                "strapline": "Líderes activos"
            },
            {
                "title": "Compromiso activo",
                "body": "<p>El compromiso con la sociedad civil, las empresas y los Gobiernos son factores clave de cualquier iniciativa de datos abiertos. Las iniciativas de éxito tienden a comenzar con un diálogo abierto entre los divulgadores de los datos y los consumidores.</p><p>Este diálogo es importante para que ambas partes comprendan la demanda de los datos y las oportunidades para aprovechar sus beneficios.</p>",
                "_graphic": {
                    "src": "course/es/images/odi-003_large.jpg",
                    "alt": "Compromiso activo",
                    "title": "Compromiso activo",
                    "*source":"http://www.shutterstock.com/pic-82049359.html",
                    "*credit":"Carsten Reisinger",
                    "*license":"Shutterstock Standard License"
                },
                "strapline": "Compromiso activo"
            },
            {
                "title": "Dar cabida a la innovación",
                "body": "<p>Contar con líderes sólidos y un compromiso activo con las partes interesadas es clave para que cualquier iniciativa tenga éxito.</p><p>Contar con líderes activos genera el «empuje» de la organización, y el diálogo activo genera la «atracción» de los usuarios de los datos.</p><p>Contar con líderes en materia de datos abiertos y un diálogo activo crea oportunidades para innovar al conectar los problemas con sus posibles soluciones.</p>",
                "_graphic": {
                    "src": "course/es/images/odi-004_large.jpg",
                    "alt": "Dar cabida a la innovación",
                    "title": "Dar cabida a la innovación",
                    "*source":"http://www.shutterstock.com/pic-33265168.html",
                    "*credit":"Tonis Pan",
                    "*license":"Shutterstock Standard License"
                },
                "strapline": "Dar cabida a la innovación"
            }
        ],
        "_pageLevelProgress": {
        "_isEnabled": true
        }
    },
    {
        "_id":"c-30",
        "_parentId":"b-28",
        "_type":"component",
        "_component":"graphic",
        "_classes":"",
        "_layout":"right",
        "_graphic": {
            "alt": "Oferta y demanda",
            "title": "Oferta y demanda",
            "large": "course/es/images/odi-005_large.png",
            "medium": "course/es/images/odi-005_large.png",
            "small": "course/es/images/odi-005_large.png",
            "*source":"http://www.shutterstock.com/pic-245234284.html",
            "*credit":"Positive thinker",
            "*license":"Shutterstock Standard License"
        }
    },
    {
      "_id":"c-35",
      "_parentId":"b-28",
      "_type":"component",
      "_component":"accordion",
      "_classes":"",
      "_layout":"left",
      "title": "Oferta y demanda",
      "displayTitle": "Oferta y demanda",
      "body": "<p>Al estudiar una iniciativa de datos abiertos, se debe tener en cuenta lo siguiente:</p>",
      "instruction": "<em>Haga clic en los títulos para ver más información.</em>",
      "_items": [
        {
          "alt": "Su planteamiento",
          "title": "Su planteamiento",
          "body": "<p>Muchos divulgadores de datos han adoptado el planteamiento de crear un portal en el que publican los datos que poseen, y con la esperanza de que sea lo que los consumidores quieren o necesitan.</p><p>A medida que se incrementa el conocimiento de los datos abiertos, las personas están comenzando a pensar primero en las necesidades de los consumidores de los datos y a dar forma a sus iniciativas para adaptarlas a las mismas.</p><p>Adoptar un enfoque escalonado ayuda a garantizar que una organización pueda caminar antes de intentar correr, y permite lograr el cambio en pasos pequeños y perceptibles, en lugar de establecer objetivos ambiciosos difíciles de alcanzar..</p>"
        },
        {
          "alt": "¿Quién quiere sus datos?",
          "title": "¿Quién quiere sus datos?",
          "body": "<p>No tiene demasiado sentido publicar datos abiertos si no hay nadie que esté preparado o motivado para generar nuevo valor a partir de ellos.</p><p>Casi siempre es mejor centrarse en la demanda que ya existe.</p><p>Hable con los consumidores actuales, realice encuestas de opinión y entrevistas a pie de calle para ver dónde se encuentra la demanda, y sígala.</p><p>Piense en los problemas que ya existen y de qué manera sus datos se relacionan con ellos. Ofrezca sus datos como una herramienta para ayudar a crear soluciones.</p>"
        },
        {
          "alt": "¿Quién utilizará y respaldará sus datos?",
          "title": "¿Quién utilizará y respaldará sus datos?",
          "body": "<p>Las iniciativas de datos abiertos exitosas cuentan con una comunidad comprometida que utiliza los datos de forma activa, y que puede acceder a los recursos que los respaldan.</p><p>Las comunidades sólidas con «reutilizadores» de los datos abiertos poseen un sentido de propiedad sobre los datos. Este sentido de propiedad debe referirse tanto a los datos como a los resultados que se generar a partir de los mismos.</p><p>Es importante que los divulgadores de los datos y los consumidores comprendan íntegramente sus perspectivas.</p><p class='not-dlab'>Un buen ejemplo de una comunidad de datos abiertos sólida es el proyecto Open Street Map.<br /><a href='https://www.openstreetmap.org/' target='_blank'>Ir al proyecto Open Street Map</a></p>"
        }
      ],
      "_pageLevelProgress": {
        "_isEnabled": true
      }
    },
     {
        "_id": "c-40",
        "_parentId": "b-30",
        "_classes": "",
        "_type":"component",
        "_layout": "full",
        "_component": "narrative",
        "title": "Cambio de cultura para los nuevos mercados",
        "displayTitle": "Cambio de cultura para los nuevos mercados",
        "body": "Aplicar tecnología es la parte más sencilla. Realizar el cambio cultural puede ser mucho más complicado.",
        "instruction": "<em class='desktop-instruction'>Haga clic en la flecha derecha para ver más.</em><em class='mobile-instruction'>Seleccione el símbolo «+» para ver otras opciones y, a continuación, pase la imagen para ver más.</em>",
        "_items": [
            {
                "title": "Identificación de nuevos mercados",
                "body": "<p>El mercado tradicional de los datos abiertos, en el que los Gobiernos publican datos para que otros los consuman, ha cambiado.</p><p>Los Gobiernos, las empresas y la sociedad, ahora son todos proveedores y consumidores de datos abiertos.</p>",
                "_graphic": {
                    "src": "course/es/images/odi-006_large.jpg",
                    "alt": "Identificación de nuevos mercados",
                    "title": "Identificación de nuevos mercados",
                    "*source":"http://www.shutterstock.com/pic-164731838.html",
                    "*credit":"STH",
                    "*license":"Shutterstock Standard License"
                },
                "strapline": "Identificación de nuevos mercados"
            },
            {
                "title": "Cambio de cultura",
                "body": "<p>Para adoptar los datos abiertos, una institución casi siempre deberá cambiar la manera en la que opera.</p><p>Las personas que impulsan las iniciativas deben dedicar tiempo a desarrollar una visión compartida, superando los obstáculos y estableciendo coaliciones para lograr el cambio.</p><p>Los consumidores deben estar capacitados para integrar los datos abiertos como parte fundamental de su infraestructura de datos.</p>",
                "_graphic": {
                    "src": "course/es/images/odi-007_large.jpg",
                    "alt": "Cambio de cultura",
                    "title": "Cambio de cultura",
                    "*source":"http://www.shutterstock.com/pic-257301595.html",
                    "*credit":"Anna Omelchenko",
                    "*license":"Shutterstock Standard License"
                },
                "strapline": "Cambio de cultura"
            },
            {
                "title": "Planificación del cambio",
                "body": "<p>Las formas de gestionar y planificar el cambio de cultura cada vez son más claras.</p><p>Los Gobiernos, las organizaciones y las personas deben poder acceder libremente a formación básica, herramientas y guías que les ayuden a planificar el futuro.</p><p>Los modelo piloto y las iniciativas prácticas desempeñan un papel importante a la hora de comprender las repercusiones de los datos abiertos y el proceso del cambio. Existen herramientas y guías que pueden ayudarle a valorar y planificar el cambio, como la herramienta Open Data Pathway del Open Data Institute (ODI).<br /><a href='http://pathway.theodi.org/' target='_blank'>Ir a la herramienta Open Data Pathway del Open Data Institute (ODI)</a></p>",
                "_graphic": {
                    "src": "course/es/images/odi-008_large.jpg",
                    "alt": "Planificación del cambio",
                    "title": "Planificación del cambio",
                    "*source":"http://www.shutterstock.com/pic-53095825.html",
                    "*credit":"Mikael Damkier",
                    "*license":"Shutterstock Standard License"
                },
                "strapline": "Planificación del cambio"
            }
        ],
        "_pageLevelProgress": {
        "_isEnabled": true
        }
    },
    {
        "_id":"c-42",
        "_parentId":"b-32",
        "_type":"component",
        "_component":"graphic",
        "_classes":"",
        "_layout":"right",
        "title":"",
        "displayTitle":"",
        "body":"",
        "instruction":"",
        "_graphic": {
            "alt": "",
            "title": "",
            "large": "course/es/images/burst-indigo.png",
            "medium": "course/es/images/burst-indigo.png",
            "small": "course/es/images/burst-indigo.png"
        }
    },
    {
        "_id":"c-43",
        "_parentId":"b-32",
        "_type":"component",
        "_component":"text",
        "_classes":"",
        "_layout":"left",
        "title":"¿Preparado para el cambio de cultura?",
        "displayTitle":"¿Preparado para el cambio de cultura?",
        "body":"<p>Las iniciativas de datos abiertos exitosas comparten cuatro características clave. ¿Puede recordarlas?</p>",
        "instruction":"",
        "_pageLevelProgress": {
            "_isEnabled": true
        }
    },
    {
        "_id":"c-45",
        "_parentId":"b-35",
        "_type":"component",
        "_component":"graphic",
        "_classes":"illustration",
        "_layout":"right",
        "_graphic": {
            "alt": "Líderes y compromiso",
            "title": "",
            "large": "course/es/images/odi-009-text-image_large.png",
            "medium": "course/es/images/odi-009-text-image_large.png",
            "small": "course/es/images/odi-009-text-image_large.png",
            "*source":"http://www.shutterstock.com/pic-134315933.html",
            "*credit":"Photoraidz",
            "*license":"Shutterstock Standard License"
        }
    },

    {
        "_id":"c-50",
        "_parentId":"b-35",
        "_type":"component",
        "_component":"mcq",
        "_adapt2id":"588f1806b61c46e176e7ea52",
        "_classes":"",
        "_layout":"left",
        "_attempts":1,
        "_questionWeight":1,
        "_isRandom":true,
        "_selectable":1,
        "title": "Líderes y compromiso",
        "displayTitle": "Líderes y compromiso",
        "body": "<p>¿Cuáles son los dos factores críticos de las relaciones que se necesitan para lograr una iniciativa de datos abiertos de éxito?</p>",
        "instruction": "<em>Seleccione la respuesta y, a continuación, haga clic en «Enviar».</em>",
        "_items": [
            {
                "text": "Inteligencia emocional y paciencia",
                "_shouldBeSelected": false
            },
            {
                "text": "Líderes sólidos y compromiso activo",
                "_shouldBeSelected": true
            },
            {
                "text": "Amistad y empatía",
                "_shouldBeSelected": false
            }
        ],
        "_feedback":{
            "correct":"<h5>¡Exacto!</h5><p>Contar con líderes sólidos y un compromiso activo con las partes interesadas es clave para que una iniciativa tenga éxito.</p>",
            "_incorrect": {
                "notFinal": "<h5>¿Está seguro?</h5><p>Contar con líderes sólidos y un compromiso activo con las partes interesadas es clave para que una iniciativa tenga éxito.</p>",
                "final": "<h5>¿Está seguro?</h5><p>Contar con líderes sólidos y un compromiso activo con las partes interesadas es clave para que una iniciativa tenga éxito.</p>"
            },
            "_partlyCorrect": {
                "notFinal": "<h5>¿Está seguro?</h5><p>Contar con líderes sólidos y un compromiso activo con las partes interesadas es clave para que una iniciativa tenga éxito.</p>",
                "final": "<h5>¿Está seguro?</h5><p>Contar con líderes sólidos y un compromiso activo con las partes interesadas es clave para que una iniciativa tenga éxito.</p>"
          }
        },
        "_buttons":{
            "submit":"",
            "reset":"",
            "showCorrectAnswer":"",
            "hideCorrectAnswer":""
        },
        "_pageLevelProgress": {
        "_isEnabled": true
      }
    },
    {
        "_id":"c-55",
        "_parentId":"b-40",
        "_type":"component",
        "_component":"graphic",
        "_classes":"illustration",
        "_layout":"left",
        "_graphic": {
            "alt": "Oferta y demanda",
            "title": "",
            "large": "course/es/images/odi-010-mcq_large.png",
            "medium": "course/es/images/odi-010-mcq_large.png",
            "small": "course/es/images/odi-010-mcq_large.png",
            "*source":"http://www.shutterstock.com/pic-238771996.html",
            "*credit":"Mangsaab",
            "*license":"Shutterstock Standard License"
        }
    },
    {
        "_id":"c-60",
        "_parentId":"b-40",
        "_type":"component",
        "_component":"mcq",
        "_adapt2id":"588f1a34b61c46e176e7ea58",
        "_classes":"",
        "_layout":"right",
        "_attempts":1,
        "_questionWeight":1,
        "_isRandom":true,
        "_selectable":1,
        "title": "Oferta y demanda",
        "displayTitle": "Oferta y demanda",
        "body": "<p>¿Qué planteamiento actualizado debería adoptar a la hora de planificar una iniciativa de datos abiertos?</p>",
        "instruction": "<em>Seleccione la respuesta y, a continuación, haga clic en «Enviar».</em>",
        "_items": [
            {
                "text": "Publicar los datos y esperar a que la gente los use",
                "_shouldBeSelected": false
            },
            {
                "text": "Pensar en mis necesidades",
                "_shouldBeSelected": false
            },
            {
                "text": "Adoptar la perspectiva del consumidor",
                "_shouldBeSelected": true
            }
        ],
        "_feedback":{
            "correct":"<h5>¡Exacto!</h5><p>A medida que la comunidad de los datos abiertos madura, muchos ya están adoptando la perspectiva del consumidor y viendo claramente cómo podrían beneficiarse de los datos.</p>",
            "_incorrect": {
                "notFinal": "<h5>¿Está seguro?</h5><p>A medida que la comunidad de los datos abiertos madura, muchos ya están adoptando la perspectiva del consumidor y viendo claramente cómo podrían beneficiarse de los datos.</p>",
                "final": "<h5>¿Está seguro?</h5><p>A medida que la comunidad de los datos abiertos madura, muchos ya están adoptando la perspectiva del consumidor y viendo claramente cómo podrían beneficiarse de los datos.</p>"
            },
            "_partlyCorrect": {
                "notFinal": "<h5>¿Está seguro?</h5><p>A medida que la comunidad de los datos abiertos madura, muchos ya están adoptando la perspectiva del consumidor y viendo claramente cómo podrían beneficiarse de los datos.</p>",
                "final": "<h5>¿Está seguro?</h5><p>A medida que la comunidad de los datos abiertos madura, muchos ya están adoptando la perspectiva del consumidor y viendo claramente cómo podrían beneficiarse de los datos.</p>"
          }
        },
        "_buttons":{
            "submit":"",
            "reset":"",
            "showCorrectAnswer":"",
            "hideCorrectAnswer":""
        },
        "_pageLevelProgress": {
        "_isEnabled": true
      }
    },
    {
        "_id":"c-65",
        "_parentId":"b-45",
        "_type":"component",
        "_component":"graphic",
        "_classes":"illustration",
        "_layout":"right",
        "_graphic": {
            "alt": "Cambio de cultura para los nuevos mercados",
            "title": "",
            "large": "course/es/images/odi-011-mcq_large.jpg",
            "medium": "course/es/images/odi-011-mcq_large.jpg",
            "small": "course/es/images/odi-011-mcq_large.jpg",
            "*source":"http://www.shutterstock.com/pic-245234284.html",
            "*credit":"Positive thinker",
            "*license":"Shutterstock Standard License"
        }
    },
    {
        "_id":"c-70",
        "_parentId":"b-45",
        "_type":"component",
        "_component":"mcq",
        "_adapt2id":"588f1fe8b61c46e176e7ea5c",
        "_classes":"",
        "_layout":"left",
        "_attempts":1,
        "_questionWeight":1,
        "_isRandom":true,
        "_selectable":1,
        "title": "Cambio de cultura para los nuevos mercados",
        "displayTitle": "Cambio de cultura para los nuevos mercados",
        "body": "<p>La gente que impulsa las iniciativas de datos abiertos debe dedicar la mayor parte del tiempo a...</p>",
        "instruction": "<em>Seleccione la respuesta y, a continuación, haga clic en «Enviar».</em>",
        "_items": [
            {
                "text": "superar obstáculos, establecer coaliciones y acelerar el cambio",
                "_shouldBeSelected": true
            },
            {
                "text": "hablar con otros divulgadores de datos",
                "_shouldBeSelected": false
            },
            {
                "text": "conocer sus propios conjuntos de datos",
                "_shouldBeSelected": false
            }
        ],
        "_feedback":{
            "correct":"<h5>¡Exacto!</h5><p>Para adoptar iniciativas de datos abiertos, una institución casi siempre deberá cambiar la manera en la que opera. Las personas que impulsan las iniciativas deben dedicar tiempo a superar obstáculos, establecer coaliciones y acelerar el cambio.</p>",
            "_incorrect": {
                "notFinal": "<h5>¿Está seguro?</h5><p>Para adoptar iniciativas de datos abiertos, una institución casi siempre deberá cambiar la manera en la que opera. Las personas que impulsan las iniciativas deben dedicar tiempo a superar obstáculos, establecer coaliciones y acelerar el cambio.</p>",
                "final": "<h5>¿Está seguro?</h5><p>Para adoptar iniciativas de datos abiertos, una institución casi siempre deberá cambiar la manera en la que opera. Las personas que impulsan las iniciativas deben dedicar tiempo a superar obstáculos, establecer coaliciones y acelerar el cambio.</p>"
            },
            "_partlyCorrect": {
                "notFinal": "<h5>¿Está seguro?</h5><p>Para adoptar iniciativas de datos abiertos, una institución casi siempre deberá cambiar la manera en la que opera. Las personas que impulsan las iniciativas deben dedicar tiempo a superar obstáculos, establecer coaliciones y acelerar el cambio..</p>",
                "final": "<h5>¿Está seguro?</h5><p>Para adoptar iniciativas de datos abiertos, una institución casi siempre deberá cambiar la manera en la que opera. Las personas que impulsan las iniciativas deben dedicar tiempo a superar obstáculos, establecer coaliciones y acelerar el cambio.</p>"
          }
        },
        "_buttons":{
            "submit":"",
            "reset":"",
            "showCorrectAnswer":"",
            "hideCorrectAnswer":""
        },
        "_pageLevelProgress": {
        "_isEnabled": true
      }
    },
    {
        "_id":"c-75",
        "_parentId":"b-50",
        "_type":"component",
        "_component":"graphic",
        "_classes":"illustration",
        "_layout":"left",
        "_graphic": {
            "alt": "Planificación del cambio",
            "title": "",
            "large": "course/es/images/odi-012-mcq_large.png",
            "medium": "course/es/images/odi-012-mcq_large.png",
            "small": "course/es/images/odi-012-mcq_large.png",
            "*source":"http://www.shutterstock.com/pic-164731838.html",
            "*credit":"STH",
            "*license":"Shutterstock Standard License"
        }
    },
    {
        "_id":"c-80",
        "_parentId":"b-50",
        "_type":"component",
        "_component":"mcq",
        "_adapt2id":"588f2133b61c46e176e7ea62",
        "_classes":"",
        "_layout":"right",
        "_attempts":1,
        "_questionWeight":1,
        "_isRandom":true,
        "_selectable":1,
        "title": "Planificación del cambio",
        "displayTitle": "Planificación del cambio",
        "body": "<p><strong>Los Gobiernos, las organizaciones y las personas deben poder acceder libremente a...</strong></p>",
        "instruction": "<em>Seleccione la respuesta y, a continuación, haga clic en «Enviar».</em>",
        "_items": [
            {
                "text": "grandes volúmenes de datos",
                "_shouldBeSelected": false
            },
            {
                "text": "los datos abiertos de todo el mundo",
                "_shouldBeSelected": false
            },
            {
                "text": "formación básica, herramientas y guías",
                "_shouldBeSelected": true
            }
        ],
        "_feedback":{
            "correct":"<h5>¡Exacto!</h5><p>Los Gobiernos, las organizaciones y las personas deben poder acceder libremente a formación básica, herramientas y guías que les ayuden a planificar el futuro.</p>",
            "_incorrect": {
                "notFinal": "<h5>¿Está seguro?</h5><p>Los Gobiernos, las organizaciones y las personas deben poder acceder libremente a formación básica, herramientas y guías que les ayuden a planificar el futuro.</p>",
                "final": "<h5>¿Está seguro?</h5><p>Los Gobiernos, las organizaciones y las personas deben poder acceder libremente a formación básica, herramientas y guías que les ayuden a planificar el futuro.</p>"
            },
            "_partlyCorrect": {
                "notFinal": "<h5>¿Está seguro?</h5><p>Para implementar una iniciativa de datos abiertos se suele requerir un cambio cultura e institucional.</p>",
                "final": "<h5>¿Está seguro?</h5><p>Para implementar una iniciativa de datos abiertos se suele requerir un cambio cultura e institucional.</p>"
          }
        },
        "_buttons":{
            "submit":"",
            "reset":"",
            "showCorrectAnswer":"",
            "hideCorrectAnswer":""
        },
        "_pageLevelProgress": {
        "_isEnabled": true
      }
    },
    {
        "_id":"c-85",
        "_parentId":"b-55",
        "_type":"component",
        "_component":"graphic",
        "_classes":"",
        "_layout":"right",
        "_graphic": {
            "alt": "Summary icon clipboard",
            "title": "Summary icon clipboard",
            "large": "course/es/images/summary-icon.png",
            "medium": "course/es/images/summary-icon.png",
            "small": "course/es/images/summary-icon.png",
            "*source":"http://www.shutterstock.com/pic-189810137.html",
            "*credit":"Kritchanut",
            "*license":"Shutterstock Standard License"
        }
    },
    {
        "_id":"c-90",
        "_parentId":"b-55",
        "_type":"component",
        "_component":"text",
        "_classes":"",
        "_layout":"left",
        "title":"Datos abiertos: un agente de cambio.",
        "displayTitle":"Datos abiertos: un agente de cambio.",
        "body":"<p>Para implementar una iniciativa de datos abiertos se suele requerir un cambio cultura e institucional.</p><p>Comprometerse con la sociedad civil, las empresas y los Gobiernos constituye una parte importante del proceso.</p><p>A medida que la comunidad de los datos abiertos madura, muchas iniciativas están teniendo en cuenta las necesidades de los usuarios con antelación a la hora de planificar sus actividades.</p><p>Los datos abiertos implican que debemos pensar de manera diferente sobre la forma en la que el mercado de los datos funciona.</p><p>En el módulo siguiente veremos cómo simplificar la obtención de licencias de datos abiertos.</p><p><a class='course_link' href='../module4/'>Módulo siguiente</a></p><p><a class='course_link' href='../'>Menú principal</a></p>",
        "_pageLevelProgress": {
          "_isEnabled": true
        }
    },
    {
       "_id":"c-95",
       "_parentId":"b-55",
       "_type":"component",
       "_component":"text",
       "_classes":"separator",
       "_layout":"full"
    },
    {
       "_id":"c-96",
       "_parentId":"b-55",
       "_type":"component",
       "_component":"text",
       "_classes": "attribution",
       "body":"&copy; <a href='https://ec.europa.eu/commission/index_en' target='_blank'>European Commission</a>",
       "_layout":"full"
    },
    {
        "_id":"c-100",
        "_parentId":"b-55",
        "_type":"component",
        "_component":"graphic",
        "_classes":"footer-logo",
        "_layout":"left",
        "_graphic": {
            "alt": "Open data institute logo",
            "title": "Open data institute logo",
            "large": "course/es/images/logo-small.png",
            "medium": "course/es/images/logo-small.png",
            "small": "course/es/images/logo-small.png",
            "*source":"http://theodi.org",
            "*credit":"The Open Data Institute",
            "*license":"All rights reserved"
        }
    },
    {
        "_id":"c-104",
        "_parentId":"b-55",
        "_type":"component",
        "_component":"text",
        "_classes":"attribution not-eu not-default",
        "_layout":"right",
        "body":"<a href='http://theodi.org' target='_blank'>The Open Data Institute</a>"
    },
    {
        "_id":"c-105",
        "_parentId":"b-55",
        "_type":"component",
        "_component":"text",
        "_classes":"social-buttons not-dlab",
        "_layout":"right",
        "body":"<a class='social' target='_blank' href='https://twitter.com/ODIHQ'><img src='course/es/images/social/twitter.png'></a><a class='social' target='_blank' href='https://soundcloud.com/theodi'><img src='course/es/images/social/sound.png'></a><a class='social' target='_blank' href='https://www.scribd.com/OpenDataInstitute'><img src='course/es/images/social/scribd.png'></a><a class='social' target='_blank' href='https://github.com/theodi'><img src='course/es/images/social/github.png'></a><a class='social' target='_blank' href='https://vimeo.com/theodiuk'><img src='course/es/images/social/vimeo.png'></a><a class='social' target='_blank' href='https://www.youtube.com/user/OpenDataInstituteUK'><img src='course/es/images/social/youtube.png'></a><a class='social' target='_blank' href='https://www.flickr.com/photos/ukodi/'><img src='course/es/images/social/flickr.png'></a>"
    }
]
