[
  {
    "_id": "59400a14d084d5167a04fa58",
    "_layout": "right",
    "_parentId": "b-06",
    "_type": "component",
    "body": "",
    "displayTitle": " ",
    "title": " ",
    "_isAvailable": true,
    "_isOptional": false,
    "_classes": "",
    "_component": "graphic",
    "_pageLevelProgress": {
      "_isEnabled": false
    },
    "instruction": "",
    "_graphic": {
      "alt": "",
      "large": "course/en/assets/a516261fb9cb309e3b3d1116a192ecfc2a70fbad.png",
      "small": "course/en/assets/a516261fb9cb309e3b3d1116a192ecfc2a70fbad.png",
      "attribution": ""
    }
  },
  {
    "_id": "59400a14d084d5167a04fa73",
    "_layout": "left",
    "_parentId": "b-09",
    "_type": "component",
    "body": "<p dir=\"ltr\"><strong>The social impact indicator for the Open Data in Europe assessment tool is based on the impact on...</strong></p>",
    "displayTitle": "How do we measure impact?",
    "title": "How do we measure impact?",
    "_isAvailable": true,
    "_isOptional": false,
    "_classes": "",
    "_component": "mcq",
    "_pageLevelProgress": {
      "_isEnabled": true
    },
    "instruction": "Choose your answer, then click 'Submit'",
    "_items": [
      {
        "text": "environmental sustainability and inclusion of marginalised groups",
        "_shouldBeSelected": true,
        "feedback": ""
      },
      {
        "text": "studies assessing the market value of open data",
        "_shouldBeSelected": false,
        "feedback": ""
      },
      {
        "text": "government efficiency and transparency",
        "_shouldBeSelected": false,
        "feedback": ""
      }
    ],
    "_attempts": 1,
    "_canShowModelAnswer": true,
    "_canShowFeedback": true,
    "_canShowMarking": true,
    "_shouldDisplayAttempts": false,
    "_isRandom": true,
    "_recordInteraction": true,
    "_questionWeight": 1,
    "_selectable": 1,
    "_feedback": {
      "correct": "<p><strong>That&#39;s right!</strong></p><p>There are two factors that make up the social impact indicator: impact on environmental sustainability in the country and on increasing the inclusion of marginalised groups</p>",
      "_incorrect": {
        "final": "<p><strong>Are you sure?</strong></p><p>There are two factors that make up the social impact indicator: impact on environmental sustainability in the country and on increasing the inclusion of marginalised groups</p>",
        "notFinal": ""
      },
      "_partlyCorrect": {
        "final": "",
        "notFinal": ""
      }
    },
    "_buttons":{
            "submit":"",
            "reset":"",
            "showCorrectAnswer":"",
            "hideCorrectAnswer":""
        }
  },
  {
    "_id": "59400a14d084d5167a04fa74",
    "_layout": "left",
    "_parentId": "b-07",
    "_type": "component",
    "body": "<p><strong>Achieving impact is important because...</strong></p>",
    "displayTitle": "Why is achieving impact important?",
    "title": "Why is achieving impact important?",
    "_isAvailable": true,
    "_isOptional": false,
    "_classes": "",
    "_component": "mcq",
    "_pageLevelProgress": {
      "_isEnabled": true
    },
    "instruction": "Choose all that apply, then click 'Submit'",
    "_items": [
      {
        "text": "it justifies why a programme should continue",
        "_shouldBeSelected": true,
        "feedback": ""
      },
      {
        "text": "it shows where you should focus all your efforts",
        "_shouldBeSelected": false,
        "feedback": ""
      },
      {
        "text": "you can draw unexpected conclusions",
        "_shouldBeSelected": false,
        "feedback": ""
      }
    ],
    "_attempts": 1,
    "_canShowModelAnswer": true,
    "_canShowFeedback": true,
    "_canShowMarking": true,
    "_shouldDisplayAttempts": false,
    "_isRandom": true,
    "_recordInteraction": true,
    "_questionWeight": 1,
    "_selectable": 1,
    "_feedback": {
      "correct": "<p><strong>That&#39;s right!</strong></p><p>Achieving impact is important because it&nbsp;provides a justification for why a programme of work should be continued&nbsp;as it demonstrates the return on investment.</p><p>Impact is also a key part of measuring the effectiveness of an open data policy, programme or initiative.&nbsp;</p><p>&nbsp;</p><p>&nbsp;</p>",
      "_incorrect": {
        "final": "<p><strong>Are you sure?</strong></p><p>Achieving impact is important because it&nbsp;provides a justification for why a programme of work should be continued as it demonstrates the return on investment.</p><p>Impact is also a key part of measuring the effectiveness of an open data policy, programme or initiative.&nbsp;</p>",
        "notFinal": ""
      },
      "_partlyCorrect": {
        "final": "",
        "notFinal": ""
      }
    },
    "_buttons":{
            "submit":"",
            "reset":"",
            "showCorrectAnswer":"",
            "hideCorrectAnswer":""
        }
  },
  {
    "_id": "59400a14d084d5167a04fa75",
    "_layout": "right",
    "_parentId": "b-11",
    "_type": "component",
    "body": "",
    "displayTitle": " ",
    "title": " ",
    "_isAvailable": true,
    "_isOptional": false,
    "_classes": "color-six",
    "_component": "graphic",
    "_pageLevelProgress": {
      "_isEnabled": false
    },
    "instruction": "",
    "_graphic": {
      "alt": "",
      "large": "course/en/assets/7120bb7ad02055a11589656852c821cae30bf616.png",
      "small": "course/en/assets/7120bb7ad02055a11589656852c821cae30bf616.png",
      "attribution": "<a href=\"https://theodi.org\" target=\"_blank\">The Open Data Institute</a> <span class='assetLicence'>[CC-BY-SA]</span>"
    }
  },
  {
    "_id": "59400a14d084d5167a04fa76",
    "_layout": "left",
    "_parentId": "b-01",
    "_type": "component",
    "body": "<p dir=\"ltr\">The goal of any open data project or initiative is to have some kind of impact, be it political transparency and accountability, social benefit or economic growth.&nbsp;Creating, finding and promoting&nbsp;<a href=\"http://opendatabarometer.org/3rdEdition/report/#impact\" target=\"_blank\">examples of open data being used to improve our daily lives</a>&nbsp;is one of the most challenging aspects of leading an open data project, programme or initiative.</p><p dir=\"ltr\">In this module we&#39;ll explore:</p><ul class='ticks'><li dir=\"ltr\">Why is achieving impact is important?</li><li dir=\"ltr\">How can we achieve impact?</li><li dir=\"ltr\">How&nbsp;can we measure the impact we&rsquo;ve achieved?</li><li dir=\"ltr\">Overcoming barriers to achieving impact</li></ul>",
    "displayTitle": "Achieving impact with open data",
    "title": "Achieving impact with open data",
    "_isAvailable": true,
    "_isOptional": false,
    "_classes": "ticks",
    "_component": "text",
    "_pageLevelProgress": {
      "_isEnabled": true
    },
    "instruction": ""
  },
  {
    "_id": "59400a14d084d5167a04fa77",
    "_layout": "right",
    "_parentId": "b-02",
    "_type": "component",
    "body": "<p dir=\"ltr\">Impact is a key part of measuring the effectiveness of an open data policy, programme or initiative. It is hard to argue for&nbsp;a programme of work to continue&nbsp;if it cannot demonstrate&nbsp;the return on investment (ROI) by way of impact.</p><p dir=\"ltr\">This ROI might not be financial in nature, as there are wider political and social impacts&nbsp;to be gained from open data.:</p><p dir=\"ltr\">You can find out more in the module: &#39;<a href=\"https://www.data.europa.eu/elearning/en/module2/#/id/co-01\" target=\"_blank\">Unlocking value from open data</a>&#39;.</p>",
    "displayTitle": " Why is achieving impact important?",
    "title": " Why is achieving impact important?",
    "_isAvailable": true,
    "_isOptional": false,
    "_classes": "",
    "_component": "text",
    "_pageLevelProgress": {
      "_isEnabled": true
    },
    "instruction": ""
  },
  {
    "_id": "59400a14d084d5167a04fa78",
    "_layout": "left",
    "_parentId": "b-02",
    "_type": "component",
    "body": "",
    "displayTitle": "",
    "title": "",
    "_isAvailable": true,
    "_isOptional": false,
    "_classes": "",
    "_component": "graphic",
    "_pageLevelProgress": {
      "_isEnabled": false
    },
    "instruction": "",
    "_graphic": {
      "alt": "",
      "large": "course/en/assets/f4b7a83ca6a5ee395ea40ef51b5e6d07ac2e288e.jpg",
      "small": "course/en/assets/f4b7a83ca6a5ee395ea40ef51b5e6d07ac2e288e.jpg",
      "attribution": "<a href=\"https://www.shutterstock.com/image-illustration/large-group-people-shape-chat-bubblewhite-234353791\" target=\"_blank\">tai11</a> <span class='assetLicence'>[Shutterstock standard licence]</span>"
    }
  },
  {
    "_id": "59400a14d084d5167a04fa79",
    "_layout": "right",
    "_parentId": "b-03",
    "_type": "component",
    "body": "",
    "displayTitle": "",
    "title": "",
    "_isAvailable": true,
    "_isOptional": false,
    "_classes": "",
    "_component": "graphic",
    "_pageLevelProgress": {
      "_isEnabled": false
    },
    "instruction": "",
    "_graphic": {
      "alt": "",
      "large": "course/en/assets/edd9adfa60a0dc2b857d5e90a86fdf58f3287e66.png",
      "small": "course/en/assets/edd9adfa60a0dc2b857d5e90a86fdf58f3287e66.png",
      "attribution": "<a href=\"http://www.freepik.com/free-photos-vectors/business\" target=\"_blank\"> Photoroyalty - Freepik.com</a> <span class='assetLicence'>[CC-BY]</span>"
    }
  },
  {
    "_id": "59400a14d084d5167a04fa7a",
    "_layout": "full",
    "_parentId": "b-05",
    "_type": "component",
    "body": "<p>Open data is a relatively new concept, and for some that raises automatic barriers. In this section&nbsp;we explore some of the main barriers to achieving impact from open data, as well as ways to overcome them.</p>",
    "displayTitle": "Overcoming barriers to achieving impact from open data",
    "title": "Overcoming barriers to achieving impact from open data",
    "_isAvailable": true,
    "_isOptional": false,
    "_classes": "",
    "_component": "narrative",
    "_pageLevelProgress": {
      "_isEnabled": true
    },
    "instruction": "",
    "mobileInstruction": "",
    "_hasNavigationInTextArea": false,
    "_setCompletionOn": "inview",
    "_items": [
      {
        "title": "Users don't know about your data",
        "body": "<p>You may have excellent data that could achieve positive impacts, but that is only possible if potential users know that the data exists.</p><p>One way to promote your data is to set specific challenges around it. A&nbsp;<a href=\"http://www.nesta.org.uk/project/open-data-challenge-series\" target=\"_blank\">challenge series</a>&nbsp;is a nice way to bring people together around your data. By offering a cash prize and setting out an open innovation process, you can motivate others to&nbsp;reuse your data and get some great impact stories.</p><p>Showcasing use cases alongside your data will also help to encourage reuse.</p>",
        "_graphic": {
          "src": "course/en/assets/44692b04753e36675bd12acf35820956832091e4.jpg",
          "alt": "",
          "attribution": "<a href=\"https://commons.wikimedia.org/wiki/File:Ghozt_Tramp_-_Business_Communication_Duplicat_model.jpg\" target=\"_blank\">Ghozt Tramp</a> <span class='assetLicence'>[CC-BY-SA]</span>"
        },
        "strapline": "Convincing others"
      },
      {
        "title": "Fear of breaching data protection",
        "body": "<p dir=\"ltr\">Another barrier to achieving impact is when people don&rsquo;t use the data out of fear. Some licences are unclear, particularly around the use of third-party or personal data that is found in the dataset. Often &lsquo;no warranty&rsquo; clauses can make it seem that the user would be liable in this case.</p><p>In order to overcome this barrier, publishers should be clear about the legal underpinning of the data and what users can do with it.</p><p>Clearly explaining the licence terms will help this. Providing&nbsp;information on the privacy control process and privacy impact assessment if dealing with individuals&rsquo; data, and publishing the process that was followed to anonymise the data, will help to reassure users.</p>",
        "_graphic": {
          "src": "course/en/assets/eb7c7b7bfff664aef851578a795efa612ea1a806.jpg",
          "alt": "",
          "attribution": "<a href=\"https://www.flickr.com/photos/132053576@N03/17765606909/\" target=\"_blank\">Owen Moore</a> <span class='assetLicence'>[CC-BY]</span>"
        },
        "strapline": "Fear of breaching data protection"
      },
      {
        "title": "Data quality and usability concerns",
        "body": "<p>Another barrier to the reuse of&nbsp;open data is the fear that it may not be of a good quality.</p><p>There are a number of community-based standards that can help you, both as a publisher and a user, to assess the quality of your data and its usability.</p><p>Making sure that your data is useable, from a legal, practical and social perspective will encourage reuse and achieve impact.&nbsp;</p><p>Find out more in: &#39;<a href=\"https://www.data.europa.eu/elearning/en/module5/#/id/co-01\">What makes quality open data</a>&#39;</p>",
        "_graphic": {
          "src": "course/en/assets/b0a1356f5ad57eff61e6a22b69a2e1b6d9773220.jpg",
          "alt": "",
          "attribution": "<a href=\"robodread\" target=\"_blank\">robodread</a> <span class='assetLicence'>[Shutterstock standard licence]</span>"
        },
        "strapline": "Data quality and usability"
      }
    ]
  },
  {
    "_id": "59400a14d084d5167a04fa7f",
    "_layout": "left",
    "_parentId": "b-06",
    "_type": "component",
    "body": "",
    "displayTitle": "Are you ready to achieve impact with open data?",
    "title": "Are you ready to achieve impact with open data?",
    "_isAvailable": true,
    "_isOptional": false,
    "_classes": "",
    "_component": "text",
    "_pageLevelProgress": {
      "_isEnabled": true
    },
    "instruction": ""
  },
  {
    "_id": "59400a15d084d5167a04fa83",
    "_layout": "left",
    "_parentId": "b-03",
    "_type": "component",
    "body": "<p dir=\"ltr\">Achieving impact, and measuring that impact, is one of the most challenging aspects of leading an open data project, programme or initiative. There are a number of techniques that you can use to help you to achieve impact.</p>",
    "displayTitle": " How can we achieve impact?",
    "title": " How can we achieve impact?",
    "_isAvailable": true,
    "_isOptional": false,
    "_classes": "",
    "_component": "accordion",
    "_pageLevelProgress": {
      "_isEnabled": true
    },
    "instruction": "",
    "_items": [
      {
        "title": "Identify shared goals",
        "body": "<p>The first thing to think about is what you are trying to achieve. What is your end-goal for publishing your data openly? Having a clearly defined vision is crucial to the success of an open data initiative, programme or project.</p><p>Next, think about your potential data users. What are their goals? How would your data help them to achieve these goals?</p><p>The most successful open data initiatives&nbsp;align the goals of providers with users. It&#39;s rare that everyone starts out with identical goals, so look for areas where goals may overlap. The more closely aligned the goals are, the more successful the publication tends to be.</p>",
        "_graphic": {
          "alt": "",
          "src": "",
          "attribution": ""
        },
        "_classes": ""
      },
      {
        "title": "Seek out and foster stories",
        "body": "<p dir=\"ltr\">A good method to help&nbsp;demonstrate&nbsp;impact is seeking out and fostering stories. Sometimes stories manifest themselves easily but more commonly they need to be cultivated.</p><p dir=\"ltr\">Perform, commission or identify research into the impact of your organisation&rsquo;s current or potential activities so that you can very clearly communicate the impact that your&nbsp;programme, project or initiative&nbsp;has&nbsp;achieved.</p>",
        "_graphic": {
          "alt": "",
          "src": "",
          "attribution": ""
        },
        "_classes": ""
      },
      {
        "title": "Reflect, iterate, reiterate",
        "body": "<p>It can be hard to look back&nbsp;at&nbsp;what has already happened as a result of the project, and the reasons why it has or hasn&#39;t been successful.</p><p>Give yourself the time to reflect, so that you can be flexible and iterative in your approach. If something isn&#39;t working, don&#39;t be afraid to remove it from the scope of work.</p><p>Iterating and refining&nbsp;your approach means that your&nbsp;open data project, programme or initiative is much more likely to achieve impact.</p>",
        "_graphic": {
          "alt": "",
          "src": "",
          "attribution": ""
        },
        "_classes": ""
      }
    ],
    "_shouldCollapseItems": true
  },
  {
    "_id": "59400a15d084d5167a04fa84",
    "_layout": "right",
    "_parentId": "b-08",
    "_type": "component",
    "body": "<p><strong>We can achieve impact through...</strong></p>",
    "displayTitle": "How can we achieve impact?",
    "title": "How can we achieve impact?",
    "_isAvailable": true,
    "_isOptional": false,
    "_classes": "",
    "_component": "mcq",
    "_pageLevelProgress": {
      "_isEnabled": true
    },
    "instruction": "Choose your answer, then click 'Submit'",
    "_items": [
      {
        "text": "identifying shared goals",
        "_shouldBeSelected": true,
        "feedback": ""
      },
      {
        "text": "keeping some data closed",
        "_shouldBeSelected": false,
        "feedback": ""
      },
      {
        "text": "commissioning research into the impact",
        "_shouldBeSelected": true,
        "feedback": ""
      },
      {
        "text": "reflecting and iterating on your initiative",
        "_shouldBeSelected": true,
        "feedback": ""
      },
      {
        "text": "sharing your methodology",
        "_shouldBeSelected": false,
        "feedback": ""
      }
    ],
    "_attempts": 1,
    "_canShowModelAnswer": true,
    "_canShowFeedback": true,
    "_canShowMarking": true,
    "_shouldDisplayAttempts": false,
    "_isRandom": true,
    "_recordInteraction": true,
    "_questionWeight": 1,
    "_selectable": 3,
    "_feedback": {
      "correct": "<p><strong>That&#39;s right!</strong></p><p>Impact can be achieved though identifying shared goals of data publishers and users, seeking out and fostering stories through research and reflecting and reiterating on an initiative.&nbsp;</p>",
      "_incorrect": {
        "final": "<p><strong>Are you sure?</strong></p><p>Impact can be achieved though identifying shared goals of data publishers and users, seeking out and fostering stories through research and reflecting and reiterating on an initiative.&nbsp;</p>",
        "notFinal": ""
      },
      "_partlyCorrect": {
        "final": "",
        "notFinal": ""
      }
    },
    "_buttons":{
            "submit":"",
            "reset":"",
            "showCorrectAnswer":"",
            "hideCorrectAnswer":""
        }
  },
  {
    "_id": "59400a15d084d5167a04fa85",
    "_layout": "right",
    "_parentId": "b-10",
    "_type": "component",
    "body": "<p><strong>One key barrier to achieving impact is if there is no engagement with your data. How can you overcome this?</strong></p>",
    "displayTitle": "Overcoming barriers",
    "title": "Overcoming barriers",
    "_isAvailable": true,
    "_isOptional": false,
    "_classes": "",
    "_component": "mcq",
    "_pageLevelProgress": {
      "_isEnabled": true
    },
    "instruction": "Choose your answer, then click 'Submit'",
    "_items": [
      {
        "text": "By promoting your data, clarifying how users can reuse your data and making your data usable",
        "_shouldBeSelected": true,
        "feedback": ""
      },
      {
        "text": "By publishing as much data as possible",
        "_shouldBeSelected": false,
        "feedback": ""
      },
      {
        "text": "By charging for your data",
        "_shouldBeSelected": false,
        "feedback": ""
      }
    ],
    "_attempts": 1,
    "_canShowModelAnswer": true,
    "_canShowFeedback": true,
    "_canShowMarking": true,
    "_shouldDisplayAttempts": false,
    "_isRandom": true,
    "_recordInteraction": true,
    "_questionWeight": 1,
    "_selectable": 1,
    "_feedback": {
      "correct": "<p><strong>That&#39;s right!</strong></p><p>You can encourage reuse of your data by promoting it, clarifying how users can reuse it and making&nbsp;it&nbsp;more usable.</p>",
      "_incorrect": {
        "final": "<p><strong>Are you sure?</strong></p><p dir=\"ltr\">You can encourage reuse of your data by promoting it, clarifying how users can reuse it and making&nbsp;it&nbsp;more usable.</p>",
        "notFinal": ""
      },
      "_partlyCorrect": {
        "final": "",
        "notFinal": ""
      }
    },
    "_buttons":{
            "submit":"",
            "reset":"",
            "showCorrectAnswer":"",
            "hideCorrectAnswer":""
        }
  },
  {
    "_id": "59400a15d084d5167a04fa86",
    "_layout": "right",
    "_parentId": "b-07",
    "_type": "component",
    "body": "",
    "displayTitle": " ",
    "title": " ",
    "_isAvailable": true,
    "_isOptional": false,
    "_classes": "",
    "_component": "graphic",
    "_pageLevelProgress": {
      "_isEnabled": false
    },
    "instruction": "",
    "_graphic": {
      "alt": "",
      "large": "course/en/assets/f4b7a83ca6a5ee395ea40ef51b5e6d07ac2e288e.jpg",
      "small": "course/en/assets/f4b7a83ca6a5ee395ea40ef51b5e6d07ac2e288e.jpg",
      "attribution": "<a href=\"https://www.shutterstock.com/image-illustration/large-group-people-shape-chat-bubblewhite-234353791\" target=\"_blank\">tai11</a> <span class='assetLicence'>[Shutterstock standard licence]</span>"
    }
  },
  {
    "_id": "59400a15d084d5167a04fa87",
    "_layout": "left",
    "_parentId": "b-08",
    "_type": "component",
    "body": "",
    "displayTitle": " ",
    "title": " ",
    "_isAvailable": true,
    "_isOptional": false,
    "_classes": "",
    "_component": "graphic",
    "_pageLevelProgress": {
      "_isEnabled": false
    },
    "instruction": "",
    "_graphic": {
      "alt": "",
      "large": "course/en/assets/edd9adfa60a0dc2b857d5e90a86fdf58f3287e66.png",
      "small": "course/en/assets/edd9adfa60a0dc2b857d5e90a86fdf58f3287e66.png",
      "attribution": "<a href=\"http://www.freepik.com/free-photos-vectors/business\" target=\"_blank\"> Photoroyalty - Freepik.com</a> <span class='assetLicence'>[CC-BY]</span>"
    }
  },
  {
    "_id": "59400a15d084d5167a04fa88",
    "_layout": "right",
    "_parentId": "b-09",
    "_type": "component",
    "body": "",
    "displayTitle": "",
    "title": "",
    "_isAvailable": true,
    "_isOptional": false,
    "_classes": "",
    "_component": "graphic",
    "_pageLevelProgress": {
      "_isEnabled": false
    },
    "instruction": "",
    "_graphic": {
      "alt": "",
      "large": "course/en/assets/0c4e44ae54cc60d53a31c2bcff4471570e961d9d.jpg",
      "small": "course/en/assets/0c4e44ae54cc60d53a31c2bcff4471570e961d9d.jpg",
      "attribution": "<a href=\"http://www.shutterstock.com/pic-185008832\" target=\"_blank\">suarassawadee</a> <span class='assetLicence'>[Shutterstock standard licence]</span>"
    }
  },
  {
    "_id": "59400a15d084d5167a04fa89",
    "_layout": "left",
    "_parentId": "b-10",
    "_type": "component",
    "body": "",
    "displayTitle": "",
    "title": "",
    "_isAvailable": true,
    "_isOptional": false,
    "_classes": "",
    "_component": "graphic",
    "_pageLevelProgress": {
      "_isEnabled": false
    },
    "instruction": "",
    "_graphic": {
      "alt": "",
      "large": "course/en/assets/95974c301fcc4ee60b2f1f1019d3f1f21221dd13.jpg",
      "small": "course/en/assets/95974c301fcc4ee60b2f1f1019d3f1f21221dd13.jpg",
      "attribution": "<a href=\"https://commons.wikimedia.org/wiki/File:Ghozt_Tramp_-_Business_Communication_Duplicat_model.jpg\" target=\"_blank\">Ghozt Tramp</a> <span class='assetLicence'>[CC-BY-SA]</span>"
    }
  },
  {
    "_id": "59400a15d084d5167a04fa8a",
    "_layout": "left",
    "_parentId": "b-11",
    "_type": "component",
    "body": "<p>Achieving impact with open data is an essential part to ensuring the sustainability of open data projects and initiatives. Creating, finding and promoting&nbsp;<a href=\"http://opendatabarometer.org/3rdEdition/report/#impact\" target=\"_blank\">examples of open data being used to improve our daily lives</a>&nbsp;is one of the most challenging aspects of leading an open data project, programme or initiative.</p><p>There are a number of assessment tools that can help you to measure the impact of&nbsp;an organisation or country&#39;s open data policy, programme or initiative. In this module, we focused on&nbsp;the data.europa.eu&#39;s&nbsp;<a href=\"https://www.data.europa.eu/en/dashboard\" target=\"_blank\">Open Data in Europe</a>.</p><p>There are barriers to achieving impact, but there are ways to overcome those barriers. Find out more about leading an open data initiative&nbsp;in &#39;<a href=\"https://www.data.europa.eu/elearning/en/module15/#/id/co-01\">Managing change in open data</a>&#39;.</p><p><a class='course_link' href='../'>Main menu</a></p>",
    "displayTitle": "Achieving impact",
    "title": "Achieving impact",
    "_isAvailable": true,
    "_isOptional": false,
    "_classes": "",
    "_component": "text",
    "_pageLevelProgress": {
      "_isEnabled": true
    },
    "instruction": ""
  },
  {
    "_id": "59400a15d084d5167a04fa8b",
    "_layout": "right",
    "_parentId": "b-01",
    "_type": "component",
    "body": "",
    "displayTitle": "",
    "title": "",
    "_isAvailable": true,
    "_isOptional": false,
    "_classes": "intro-logo",
    "_component": "graphic",
    "_pageLevelProgress": {
      "_isEnabled": false
    },
    "instruction": "",
    "_graphic": {
      "alt": "",
      "large": "",
      "small": "",
      "attribution": ""
    }
  },
  {
    "_id": "59400a15d084d5167a04fa92",
    "_layout": "full",
    "_parentId": "b-04",
    "_type": "component",
    "body": "<p>There are a number of assessment tools that can help you assess the impact of an organisation or country&#39;s open data policy, programme or initiative. Each assessment tool uses&nbsp;slightly different methodologies and measurements, so find the one that works best for your context. Think about which criteria are important for your organisation.</p><p>This module looks in detail at the data.europa.eu&#39;s&nbsp;<a href=\"https://www.data.europa.eu/en/dashboard\" target=\"_blank\">Open Data in Europe tool</a>, which compares the open data initiatives of European Union countries.</p><p dir=\"ltr\">You can also look at <a href=\"https://index.okfn.org/\" target=\"_blank\">Global Open Data Index</a> and <a href=\"http://opendatabarometer.org\" target=\"_blank\">Open Data Barometer</a>, which compare countries internationally.</p><p dir=\"ltr\">Open Data in Europe looks at three areas of impact: <strong>political, economic and social.</strong></p>",
    "displayTitle": " How do we measure impact?",
    "title": " How do we measure impact?",
    "_isAvailable": true,
    "_isOptional": false,
    "_classes": "",
    "_component": "narrative",
    "_pageLevelProgress": {
      "_isEnabled": true
    },
    "instruction": "",
    "mobileInstruction": "",
    "_hasNavigationInTextArea": false,
    "_setCompletionOn": "inview",
    "_items": [
      {
        "title": "Political",
        "body": "<p dir=\"ltr\">The factors that make up the political impact indicator are:&nbsp;impact on government efficiency and effectiveness, and impact on transparency and accountability.</p><p dir=\"ltr\">In 2016, the highest scoring countries for political impact were Slovakia, Ireland, Bulgaria, France and Greece.</p><p dir=\"ltr\"><a href=\"https://www.data.europa.eu/en/dashboard\">Get the data</a></p><p dir=\"ltr\">In Bulgaria, government departments no longer need to request&nbsp;data from other departments as that data is now published openly, therefore saving the time and cost involved in requesting data.</p><p dir=\"ltr\">In Ireland,&nbsp;<a href=\"https://www.google.com/url?q=http://myplan.ie&amp;sa=D&amp;ust=1496165737909000&amp;usg=AFQjCNGEgrOgEEPPmZOGBCpte6ZzCrutug\" target=\"_blank\">myplan.ie</a>&nbsp;help&nbsp;local authorities to standardise&nbsp;the publication of planning data. This helps the publishers to coordinate their efforts, but also results in more usable and comparable data.</p>",
        "_graphic": {
          "src": "course/en/assets/3f1d65f956a8899071b4f3584b4a88d3851863df.jpg",
          "alt": "",
          "attribution": "<a href=\"https://pixabay.com/en/hands-hand-raised-hands-raised-220163/\" target=\"_blank\">Kaz</a> <span class='assetLicence'>[CC0]</span>"
        },
        "strapline": "Political"
      },
      {
        "title": "Economic",
        "body": "<p dir=\"ltr\">The economic&nbsp;impact indicator is based upon the implementation of multiple macro-economic studies assessing the market value of open data and&nbsp;studies regarding better service delivery or looking at related subjects.</p><p dir=\"ltr\">In 2016, the highest scoring countries for economic&nbsp;impact were Slovakia and Spain.</p><p dir=\"ltr\"><a href=\"https://www.data.europa.eu/en/dashboard\">Get the data</a></p><p dir=\"ltr\">A Spanish study discovered that the reuse of meteorological data in the electricity sector could <a target=\"_blank\" href=\"https://www.ontsi.red.es/en/estudios-e-informes/Gobierno-abierto/Analisis-coste-beneficio-de-la-reutilizacion-de-la-informacion\">reduce costs by over &euro;1000 million</a>.</p><p dir=\"ltr\">A 2015 study found that UK companies using, producing or investing in open data have a combined <a href=\"https://theodi.org/open-data-means-business\" target=\"_blank\">annual turnover of over &pound;92 billion</a>&nbsp;and employ&nbsp;over 500,000 people.</p><p>Read more about the <a href=\"https://www.data.europa.eu/en/highlights/creating-value-through-open-data\" target=\"_blank\">economic value of open data in Europe</a>.</p><p dir=\"ltr\">&nbsp;</p>",
        "_graphic": {
          "src": "course/en/assets/e7980bbe7f0e8916f118a2bf24193c8f88211ba2.jpg",
          "alt": "",
          "attribution": "<a href=\"https://www.shutterstock.com/image-vector/cloud-business-process-management-concept-blue-259560827\" target=\"_blank\">JeKh</a> <span class='assetLicence'>[Shutterstock standard licence]</span>"
        },
        "strapline": "Economic"
      },
      {
        "title": "Social",
        "body": "<p dir=\"ltr\">The social impact indicator includes impact on environmental sustainability and the inclusion of marginalised groups in policymaking and in accessing government services.</p><p dir=\"ltr\">The two highest scoring countries in 2016 were Spain and the UK.</p><p><a href=\"https://www.data.europa.eu/en/dashboard\" target=\"_blank\">Get the data</a></p><p>In Spain, one example of including marginalised groups is&nbsp;<a href=\"https://zeroproject.org/practice/spain-ciencia-sin-barreras\">Sin Barrera</a>, a tool for finding car parking spaces that are accessible for wheelchair access.</p>",
        "_graphic": {
          "src": "course/en/assets/194749d6a3d955ccf1327dff670d11d82f1e5892.jpg",
          "alt": "",
          "attribution": "<a href=\"http://www.shutterstock.com/pic-185008832\" target=\"_blank\">suarassawadee</a> <span class='assetLicence'>[Shutterstock standard licence]</span>"
        },
        "strapline": "Social"
      }
    ]
  },
  {
       "_id":"c-95",
       "_parentId":"b-11",
       "_type":"component",
       "_component":"text",
       "_classes":"separator",
       "_layout":"full"
    },
    {
       "_id":"c-96",
       "_parentId":"b-11",
       "_type":"component",
       "_component":"text",
       "_classes": "attribution",
       "body":"&copy; <a href='https://theodi.org' target='_blank'>Open Data Institute</a>",
       "_layout":"full"
    },
    {
        "_id":"c-100",
        "_parentId":"b-11",
        "_type":"component",
        "_component":"graphic",
        "_classes":"footer-logo",
        "_layout":"left",
        "_graphic": {
            "alt": "Open data institute logo",
            "title": "Open data institute logo",
            "large": "course/en/images/logo-small.png",
            "medium": "course/en/images/logo-small.png",
            "small": "course/en/images/logo-small.png",
            "*source":"http://theodi.org",
            "*credit":"The Open Data Institute",
            "*license":"All rights reserved"
        }
    },
    {
        "_id":"c-104",
        "_parentId":"b-11",
        "_type":"component",
        "_component":"text",
        "_classes":"attribution not-eu not-default",
        "_layout":"right",
        "body":"Content created by <a href='http://theodi.org' target='_blank'>The Open Data Institute</a>"
    },
    {
        "_id":"c-105",
        "_parentId":"b-11",
        "_type":"component",
        "_component":"text",
        "_classes":"social-buttons not-dlab",
        "_layout":"right",
        "body":"<a class='social' target='_blank' href='https://twitter.com/ODIHQ'><img src='course/en/images/social/twitter.png'></a><a class='social' target='_blank' href='https://soundcloud.com/theodi'><img src='course/en/images/social/sound.png'></a><a class='social' target='_blank' href='https://www.scribd.com/OpenDataInstitute'><img src='course/en/images/social/scribd.png'></a><a class='social' target='_blank' href='https://github.com/theodi'><img src='course/en/images/social/github.png'></a><a class='social' target='_blank' href='https://vimeo.com/theodiuk'><img src='course/en/images/social/vimeo.png'></a><a class='social' target='_blank' href='https://www.youtube.com/user/OpenDataInstituteUK'><img src='course/en/images/social/youtube.png'></a><a class='social' target='_blank' href='https://www.flickr.com/photos/ukodi/'><img src='course/en/images/social/flickr.png'></a>"
    }
]
