[
    {
        "_id":"c-01",
        "_parentId":"b-01",
        "_type":"component",
        "_component":"graphic",
        "_classes":"intro-logo",
        "_layout":"right",
        "title":"",
        "displayTitle":"",
        "body":"",
        "instruction":"",
        "_graphic": {
            "alt": "",
            "title": "",
            "large": "",
            "medium": "",
            "small": "",
            "*source":"",
            "*credit":"",
            "*license":""
        }
    },
    {
        "_id":"c-02",
        "_parentId":"b-01",
        "_type":"component",
        "_component":"text",
        "_classes":"",
        "_layout":"left",
        "title":"Conectar la Web de los datos",
        "displayTitle":"Conectar la Web de los datos",
        "body":"<p>La Web actual está configurada como una serie de páginas o «documentos». Aunque estos documentos se basan en fuentes repletas de datos, los ocultan tras páginas diseñadas para la vista humana. En este módulo veremos qué ocurriría si se eliminaran todas las páginas o los documentos de la Web.</p><p>Imagínese que solo tuviera datos en bruto, todos ellos abiertos, utilizables y enlazados entre sí en una red o «Web» de datos.</p><p>En este módulo también presentamos la Web de los datos abiertos enlazados y vemos cómo las 5 estrellas de los datos abiertos enlazados proporcionan una hoja de ruta para lograr esta visión.</p><h5>En este módulo estudiaremos lo siguiente:</h5><ul class='ticks'><li>¿Qué es la Web de los datos?</li><li>Cómo se utilizan los identificadores</li><li>Qué aspecto tiene una Web de datos abiertos enlazados</li></ul>",
        "instruction":"",
        "_pageLevelProgress": {
            "_isEnabled": true
        }
    },
    {
    "_id":"c-11",
    "_parentId":"b-10",
    "_type":"component",
    "_component":"iFrame-vimeo",
    "_classes":"",
    "_layout":"full",
        "title":"Navegar por la Web de los datos en 2 minutos",
        "displayTitle": "Navegar por la Web de los datos en 2 minutos",
        "body": "David Tarrant del Open Data Institute (ODI) nos presenta la Web de los datos abiertos enlazados y analiza cómo las 5 estrellas de los datos abiertos enlazados pueden ayudarle a comenzar a navegar por la Web de los datos.",
        "instruction": "Para activar o desactivar los subtítulos, haga clic en el botón «cc» que encontrará en la parte inferior derecha del vídeo",
        "_setCompletionOn":"ended",
        "_source": "//europa.eu/webtools/crs/iframe/?lang=es&oriurl=https://www.youtube.com/embed/QZ_876aZGL8&list=PLT5rARDev_rnG9rj7hZG0hALPWQS8mLGA&index=14",
        "_media": {
		"mp4": "course/es/video/video.mp4",
		"poster": "course/es/video/placeholder.jpg"
	},
        "_height": {
            "_small" : 250,
            "_medium" : 350,
            "_large" : 508
        }
    },
    {
        "_id": "c-20",
        "_parentId": "b-20",
        "_classes": "",
        "_type":"component",
        "_layout": "full",
        "_component": "narrative",
        "title": "Comprender la Web de los datos",
        "displayTitle": "Comprender la Web de los datos",
        "body": "La Web de los datos abiertos enlazados está cambiando la manera en la que accedemos a los datos abiertos y los examinamos.",
        "instruction": "<em class='desktop-instruction'>Haga clic en la flecha derecha para ver más.</em><em class='mobile-instruction'>Seleccione el símbolo «+» para ver otras opciones y, a continuación, pase la imagen para ver más.</em>",
        "_items": [
            {
                "title": "¿Qué es la Web de los datos?",
                "body": "<p>La Web actual está configurada como una serie de páginas o «documentos». Estos documentos han sido diseñados por personas para ser atractivos visualmente para que otras personas puedan leerlos y los llenen de información.</p><p>No es lo mismo los datos que están «en la Web» que la «Web de los datos».</p><p>Los datos «de la Web» son un archivo que puede descargarse de una página web. La Web de los datos es un conjunto de recursos de datos estrechamente relacionados que pueden leerse al momento y ser comprendidos tanto por las personas como por las máquinas.</p>",
                "_graphic": {
                    "src": "course/es/images/odi-001.jpg",
                    "alt": "¿Qué es la Web de los datos?",
                    "title": "¿Qué es la Web de los datos?",
                    "*source":"http://www.shutterstock.com/pic-137240846",
                    "*credit":"Anna Frajtova",
                    "*license":"Shutterstock Standard License"
                },
                "strapline": "Datos"
            },
            {
                "title": "Conectar la Web de los datos",
                "body": "<p>Imagínese que todos estos documentos visualmente atractivos se eliminaran de la Web. ¿Cómo encontraría el camino?</p><p>Para navegar, necesitaría señales que le dijeran cómo se relaciona su ubicación actual con respecto a la de los demás.</p><p>La «Web de los datos» proporciona estas señales al requerir que todos los datos estén conectados, a través de enlaces, a otros datos. Los enlaces permiten navegar entre puntos de datos y también permiten que las máquinas lo hagan.</p>",
                "_graphic": {
                    "src": "course/es/images/odi-002.jpg",
                    "alt": "Conectar la Web de los datos",
                    "title": "Conectar la Web de los datos",
                    "*source":"http://www.shutterstock.com/pic-221630044",
                    "*credit":"Monash",
                    "*license":"Shutterstock Standard License"
                },
                "strapline": "Información"
            },
            {
                "title": "¿Qué puede hacer una Web de datos abiertos enlazados?",
                "body": "<p>La Web de los datos ya existe en ciertas partes de la Web.</p><p>Algunas empresas de gran tamaño como Microsoft incluso han investigado herramientas que nos permitirían navegar por la Web de una manera completamente nueva usando los datos, en lugar de páginas web, para movernos.<br /><a href='http://www.ted.com/talks/gary_flake_is_pivot_a_turning_point_for_web_exploration?language=en' target='_blank'>Ir a la charla sobre Microsoft Pivot</a></p>",
                "_graphic": {
                    "src": "course/es/images/odi-003.jpg",
                    "alt": "¿Qué puede hacer una Web de datos abiertos enlazados?",
                    "title": "¿Qué puede hacer una Web de datos abiertos enlazados?",
                    "*source":"http://www.shutterstock.com/pic-230811505",
                    "*credit":"Sentavio",
                    "*license":"Shutterstock Standard License"
                },
                "strapline": "Conocimientos"
            }
        ],
        "_pageLevelProgress": {
        "_isEnabled": true
        }
    },
    {
        "_id":"c-25",
        "_parentId":"b-25",
        "_type":"component",
        "_component":"graphic",
        "_classes":"",
        "_layout":"right",
        "_graphic": {
            "alt": "Stars",
            "title": "Stars",
            "large": "course/es/images/odi-004.jpg",
            "medium": "course/es/images/odi-004.jpg",
            "small": "course/es/images/odi-004.jpg",
            "*source":"http://www.shutterstock.com/pic-109300883",
            "*credit":"Kletr",
            "*license":"Shutterstock Standard License"
        }
    },
    {
        "_id":"c-26",
        "_parentId":"b-25",
        "_type":"component",
        "_component":"text",
        "_classes":"",
        "_layout":"left",
        "title":"Crear una Web de los datos",
        "displayTitle":"Crear una Web de los datos",
        "body":"<p>Para crear una Web de datos abiertos enlazados se necesitan dos cosas:</p><ul class='ticks'><li>Que se pueda hacer referencia a los datos en la Web</li><li>Que la gente proporcione enlaces web a estos datos desde sus propios datos</li></ul><p>Estas son las dos condiciones que cumplen los requisitos de las estrellas 4 y 5 de los datos abiertos enlazados.</p>"
    },
    {
        "_id":"c-30",
        "_parentId":"b-28",
        "_type":"component",
        "_component":"graphic",
        "_classes":"",
        "_layout":"right",
        "_graphic": {
            "alt": "La estrella 4",
            "title": "La estrella 4",
            "large": "course/es/images/odi-005.jpg",
            "medium": "course/es/images/odi-005.jpg",
            "small": "course/es/images/odi-005.jpg",
            "*source":"http://www.shutterstock.com/pic.mhtml?id=180739841&src=lb-36497927",
            "*credit":"Tarchyshnik Andrei",
            "*license":"Shutterstock Standard License"
        }
    },
    {
      "_id":"c-35",
      "_parentId":"b-28",
      "_type":"component",
      "_component":"accordion",
      "_classes":"",
      "_layout":"left",
      "title": "Estrella 4: identificadores abiertos",
      "displayTitle": "Estrella 4: identificadores abiertos",
      "body": "<p>La estrella 4 consiste en poder referenciar cosas en la Web.</p>",
      "instruction": "",
      "_items": [
        {
          "alt": "Identificadores abiertos",
          "title": "Identificadores abiertos",
          "body": "<p>Un identificador es una manera abreviada de hacer referencia a una cosa más complicada.</p><p>Un ejemplo típico son los números de las empresas y los códigos postales de los lugares.</p><p>Sin embargo, existen muchos otros identificadores que se utilizan tanto en el sector público como en el privado.</p><p>El problema de muchos identificadores es que no es obvio saber a qué hacen referencia por el número. Por eso, la mayoría de la gente confía en los motores de búsqueda para que nos cuenten más información sobre para qué sirven estos identificadores. Los identificadores basados en la Web no tienen este problema ya que simplemente podemos hacer clic en el identificador para saber más.</p><p>Por ejemplo, el CIF de una empresa es 08030289. Para encontrar la empresa usando este número, tendría que introducirlo en un motor de búsqueda para averiguar para qué era el identificador antes de enlazar datos a través del recurso. Por el contrario, puede seguir un identificador basado en la Web para el mismo registro directamente desde cualquier navegador web, por ejemplo: <br /><a href='https://beta.companieshouse.gov.uk/company/08030289' style='word-wrap: break-word;' target='_blank'>https://beta.companieshouse.gov.uk/company/08030289</a></p>"
        },
        {
          "alt": "Usar la estrella 4",
          "title": "Usar la estrella 4",
          "body": "<p>La estrella 4 implica la creación y el uso de identificadores basados en la Web (http://) para cosas, tanto físicas como digitales.</p><p>Los identificadores normalmente son conjuntos de caracteres, como códigos postales (p.ej. EC2A 4JE) o simplemente números (08030289).</p><p>Crear estos identificadores basados en la Web permite usar el servicio de resolución de nombres HTTP para buscar estas cosas e incluso obtener una copia real. Por ejemplo: </p><p><a style='word-wrap: break-word;' href='http://id.southampton.ac.uk/building/59' target='_blank'>http://id.southampton.ac.uk/building/59</a></p><p><a style='word-wrap: break-word;' href='http://data.ordnancesurvey.co.uk/id/postcodeunit/EC2A4JE' target='_blank'>http://data.ordnancesurvey.co.uk/id/postcodeunit/EC2A4JE</a></p>"
        },
        {
          "alt": "Datos abiertos con estrella 4",
          "title": "Datos abiertos con estrella 4",
          "body": "<p>La estrella 4 también implica que cuando un usuario hace clic en un enlace y no se le puede proporcionar el elemento exacto (por ejemplo, un libro, un objeto, una persona o un edificio), se le debe proporcionar información contextual sobre ese elemento.</p><p>Esto suele hacerse redirigiendo al cliente (una persona o una máquina) a esa información. La información puede encontrarse en forma de página web o de datos en bruto.</p>"
        },
        {
          "alt": "Pruébelo....",
          "title": "Pruébelo....",
          "body": "<p>Algunos identificadores basados en la Web le dicen al lector cuál es el identificador simplemente con el texto de la URL. Antes de hacer clic en la URL, ¿por qué no lo prueba? A continuación, intente averiguar a qué identificador enlaza:<br><br><a href='http://data.ordnancesurvey.co.uk/id/postcodeunit/EC2A4JE' style='word-wrap: break-word;' target='_blank'>http://data.ordnancesurvey.co.uk/id/postcodeunit/EC2A4JE</a></p><p>El enlace envía una petición de un código postal al servidor. Para responder a la petición, el servidor devuelve una página web sobre el código postal dado que no puede enviarle el propio código postal. Su navegador ha atravesado un proceso conocido como negociación de contenidos con el servidor, en el que se obtiene una página web porque se está visualizando a través de un navegador. Si hubiéramos accedido a ellos con una máquina, los habríamos obtenido en otro formato, en función de la preferencia que hubiera indicado.</p><p>¿Por qué no vemos lo que vería una máquina con la negociación de contenidos en el enlace de Ordnance Survey añadiendo una extensión «.json» y «.xml» al final de la URL?</p>"
        }
      ],
      "_pageLevelProgress": {
        "_isEnabled": true
      }
    },
         {
        "_id":"c-37",
        "_parentId":"b-30",
        "_type":"component",
        "_component":"graphic",
        "_classes":"",
        "_layout":"right",
        "_graphic": {
            "alt": "La estrella 5",
            "title": "La estrella 5",
            "large": "course/es/images/odi-006.jpg",
            "medium": "course/es/images/odi-006.jpg",
            "small": "course/es/images/odi-006.jpg",
            "*source":"http://www.shutterstock.com/pic-245326720",
            "*credit":"Omelchenko",
            "*license":"Shutterstock Standard License"
        }
    },
    {
      "_id":"c-38",
      "_parentId":"b-30",
      "_type":"component",
      "_component":"accordion",
      "_classes":"",
      "_layout":"left",
      "title": "La estrella 5: los datos enlazados",
      "displayTitle": "La estrella 5: los datos enlazados",
      "body": "<p>La estrella 5 consiste en enlazar puntos de datos individuales.</p>",
      "instruction": "",
      "_items": [
        {
          "alt": "En Enlace",
          "title": "En Enlace",
          "body": "<p>La estrella 5 introduce el concepto de enlazar puntos de datos entre sí.</p><p>Estos enlaces permiten a las personas y las máquinas navegar entre fuentes de datos en la Web.</p><p>Enlazar puntos de datos directamente entre sí permite dirigir a la persona o la máquina a un registro definitivo sobre ese tema, en lugar de que cada persona mantenga su propio registro del dato. Los datos enlazados funcionan como un sitio web oficial que proporciona a todo el mundo un recurso autorizado sobre el tema. Además, evitan que las personas dupliquen los datos al compartir un único recurso entre un número infinito de conjuntos de datos, mediante el uso de varios URI.</p>"
        },
        {
          "alt": "Usar la estrella 5",
          "title": "Usar la estrella 5",
          "body": "<p>Ejemplo: una base de datos de edificios propiedad de una empresa normalmente tendrá códigos postales para cada edificio en los registros de datos:<br/><br>Número de edificio: 32<br>Código postal: SO17 1BJ<br>Barrio: Postwood<br>Distrito: City of Southampton<br>Con los datos enlazados no es necesario replicar los datos, como el barrio y el distrito, que gestionan otras autoridades. Así, el registro se convierte en:<br><br>Número de edificio: 32<br>Código postal: <a href='http://data.ordnancesurvey.co.uk/id/postcodeunit/SO171BJ' style='word-wrap: break-word;' target='_blank'>http://data.ordnancesurvey.co.uk/id/postcodeunit/SO171BJ</a></p>"
        },
        {
          "alt": "Pruebe con la estrella 5",
          "title": "Pruebe con la estrella 5",
          "body": "<p>Probablemente se haya dado cuenta de la existencia de algunos enlaces en los datos que hemos visto antes en este módulo.</p><p>Pruebe a cargar el enlace que hemos visto antes:<br><br><a href='http://data.ordnancesurvey.co.uk/id/postcodeunit/SO171BJ' style='word-wrap: break-word;' target='_blank'>http://data.ordnancesurvey.co.uk/id/postcodeunit/SO171BJ</a><br><br>Now try loading the same link into a data browser:<br><br><a href='http://graphite.ecs.soton.ac.uk/browser/' target='_blank'>Ir al navegador de datos enlazados Graphite</a><br><br>El navegador de datos utiliza la negociación automática de contenidos para los datos, no para el contenido de la página web, y muestra los datos en bruto en un formato legible por las personas.</p><p>Cualquier texto en rojo que aparece en el navegador es un enlace en los datos, que debe llevar a más datos.</p><p>Utilice la siguiente URL para ver lo que puede descubrir en la Web de datos abiertos enlazados.</p><p><a href='https://www.bbc.co.uk/programmes/b006q2x0' target='_blank'>https://www.bbc.co.uk/programmes/b006q2x0</a></p>"
        }
      ],
      "_pageLevelProgress": {
        "_isEnabled": true
      }
    },
    {
        "_id":"c-42",
        "_parentId":"b-33",
        "_type":"component",
        "_component":"graphic",
        "_classes":"",
        "_layout":"right",
        "title":"",
        "displayTitle":"",
        "body":"",
        "instruction":"",
        "_graphic": {
            "alt": "",
            "title": "",
            "large": "course/es/images/burst.png",
            "medium": "course/es/images/burst.png",
            "small": "course/es/images/burst.png"
        }
    },
    {
        "_id":"c-43",
        "_parentId":"b-33",
        "_type":"component",
        "_component":"text",
        "_classes":"",
        "_layout":"left",
        "title":"¿Preparado para navegar la Web de los datos?",
        "displayTitle":"¿Preparado para navegar la Web de los datos?",
        "body":"<p>Hay cuatro cosas muy útiles que debe recordar a la hora de plantearse navegar la Web de los datos enlazados, ¿las recuerda?</p>",
        "instruction":"",
        "_pageLevelProgress": {
            "_isEnabled": true
        }
    },
    {
        "_id":"c-45",
        "_parentId":"b-35",
        "_type":"component",
        "_component":"graphic",
        "_classes":"illustration",
        "_layout":"right",
        "_graphic": {
            "alt": "Stars",
            "title": "",
            "large": "course/es/images/odi-007.jpg",
            "medium": "course/es/images/odi-007.jpg",
            "small": "course/es/images/odi-007.jpg",
            "*source":"http://www.shutterstock.com/pic-109300883",
            "*credit":"Kletr",
            "*license":"Shutterstock Standard License"
        }
    },
    {
        "_id":"c-50",
        "_parentId":"b-35",
        "_type":"component",
        "_component":"mcq",
        "_adapt2id":"58b833ebfda9f5660ad85aae",
        "_classes":"",
        "_layout":"left",
        "_attempts":1,
        "_questionWeight":1,
        "_isRandom":true,
        "_selectable":1,
        "title": "¿Qué es la Web de los datos?",
        "displayTitle": "¿Qué es la Web de los datos?",
        "body": "<p>La Web de los datos es...</p>",
        "instruction": "<em>Seleccione la respuesta y, a continuación, haga clic en «Enviar».</em>",
        "_items": [
            {
                "text": "una web de portales de datos donde se pueden descargar datos",
                "_shouldBeSelected": false
            },
            {
                "text": "un conjunto de recursos de datos enlazados entre sí en la Web",
                "_shouldBeSelected": true
            },
            {
                "text": "una nueva red social",
                "_shouldBeSelected": false
            }
        ],
        "_feedback":{
            "correct":"<h5>¡Exacto!</h5><p>La Web de los datos es un conjunto de recursos de datos enlazados entre sí que pueden leerse al momento y ser comprendidos tanto por las personas como por las máquinas.</p>",
            "_incorrect": {
                "notFinal": "<h5>¿Está seguro?</h5><p>La Web de los datos es un conjunto de recursos de datos enlazados entre sí que pueden leerse al momento y ser comprendidos tanto por las personas como por las máquinas.</p>",
                "final": "<h5>¿Está seguro?</h5><p>La Web de los datos es un conjunto de recursos de datos enlazados entre sí que pueden leerse al momento y ser comprendidos tanto por las personas como por las máquinas.</p>"
            },
            "_partlyCorrect": {
                "notFinal": "Lorem ipsum dolor sit amet, consectetur adipisicing elit, sed do eiusmodtempor incididunt ut labore et dolore magna aliqua. Ut enim ad minim veniam, quis nostrud exercitation ullamco laboris nisi ut aliquip ex ea commodo consequat. Duis aute irure dolor in reprehenderit in voluptate velit esse cillum dolore eu fugiat nulla pariatur. Excepteur sint occaecat cupidatat non proident, sunt in culpa qui officia deserunt mollit anim id est laborum.",
                "final": "Lorem ipsum dolor sit amet, consectetur adipisicing elit, sed do eiusmodtempor incididunt ut labore et dolore magna aliqua. Ut enim ad minim veniam, quis nostrud exercitation ullamco laboris nisi ut aliquip ex ea commodo consequat. Duis aute irure dolor in reprehenderit in voluptate velit esse cillum dolore eu fugiat nulla pariatur. Excepteur sint occaecat cupidatat non proident, sunt in culpa qui officia deserunt mollit anim id est laborum."
          }
        },
        "_buttons":{
            "submit":"",
            "reset":"",
            "showCorrectAnswer":"",
            "hideCorrectAnswer":""
        },
        "_pageLevelProgress": {
        "_isEnabled": true
      }
    },
    {
        "_id":"c-55",
        "_parentId":"b-40",
        "_type":"component",
        "_component":"graphic",
        "_classes":"illustration",
        "_layout":"left",
        "_graphic": {
            "alt": "La estrella 4",
            "title": "La estrella 4",
            "large": "course/es/images/odi-008.jpg",
            "medium": "course/es/images/odi-008.jpg",
            "small": "course/es/images/odi-008.jpg",
            "*source":"http://www.shutterstock.com/pic.mhtml?id=180739841&src=lb-36497927",
            "*credit":"Tarchyshnik Andrei",
            "*license":"Shutterstock Standard License"
        }
    },
    {
        "_id":"c-60",
        "_parentId":"b-40",
        "_type":"component",
        "_component":"mcq",
        "_adapt2id":"58b8369efda9f5660ad85ac0",
        "_classes":"",
        "_layout":"right",
        "_attempts":1,
        "_questionWeight":1,
        "_isRandom":true,
        "_selectable":1,
        "title": "¿Qué identifica lo siguiente?",
        "displayTitle": "¿Qué identifica lo siguiente?",
        "body": "<p><a href='http://id.southampton.ac.uk/room/32-3077' target='_blank'>http://id.southampton.ac.uk/room/32-3077</a></p>",
        "instruction": "<em>Seleccione la respuesta y, a continuación, haga clic en «Enviar».</em>",
        "_items": [
            {
                "text": "una página web",
                "_shouldBeSelected": false
            },
            {
                "text": "un edificio",
                "_shouldBeSelected": false
            },
            {
                "text": "una sala",
                "_shouldBeSelected": true
            }
        ],
        "_feedback":{
            "correct":"<h5>¡Exacto!</h5><p>Recuerde que el identificador basado en la Web apunta a la propia cosa y no a la página web en la que se encuentra.</p>",
            "_incorrect": {
                "notFinal": "<h5>¿Está seguro?</h5><p>Recuerde que el identificador basado en la Web apunta a la propia cosa y no a la página web en la que se encuentra.</p>",
                "final": "<h5>¿Está seguro?</h5><p>Recuerde que el identificador basado en la Web apunta a la propia cosa y no a la página web en la que se encuentra.</p>"
            },
            "_partlyCorrect": {
                "notFinal": "Lorem ipsum dolor sit amet, consectetur adipisicing elit, sed do eiusmodtempor incididunt ut labore et dolore magna aliqua. Ut enim ad minim veniam, quis nostrud exercitation ullamco laboris nisi ut aliquip ex ea commodo consequat. Duis aute irure dolor in reprehenderit in voluptate velit esse cillum dolore eu fugiat nulla pariatur. Excepteur sint occaecat cupidatat non proident, sunt in culpa qui officia deserunt mollit anim id est laborum.",
                "final": "Lorem ipsum dolor sit amet, consectetur adipisicing elit, sed do eiusmodtempor incididunt ut labore et dolore magna aliqua. Ut enim ad minim veniam, quis nostrud exercitation ullamco laboris nisi ut aliquip ex ea commodo consequat. Duis aute irure dolor in reprehenderit in voluptate velit esse cillum dolore eu fugiat nulla pariatur. Excepteur sint occaecat cupidatat non proident, sunt in culpa qui officia deserunt mollit anim id est laborum."
          }
        },
        "_buttons":{
            "submit":"",
            "reset":"",
            "showCorrectAnswer":"",
            "hideCorrectAnswer":""
        },
        "_pageLevelProgress": {
        "_isEnabled": true
      }
    },
    {
        "_id":"c-65",
        "_parentId":"b-45",
        "_type":"component",
        "_component":"graphic",
        "_classes":"illustration",
        "_layout":"right",
        "_graphic": {
            "alt": "La estrella 5",
            "title": "La estrella 5",
            "large": "course/es/images/odi-009.jpg",
            "medium": "course/es/images/odi-009.jpg",
            "small": "course/es/images/odi-009.jpg",
            "*source":"http://www.shutterstock.com/pic-245326720",
            "*credit":"Omelchenko",
            "*license":"Shutterstock Standard License"
        }
    },
    {
        "_id":"c-70",
        "_parentId":"b-45",
        "_type":"component",
        "_component":"mcq",
        "_adapt2id":"58b8377cfda9f5660ad85ac8",
        "_classes":"",
        "_layout":"left",
        "_attempts":1,
        "_questionWeight":1,
        "_isRandom":true,
        "_selectable":3,
        "title": "¿Cuáles de los siguientes son identificadores de la artista Taylor Swift?",
        "displayTitle": "¿Cuáles de los siguientes son identificadores de la artista Taylor Swift?",
        "body": "",
        "instruction": "<em>Seleccione hasta tres opciones y, a continuación, haga clic en «Enviar».</em>",
        "_items": [
            {
                "text": "<a href='http://www.bbc.co.uk/music/artists/20244d07-534f-4eff-b4d4-930878889970' target='_blank'>http://www.bbc.co.uk/music/artists/20244d07-534f-4eff-b4d4-930878889970</a>",
                "_shouldBeSelected": true
            },
            {
                "text": "<a href='https://musicbrainz.org/artist/20244d07-534f-4eff-b4d4-930878889970' target='_blank'>https://musicbrainz.org/artist/20244d07-534f-4eff-b4d4-930878889970</a>",
                "_shouldBeSelected": true
            },
            {
                "text": "<a href='http://dbpedia.org/resource/Taylor_Swift' target='_blank'>http://dbpedia.org/resource/Taylor_Swift</a>",
                "_shouldBeSelected": true
            }
        ],
        "_feedback":{
            "correct":"<h5>¡Exacto!</h5><p>¡Esos son! Los dos primeros utilizan el mismo subidentificador, pero son autoridades diferentes. El tercero es el identificador de la Wikipedia (dbpedia) de la artista. Todos se enlazan entre sí y comparten sus datos, ¿puede encontrar los enlaces?</p>",
            "_incorrect": {
                "notFinal": "<h5>¿Está seguro?</h5><p>¡Esos son! Los dos primeros utilizan el mismo subidentificador, pero son autoridades diferentes. El tercero es el identificador de la Wikipedia (dbpedia) de la artista. Todos se enlazan entre sí y comparten sus datos, ¿puede encontrar los enlaces?</p>",
                "final": "<h5>¿Está seguro?</h5><p>¡Esos son! Los dos primeros utilizan el mismo subidentificador, pero son autoridades diferentes. El tercero es el identificador de la Wikipedia (dbpedia) de la artista. Todos se enlazan entre sí y comparten sus datos, ¿puede encontrar los enlaces?</p>"
            },
            "_partlyCorrect": {
                "notFinal": "<h5>¿Está seguro?</h5><p>¡Esos son! Los dos primeros utilizan el mismo subidentificador, pero son autoridades diferentes. El tercero es el identificador de la Wikipedia (dbpedia) de la artista. Todos se enlazan entre sí y comparten sus datos, ¿puede encontrar los enlaces?</p>",
                "final": "<h5>¿Está seguro?</h5><p>¡Esos son! Los dos primeros utilizan el mismo subidentificador, pero son autoridades diferentes. El tercero es el identificador de la Wikipedia (dbpedia) de la artista. Todos se enlazan entre sí y comparten sus datos, ¿puede encontrar los enlaces?</p>"
          }
        },
        "_buttons":{
            "submit":"",
            "reset":"",
            "showCorrectAnswer":"",
            "hideCorrectAnswer":""
        },
        "_pageLevelProgress": {
        "_isEnabled": true
      }
    },
    {
        "_id":"c-85",
        "_parentId":"b-55",
        "_type":"component",
        "_component":"graphic",
        "_classes":"",
        "_layout":"right",
        "_graphic": {
            "alt": "Summary icon clipboard",
            "title": "Summary icon clipboard",
            "large": "course/es/images/summary-icon.png",
            "medium": "course/es/images/summary-icon.png",
            "small": "course/es/images/summary-icon.png",
            "*source":"http://www.shutterstock.com/pic-189810137.html",
            "*credit":"Kritchanut",
            "*license":"Shutterstock Standard License"
        }
    },
    {
        "_id":"c-90",
        "_parentId":"b-55",
        "_type":"component",
        "_component":"text",
        "_classes":"",
        "_layout":"left",
        "title":"Navegar por la Web de datos abiertos enlazados",
        "displayTitle":"Navegar por la Web de datos abiertos enlazados",
        "body":"<p>La Web de los datos es un conjunto de recursos de datos estrechamente relacionados que pueden leerse al momento y ser comprendidos tanto por las personas como por las máquinas.</p><p>En 1989, Sir Tim Berners-Lee inventó la Web de documentos y tardamos más de 20 años en entender cómo utilizarla. Ahora constituye una parte fundamental de nuestra sociedad.</p><p>En 2001, Tim imaginó la Web de datos abiertos enlazados y aún estamos viendo cómo va a cambiar radicalmente la Web una y otra vez.</p><p><a class='course_link' href='../module14/'>Módulo siguiente</a></p><p><a class='course_link' href='../'>Menú principal</a></p>",
        "_pageLevelProgress": {
          "_isEnabled": true
        }
    },
    {
       "_id":"c-95",
       "_parentId":"b-55",
       "_type":"component",
       "_component":"text",
       "_classes":"separator",
       "_layout":"full"
    },
    {
       "_id":"c-96",
       "_parentId":"b-55",
       "_type":"component",
       "_component":"text",
       "_classes": "attribution",
       "body":"&copy; <a href='https://ec.europa.eu/commission/index_en' target='_blank'>European Commission</a>",
       "_layout":"full"
    },
    {
        "_id":"c-100",
        "_parentId":"b-55",
        "_type":"component",
        "_component":"graphic",
        "_classes":"footer-logo",
        "_layout":"left",
        "_graphic": {
            "alt": "Open data institute logo",
            "title": "Open data institute logo",
            "large": "course/es/images/logo-small.png",
            "medium": "course/es/images/logo-small.png",
            "small": "course/es/images/logo-small.png",
            "*source":"http://theodi.org",
            "*credit":"The Open Data Institute",
            "*license":"All rights reserved"
        }
    },
    {
        "_id":"c-104",
        "_parentId":"b-55",
        "_type":"component",
        "_component":"text",
        "_classes":"attribution not-eu not-default",
        "_layout":"right",
        "body":"<a href='http://theodi.org' target='_blank'>The Open Data Institute</a>"
    },
    {
        "_id":"c-105",
        "_parentId":"b-55",
        "_type":"component",
        "_component":"text",
        "_classes":"social-buttons not-dlab",
        "_layout":"right",
        "body":"<a class='social' target='_blank' href='https://twitter.com/ODIHQ'><img src='course/es/images/social/twitter.png'></a><a class='social' target='_blank' href='https://soundcloud.com/theodi'><img src='course/es/images/social/sound.png'></a><a class='social' target='_blank' href='https://www.scribd.com/OpenDataInstitute'><img src='course/es/images/social/scribd.png'></a><a class='social' target='_blank' href='https://github.com/theodi'><img src='course/es/images/social/github.png'></a><a class='social' target='_blank' href='https://vimeo.com/theodiuk'><img src='course/es/images/social/vimeo.png'></a><a class='social' target='_blank' href='https://www.youtube.com/user/OpenDataInstituteUK'><img src='course/es/images/social/youtube.png'></a><a class='social' target='_blank' href='https://www.flickr.com/photos/ukodi/'><img src='course/es/images/social/flickr.png'></a>"
    }
]
