[
    {
        "_id":"c-01",
        "_parentId":"b-01",
        "_type":"component",
        "_component":"graphic",
        "_classes":"intro-logo",
        "_layout":"right",
        "title":"",
        "displayTitle":"",
        "body":"",
        "instruction":"",
        "_graphic": {
            "alt": "",
            "title": "",
            "large": "",
            "medium": "",
            "small": ""
        }
    },
    {
        "_id":"c-02",
        "_parentId":"b-01",
        "_type":"component",
        "_component":"text",
        "_classes":"",
        "_layout":"left",
        "title":"Générer de la valeur à partir de l’open data",
        "displayTitle":"Générer de la valeur à partir de l’open data",
        "body":"<p>L’open data a le potentiel de contribuer à la croissance des économies, de transformer les sociétés et de protéger l’environnement.</p><p>Dans ce module, nous verrons dans quelle mesure les gouvernements, les entreprises et les individus utilisent l’ open data pour générer de la valeur nouvelle.</p><h5>Dans ce module, nous allons explorer les points suivants :</h5><ul class='ticks'><li>Innovation et croissance commerciale</li><li>Opportunités gouvernementales</li><li>Impact sur la société et la politique publique</li><li>Avantages culturels et écologiques</li></ul>",
        "instruction":"",
        "_pageLevelProgress": {
            "_isEnabled": true
        }
    },
    {
    "_id":"c-11",
    "_parentId":"b-10",
    "_type":"component",
    "_component":"iFrame-vimeo",
    "_classes":"",
    "_layout":"full",
        "title":"Générer de la valeur à partir de l’open data- en 3 minutes",
        "displayTitle": "Générer de la valeur à partir de l’open data- en 3 minutes",
        "body": "Formateur à l’ODI, Ben Cave examine comment les entreprises et les gouvernements génèrent de la valeur grâce à l’open data ainsi que l’impact positif sur l’économie, la société et l’environnement.",
        "instruction": "Pour activer les sous-titres en français, veuillez cliquer sur le bouton marqué ‘cc’ en bas à droite de la vidéo puis sélectionner le français.",
        "_setCompletionOn":"ended",
        "_source": "//europa.eu/webtools/crs/iframe/?lang=fr&oriurl=https://www.youtube.com/embed/ApeEEr-OFQc&list=PLT5rARDev_rnG9rj7hZG0hALPWQS8mLGA&index=2",
        "_media": {
		"mp4": "course/fr/video/video.mp4",
		"poster": "course/fr/video/placeholder.jpg"
	},
	"_width": {
            "_small" : 300,
            "_medium" : 500,
            "_large" : 905
        },
        "_height": {
            "_small" : 250,
            "_medium" : 350,
            "_large" : 508
        }
    },
    {
        "_id":"c-21",
        "_parentId":"b-20",
        "_type":"component",
        "_component":"graphic",
        "_classes":"",
        "_layout":"right",
        "_graphic": {
            "alt": "Innovation and growth in business",
            "title": "Innovation and growth in business",
            "large": "course/fr/images/odi-001-text-image_large.png",
            "medium": "course/fr/images/odi-001-text-image_large.png",
            "small": "course/fr/images/odi-001-text-image_large.png",
            "*source":"http://www.shutterstock.com/pic-230887714.html",
            "*credit":"Bloomua",
            "*license":"Shutterstock Standard License"
        }
    },
    {
        "_id":"c-22",
        "_parentId":"b-20",
        "_type":"component",
        "_component":"text",
        "_classes":"",
        "_layout":"left",
        "title":"Innovation et croissance commerciale",
        "displayTitle":"Innovation et croissance commerciale",
        "body":"<p>L’open data soutient l’innovation et la croissance commerciale en révélant des opportunités de mise en place de nouveaux services, d’économies potentielles et d’amélioration des opérations pour tout type d’entreprises, grandes ou petites.</p><p>À Paris, des propriétaires de cafés utilisent l’open data pour attirer des touristes <a href='https://web.archive.org/web/20150515035949/http://www.paris.fr/accueil/paris-mag/ou-boire-un-cafe-pour-1-a-paris/rub_9683_actu_116311_port_23863' target='_blank'>grâce à des prix compétitifs</a> alors qu’en Islande les agriculteurs utilisent <a href='http://weblog.linkingpaths.com/post/78767700473/icelandic-open-data-lambs-and-maps' target='_blank'>l’open data sur la qualité de leurs agneaux</a> afin d’attirer de nouveaux clients.</p><p>L’open data stimule l’innovation en supprimant les obstacles à l’accès, à l’usage et au partage des données.</p><p>La capacité à interpréter ces données (‘data literacy’) est une compétence de base pour les entreprises cherchant à profiter des opportunités offertes par l’open data en vue de générer de la valeur nouvelle et d’améliorer les opérations.</p>"
    },
     {
        "_id": "c-25",
        "_parentId": "b-25",
        "_classes": "",
        "_type":"component",
        "_layout": "full",
        "_component": "narrative",
        "title": "Opportunités gouvernementales",
        "displayTitle": "Opportunités gouvernementales",
        "body": "Le secteur public bénéficie des initiatives d’open data dans plusieurs manières :",
        "instruction": "<em class='desktop-instruction'>Cliquez sur la flèche pour plus de détail</em><em class='mobile-instruction'>Cliquez sur la flèche pour plus de détail</em>",
        "_items": [
            {
                "title": "Soutenir des économies en croissance",
                "body": "<p>Afin de soutenir l'émergence de nouvelles entreprises axées sur les données ainsi que la croissance de celles qui existent déjà, les gouvernements doivent publier des ensembles clés de données.</p><p>Les gouvernements doivent aussi soutenir les infrastructures qui relient les données avec ceux qui les utilisent.</p><p>En échange, les gouvernements récoltent les fruits de l’économie des données en croissance tel qu’en Finlande où des PME qui utilisent l’open data ont grandi à un taux de 15% plus vite.</p><p><a href='https://web.archive.org/web/20140531085827/http://www.epsiplatform.eu/content/finnish-study-psi-pricing-geo-data' target='_blank'>Lien vers un cas d’etude finlandais.</a></p>",
                "_graphic": {
                    "src": "course/fr/images/odi-002-narrative_large.jpg",
                    "alt": "Support Growing Economies",
                    "title": "Support Growing Economies",
                    "*source":"http://www.shutterstock.com/pic-128352227.html",
                    "*credit":"vs148",
                    "*license":"Shutterstock Standard License"
                },
                "strapline": "Support Growing Economies"
            },
            {
                "title": "Améliorer la prestation de services",
                "body": "<p>Les gouvernements doivent concilier les exigences de la croissance démographique et les problèmes locaux de petite échelle.</p><p>La disponibilité de données ouvertes détaillées est essentielle pour améliorer la prestation de services au niveau local.</p><p>Certains de ces nouveaux services sont disponibles dès maintenant -<br /><a href='https://www.mysociety.org/' target='_blank'>Lien vers mySociety</a> <br /><a href='http://kimittud.atlatszo.hu/' target='_blank'>Lien vers le portail hongrois de ‘droit à l’information’</a> <br /><a href='http://www.fiksgatami.no/' target='_blank'>Lien vers  Fix my street Norwège</a> <br /></p>",
                "_graphic": {
                    "src": "course/fr/images/odi-003-narrative_large.jpg",
                    "alt": "Improved service delivery",
                    "title": "Improved service delivery",
                    "*source":"https://www.fixmystreet.com/",
                    "*credit":"fixmystreet",
                    "*license":"unknown"
                },
                "strapline": "Improved service delivery"
            },
            {
                "title": "Réduction des coûts",
                "body": "<p>En contribuant à la croissance économique et en améliorant les services, l’open data permet aux gouvernements d’économiser dans des secteurs clés comme l’accès aux soins de santé, l’éducation et les services publics.</p><p>Au Royaume-Uni, l’open data fait apparaître <a href='https://theodi.org/news/prescription-savings-worth-millions-identified-odi-incubated-company' target='_blank'>une économie de plus de 200 million de livres</a> au système de santé</p><p> En Suisse, le canton de Berne présente au public une économie annuelle de 400 million d’euros to the public using open data</p><p>En France, l’open data encourage la production d’énergie plus efficace<br /><a href='https://www.quandl.com/search?filters=%5B%22Energy%22%2C%22Europe%22%5D&query=France' target='_blank'>Lien vers les données énergiques françaises</a></p><p>Les données ouvertes peuvent également contribuer à la transparence et à la responsabilité budgétaires.</p>",
                "_graphic": {
                    "src": "course/fr/images/odi-004-narrative_large.jpg",
                    "alt": "Cost Savings",
                    "title": "Cost Savings",
                    "*source":"http://www.shutterstock.com/pic-75494491.html",
                    "*credit":"vlastas",
                    "*license":"Shutterstock Standard License"
                },
                "strapline": "Cost Savings"
            }
        ],
        "_pageLevelProgress": {
        "_isEnabled": true
        }
    },
    {
        "_id":"c-30",
        "_parentId":"b-28",
        "_type":"component",
        "_component":"graphic",
        "_classes":"",
        "_layout":"right",
        "_graphic": {
            "alt": "Changing societies and public policy",
            "title": "Changing societies and public policy",
            "large": "course/fr/images/odi-005_accordian_large.jpg",
            "medium": "course/fr/images/odi-005_accordian_large.jpg",
            "small": "course/fr/images/odi-005_accordian_large.jpg",
            "*source":"http://www.shutterstock.com/pic-234353791.html",
            "*credit":"tai11",
            "*license":"Shutterstock Standard License"
        }
    },
    {
      "_id":"c-35",
      "_parentId":"b-28",
      "_type":"component",
      "_component":"accordion",
      "_classes":"",
      "_layout":"left",
      "title": "Changer la société et la politique publique",
      "displayTitle": "Changer la société et la politique publique",
      "body": "<p>L’open data génère de la valeur sociale et permet des politiques publiques mieux ciblées.</p>",
      "instruction": "",
      "_items": [
        {
          "alt": "Améliorer la façon dont nous nous déplaçons",
          "title": "Améliorer la façon dont nous nous déplaçons",
          "body": "<p>Les open data améliorent la façon dont nous nous déplaçons.</p><p>Quant à l’industrie des transports néerlandaise, l’open data aide un nombre croissant d’entreprises petites à développer des nouveaux services.</p><p class='not-tz not-dlab not-default'><a href='https://www.data.europa.eu/sites/default/files/use-cases/use_case_france_-_tranquilien_v1.pdf' target='_blank'>L'application française Tranquilien</a> améliore le confort du passager durant son voyage et promeut un usage efficace du transport public en fournissant une information pertinente sur les sièges vides, les heures de départ.</p><p>Une nouvelle application néerlandaise aide des personnes handicapées à réserver l’assistance voyage pour leur voyage en utilisant l’open data.<br /><a href='http://www.go-ov.nl/' target='_blank'>Lien vers l’application de GoOV</a><p>OL’open data gagne de temps pour des voyages aux heures de points, rend les voyages plus accessibles et aider des touristes à se deplacer dans des villes inconnues.</p>"
        },
        {
          "alt": "Améliorer la façon dont nous travaillons",
          "title": "Améliorer la façon dont nous travaillons",
          "body": "<p>L’open data change la façon dont nous travaillons.</p><p>L’open data réduit le temps nécessaire à la localisation de l’information et permet aux professionnels de se concentrer sur des activités productives.</p><p>OpenCorporates propose une base de données ouvertes de sociétés dans le monde entier, montrant leurs réseaux, leur stabilité financière et leur impact sur l’environnement.<br /><a href='https://opencorporates.com/info/about' target='_blank'>Lien vers OpenCorporates</a></p><p class='not-tz not-dlab not-default'><a href='https://www.data.europa.eu/sites/default/files/use-cases/use_case_finland_-_kannattaako_kaupp.pdf' target='_blank'>Le service finlandais Kannattaako kauppa fournit</a> une vision de l'évolution des prix de l’immobilier dans le futur, facilitant la comparaison des maisons et quartiers par prix et population.</p>"
        },
        {
          "alt": "Améliorer la façon dont nous gouvernons",
          "title": "Améliorer la façon dont nous gouvernons",
          "body": "<p>Pour les gouvernements, l’open data est devenu une source majeure de données lors du processus de décisions politiques.</p><p class='not-tz not-dlab not-default'>L’administration publique est de loin le secteur qui gagnera le plus de l’ouverture des données, avec une valeur à hauteur de<a href='http://www.data.europa.eu/sites/default/files/edp_creating_value_through_open_data_0.pdf' target='_blank'> 22 milliards d’euros en 2020.</a> Cela corrobore le fait que le secteur public soit le premier réutilisateur de ses propres données. Pour les secteurs de l’agriculture, ainsi que des arts et du divertissement, les bénéfices attendus sont plus limités avec 379 millions d’euros chacun. L’open data (les “données ouvertes”) présente encore beaucoup de potentiel dans ces secteurs, mais prendra plus de temps afin d’atteindre son plein potentiel.</p><p>L’open data rend le développement des politiques publiques plus transparent et encourage le dialogue entre les gouvernements et les citoyens.</p><p>L’open data concernant des questions clés telles que l’immigration, l’égalité et le commerce peuvent informer des décisions politiques importantes.</p><p class='not-tz not-dlab not-default'><a href='https://www.cityscale.com.ua/' target='_blank'>CityScale</a> est une plateforme ukrainienne qui fournit aux citoyens du pays des données ouvertes pertinentes, notamment en ce qui concerne les taux de criminalité, les soins de santé et la pollution atmosphérique.</p><p>Ainsi, une analyse de l’open data concernant les casernes de pompiers à Londres a permis d’établir lesquelles pourraient fermer en ayant le moins d’impact sur les services. </p><p><a href='http://london-fire.labs.theodi.org/' target='_blank'>Cliquer ici pour accéder à l’analyse des casernes de pompiers de Londres</a></p>"
        }
      ],
      "_pageLevelProgress": {
        "_isEnabled": true
      }
    },
     {
        "_id": "c-40",
        "_parentId": "b-30",
        "_classes": "",
        "_type":"component",
        "_layout": "full",
        "_component": "narrative",
        "title": "Bénéfices culturels et écologiques",
        "displayTitle": "Bénéfices culturels et écologiques",
        "body": "L’open data aide à cibler des initiatives ayant des avantages culturels et environnementaux.",
        "instruction": "<em class='desktop-instruction'>Cliquez sur la flèche pour plus de détail.</em><em class='mobile-instruction'>Cliquez sur la flèche pour plus de détail.</em>",
        "_items": [
            {
                "title": "Renforcer l'agriculture et la sécurité alimentaire",
                "body": "<p>L’open data aide les agriculteurs à produire des rendements qui soutiennent une population croissante en évitant la destruction de précieux habitats.</p><p>Plantwise recueille des données ouvertes pour fournir de précieuses informations  aux agriculteurs sur la santé des plantes et des menaces de maladies.<br /><a href='https://www.plantwise.org/' target='_blank'>Lien vers Plantwise</a></p><p>CIARD a produit un référentiel central de plus de 1500 collections ouvertes de recherche agricole dans le monde entier, mettant en évidence de nouvelles opportunités de recherche.<br /><a href='http://www.ciard.net/' target='_blank'>Lien vers CIARD</a></p>",
                "_graphic": {
                    "src": "course/fr/images/odi-006-narrative_large.jpg",
                    "alt": "Environment",
                    "title": "Environment",
                    "*source":"http://www.shutterstock.com/pic-94664593.html",
                    "*credit":"Madlen",
                    "*license":"Shutterstock Standard License"
                },
                "strapline": "Environment"
            },
            {
                "title": "Aider à sauver des vies",
                "body": "<p>L’open data aide à sauver des vies. De nombreux groupes humanitaires utilisent les données ouvertes géographiques et les statistiques de l’aide pour fournir les zones sinistrées en approvisionnements ciblés.</p><pLes données ouvertes cartographiques ont aidé les équipes de secours à cibler l’aide lors du séisme de 2010 à Haïti et le typhon de 2014 aux Philippines.<br /><a href='https://www.hotosm.org/projects/haiti_' target='_blank'>Lien vers le OpenStreetMap d’Haïti.</a></p><p class='not-eu'>L’open data a aussi été utilisé pour documenter l’épidémie du virus Ebola en Afrique de l’Ouest en 2015.<br /><a href='https://web.archive.org/web/20160123072141/http://www.eboladata.org/' target='_blank'>Lien vers l'Ebola Open Data Jam'</a></p>",
                "_graphic": {
                    "src": "course/fr/images/odi-007-narrative_large.jpg",
                    "alt": "Saving lives",
                    "title": "Saving lives",
                    "*source":"http://www.itoworld.com/static/ted_video.html",
                    "*credit":"Ito World Ltd.",
                    "*license":"Creative Commons Attribution ShareAlike"
                },
                "strapline": "Saving lives"
            },
            {
                "title": "Promouvoir la culture",
                "body": "<p>L’open data aide au rapprochement culturel et à des débats plus informés quant aux questions culturelles importantes.</p><p>OpenGLAM contribue à la promotion du patrimoine et de la mémoire culturelle de groupes en Allemagne, en Suisse et en Finlande.<br /></p><p><a href='http://openglam.org/' target='_blank'>Lien vers OpenGLAM</a>L'Institut de l’Open Data (ODI) est à l’origine d’un programme intitulé ‘Data as Culture’ qui utilise l’art pour réexaminer notre perception des données de manière fondamentale.<br /><a href='http://theodi.org/culture' target='_blank'>Lien vers ODI Data as Culture</a></p>",
                "_graphic": {
                    "src": "course/fr/images/odi-008-narrative_large.jpg",
                    "alt": "Culture",
                    "title": "Culture",
                    "*source":"https://www.flickr.com/photos/ukodi/13400679614/in/album-72157642859056285/",
                    "*credit":"Open Data Institute",
                    "*license":"Creative Commons Attribution ShareAlike"
                },
                "strapline": "Culture"
            }
        ],
        "_pageLevelProgress": {
        "_isEnabled": true
        }
    }, {
        "_id":"c-42",
        "_parentId":"b-33",
        "_type":"component",
        "_component":"graphic",
        "_classes":"",
        "_layout":"right",
        "title":"",
        "displayTitle":"",
        "body":"",
        "instruction":"",
        "_graphic": {
            "alt": "",
            "title": "",
            "large": "course/fr/images/burst.png",
            "medium": "course/fr/images/burst.png",
            "small": "course/fr/images/burst.png"
        }
    },
    {
        "_id":"c-43",
        "_parentId":"b-33",
        "_type":"component",
        "_component":"text",
        "_classes":"",
        "_layout":"left",
        "title":"Êtes-vous prêt(e) à générer de la valeur à partir des open data ?",
        "displayTitle":"Êtes-vous prêt(e) à générer de la valeur à partir des open data ?",
        "body":"<p>Il y a beaucoup de précieux exemples d'initiatives liées à l’open data montrant de nombreux avantages sociaux, économiques et environnementaux. Êtes-vous prêt(e) à rejoindre le mouvement de l’open data ?</p>",
        "instruction":"",
        "_pageLevelProgress": {
            "_isEnabled": true
        }
    },
    {
        "_id":"c-45",
        "_parentId":"b-35",
        "_type":"component",
        "_component":"graphic",
        "_classes":"illustration",
        "_layout":"right",
        "_graphic": {
            "alt": "Are you ready to unlock value from open data?",
            "title": "",
            "large": "course/fr/images/odi-009-mcq_large.png",
            "medium": "course/fr/images/odi-009-mcq_large.png",
            "small": "course/fr/images/odi-009-mcq_large.png",
            "*source":"http://www.shutterstock.com/pic-230887714.html",
            "*credit":"Bloomua",
            "*license":"Shutterstock Standard License"
        }
    },
    {
        "_id":"c-50",
        "_parentId":"b-35",
        "_type":"component",
        "_component":"mcq",
        "_adapt2id":"588a0892b61c46e176e7e8e9",
        "_classes":"",
        "_layout":"left",
        "_attempts":1,
        "_questionWeight":1,
        "_isRandom":true,
        "_selectable":1,
        "title": "Innovation et croissance commerciale",
        "displayTitle": "Innovation et croissance commerciale",
        "body": "<p>L’open data est le moteur de l’innovation et de la croissance dans le secteur privé car il :</p>",
        "instruction": "<em>Choisissez votre réponse et puis cliquez sur ‘Valider’.</em>",
        "_items": [
            {
                "text": "est disponible en ligne.",
                "_shouldBeSelected": false
            },
            {
                "text": "permet de révéler des opportunités de mise en place de nouveaux services et d’amélioration des opérations.",
                "_shouldBeSelected": true
            },
            {
                "text": "motive les innovateurs à utiliser des données gouvernementales.",
                "_shouldBeSelected": false
            }
        ],
        "_feedback":{
            "correct":"<h5>Vous avez raison !</h5><p>La capacité à interpréter ces données (‘data literacy’) est une compétence de base pour les entreprises cherchant à profiter des opportunités qu’offre l’open data en vue de générer de la valeur nouvelle et d’améliorer les opérations.</p>",
            "_incorrect": {
                "notFinal": "<h5>Êtes vous sûr(e) ? </h5><p>La capacité à interpréter ces données (‘data literacy’) est une compétence de base pour les entreprises cherchant à profiter des opportunités qu’offre l’open data en vue de générer de la valeur nouvelle et d’améliorer les opérations.</p>",
                "final": "<h5>Êtes vous sûr(e) ? </h5><p>La capacité à interpréter ces données (‘data literacy’) est une compétence de base pour les entreprises cherchant à profiter des opportunités qu’offre l’open data en vue de générer de la valeur nouvelle et d’améliorer les opérations.</p>"
            },
            "_partlyCorrect": {
                "notFinal": "Lorem ipsum dolor sit amet, consectetur adipisicing elit, sed do eiusmodtempor incididunt ut labore et dolore magna aliqua. Ut enim ad minim veniam, quis nostrud exercitation ullamco laboris nisi ut aliquip ex ea commodo consequat. Duis aute irure dolor in reprehenderit in voluptate velit esse cillum dolore eu fugiat nulla pariatur. Excepteur sint occaecat cupidatat non proident, sunt in culpa qui officia deserunt mollit anim id est laborum.",
                "final": "Lorem ipsum dolor sit amet, consectetur adipisicing elit, sed do eiusmodtempor incididunt ut labore et dolore magna aliqua. Ut enim ad minim veniam, quis nostrud exercitation ullamco laboris nisi ut aliquip ex ea commodo consequat. Duis aute irure dolor in reprehenderit in voluptate velit esse cillum dolore eu fugiat nulla pariatur. Excepteur sint occaecat cupidatat non proident, sunt in culpa qui officia deserunt mollit anim id est laborum."
          }
        },
        "_buttons":{
            "submit":"Valider",
            "reset":"",
            "showCorrectAnswer":"",
            "hideCorrectAnswer":""
        },
        "_pageLevelProgress": {
        "_isEnabled": true
      }
    },
    {
        "_id":"c-55",
        "_parentId":"b-40",
        "_type":"component",
        "_component":"graphic",
        "_classes":"illustration",
        "_layout":"left",
        "_graphic": {
            "alt": "Innovation and growth in business",
            "title": "",
            "large": "course/fr/images/odi-010-mcq_large.jpg",
            "medium": "course/fr/images/odi-010-mcq_large.jpg",
            "small": "course/fr/images/odi-010-mcq_large.jpg",
            "*source":"http://www.shutterstock.com/pic-128352227.html",
            "*credit":"vs148",
            "*license":"Shutterstock Standard License"
        }
    },
    {
        "_id":"c-60",
        "_parentId":"b-40",
        "_type":"component",
        "_component":"mcq",
        "_adapt2id":"588a0bc3b61c46e176e7e8f1",
        "_classes":"",
        "_layout":"right",
        "_attempts":1,
        "_questionWeight":1,
        "_isRandom":true,
        "_selectable":1,
        "title": "Opportunités gouvernementales",
        "displayTitle": "Opportunités gouvernementales",
        "body": "<p>La sensibilisation à l’open data n’est plus un luxe pour les fonctionnaires, mais…</p>",
        "instruction": "<em>Choisissez votre réponse et puis cliquez sur ‘Valider’.</em>",
        "_items": [
            {
                "text": "un peu plus important qu’avant.",
                "_shouldBeSelected": false
            },
            {
                "text": "un aspect qui mérite plus de recherche.",
                "_shouldBeSelected": false
            },
            {
                "text": " un élément crucial à la prestation de services moderne.",
                "_shouldBeSelected": true
            }
        ],
        "_feedback":{
            "correct":"<h5>Vous avez raison !</h5><p>Une nouvelle génération d’électeurs à travers le monde s’attend à ce que le secteur public soit à jour en termes de culture numérique.</p>",
            "_incorrect": {
                "notFinal": "<h5>Êtes vous sûr(e) ? </h5><p>Une nouvelle génération d’électeurs à travers le monde s’attend à ce que le secteur public soit à jour en termes de culture numérique.</p>",
                "final": "<h5>Êtes vous sûr(e) ? </h5><p>Une nouvelle génération d’électeurs à travers le monde s’attend à ce que le secteur public soit à jour en termes de culture numérique.</p>"
            },
            "_partlyCorrect": {
                "notFinal": "Lorem ipsum dolor sit amet, consectetur adipisicing elit, sed do eiusmodtempor incididunt ut labore et dolore magna aliqua. Ut enim ad minim veniam, quis nostrud exercitation ullamco laboris nisi ut aliquip ex ea commodo consequat. Duis aute irure dolor in reprehenderit in voluptate velit esse cillum dolore eu fugiat nulla pariatur. Excepteur sint occaecat cupidatat non proident, sunt in culpa qui officia deserunt mollit anim id est laborum.",
                "final": "Lorem ipsum dolor sit amet, consectetur adipisicing elit, sed do eiusmodtempor incididunt ut labore et dolore magna aliqua. Ut enim ad minim veniam, quis nostrud exercitation ullamco laboris nisi ut aliquip ex ea commodo consequat. Duis aute irure dolor in reprehenderit in voluptate velit esse cillum dolore eu fugiat nulla pariatur. Excepteur sint occaecat cupidatat non proident, sunt in culpa qui officia deserunt mollit anim id est laborum."
          }
        },
        "_buttons":{
            "submit":"Valider",
            "reset":"",
            "showCorrectAnswer":"",
            "hideCorrectAnswer":""
        },
        "_pageLevelProgress": {
        "_isEnabled": true
      }
    },
    {
        "_id":"c-65",
        "_parentId":"b-45",
        "_type":"component",
        "_component":"graphic",
        "_classes":"illustration",
        "_layout":"right",
        "_graphic": {
            "alt": "Changing society and public policy",
            "title": "",
            "large": "course/fr/images/odi-011-mcq_large.jpg",
            "medium": "course/fr/images/odi-011-mcq_large.jpg",
            "small": "course/fr/images/odi-011-mcq_large.jpg",
            "*source":"http://www.shutterstock.com/pic-234353791.html",
            "*credit":"tai11",
            "*license":"Shutterstock Standard License"
        }
    },
    {
        "_id":"c-70",
        "_parentId":"b-45",
        "_type":"component",
        "_component":"mcq",
        "_adapt2id":"588a175eb61c46e176e7e901",
        "_classes":"",
        "_layout":"left",
        "_attempts":1,
        "_questionWeight":1,
        "_isRandom":true,
        "_selectable":1,
        "title": "Changer la société et la politique publique",
        "displayTitle": "Changer la société et la politique publique",
        "body": "<p>Quel est l’avantage d’avoir de l’open data relatif aux transports ?</p>",
        "instruction": "<em>Choisissez votre réponse et puis cliquez sur ‘Valider’.</em>",
        "_items": [
            {
                "text": "On gagne du temps et l’accès à l’information liée aux transports est amélioré.",
                "_shouldBeSelected": true
            },
            {
                "text": "Les trains sont plus rapides.",
                "_shouldBeSelected": false
            },
            {
                "text": "Les billets sont moins chers.",
                "_shouldBeSelected": false
            }
        ],
        "_feedback":{
            "correct":"<h5>Vous avez raison !</h5><p>L’ open data relatif aux transport fait gagner du temps aux utilisateurs de transports en public, rend les trajets plus accessibles et en simplifie l'accès pour les touristes.</p>",
            "_incorrect": {
                "notFinal": "<h5>Êtes vous sûr(e) ? </h5><pL’ open data relatif aux transport fait gagner du temps aux utilisateurs de transports en public, rend les trajets plus accessibles et en simplifie l'accès pour les touristes.</p>",
                "final": "<h5>Êtes vous sûr(e) ? </h5><p>L’ open data relatif aux transport fait gagner du temps aux utilisateurs de transports en public, rend les trajets plus accessibles et en simplifie l'accès pour les touristes.</p>"
            },
            "_partlyCorrect": {
                "notFinal": "Lorem ipsum dolor sit amet, consectetur adipisicing elit, sed do eiusmodtempor incididunt ut labore et dolore magna aliqua. Ut enim ad minim veniam, quis nostrud exercitation ullamco laboris nisi ut aliquip ex ea commodo consequat. Duis aute irure dolor in reprehenderit in voluptate velit esse cillum dolore eu fugiat nulla pariatur. Excepteur sint occaecat cupidatat non proident, sunt in culpa qui officia deserunt mollit anim id est laborum.",
                "final": "Lorem ipsum dolor sit amet, consectetur adipisicing elit, sed do eiusmodtempor incididunt ut labore et dolore magna aliqua. Ut enim ad minim veniam, quis nostrud exercitation ullamco laboris nisi ut aliquip ex ea commodo consequat. Duis aute irure dolor in reprehenderit in voluptate velit esse cillum dolore eu fugiat nulla pariatur. Excepteur sint occaecat cupidatat non proident, sunt in culpa qui officia deserunt mollit anim id est laborum."
          }
        },
        "_buttons":{
            "submit":"Valider",
            "reset":"",
            "showCorrectAnswer":"",
            "hideCorrectAnswer":""
        },
        "_pageLevelProgress": {
        "_isEnabled": true
      }
    },
    {
        "_id":"c-75",
        "_parentId":"b-50",
        "_type":"component",
        "_component":"graphic",
        "_classes":"illustration",
        "_layout":"left",
        "_graphic": {
            "alt": "Changing culture and environment",
            "title": "",
            "large": "course/fr/images/odi-012-mcq_large.jpg",
            "medium": "course/fr/images/odi-012-mcq_large.jpg",
            "small": "course/fr/images/odi-012-mcq_large.jpg",
            "*source":"http://www.itoworld.com/static/ted_video.html",
            "*credit":"Ito World Ltd.",
            "*license":"n/a"
        }
    },
    {
        "_id":"c-80",
        "_parentId":"b-50",
        "_type":"component",
        "_component":"mcq",
        "_adapt2id":"588a26d7b61c46e176e7e907",
        "_classes":"",
        "_layout":"right",
        "_attempts":1,
        "_questionWeight":1,
        "_isRandom":true,
        "_selectable":1,
        "title": "Changer la culture et l’environnement",
        "displayTitle": "Changer la culture et l’environnement",
        "body": "<p>Quel type d’open data a été utilisé pour répondre aux catastrophes en Haïti et aux Philippines ?</p>",
        "instruction": "<em>Choisissez votre réponse et puis cliquez sur ‘Valider’.</em>",
        "_items": [
            {
                "text": "Les données démocratiques du recensement.",
                "_shouldBeSelected": false
            },
            {
                "text": "L’open data sur le revenu.",
                "_shouldBeSelected": false
            },
            {
                "text": "Les données ouvertes cartographique et les statistiques d’aide.",
                "_shouldBeSelected": true
            }
        ],
        "_feedback":{
            "correct":"<h5>Vous avez raison !</h5><p>L’open data aide à sauver des vies. Les groupes humanitaires utilisent les données ouvertes géographiques et les statistiques de l’aide pour fournir les zones sinistrées en approvisionnements vitaux.</p>",
            "_incorrect": {
                "notFinal": "<h5>Êtes vous sûr(e) ? </h5><p>L’open data aide à sauver des vies. Les groupes humanitaires utilisent les données ouvertes géographiques et les statistiques de l’aide pour fournir les zones sinistrées en approvisionnements vitaux.</p>",
                "final": "<h5>Êtes vous sûr(e) ? </h5><p>L’open data aide à sauver des vies. Les groupes humanitaires utilisent les données ouvertes géographiques et les statistiques de l’aide pour fournir les zones sinistrées en approvisionnements vitaux.</p>"
            },
            "_partlyCorrect": {
                "notFinal": "Lorem ipsum dolor sit amet, consectetur adipisicing elit, sed do eiusmodtempor incididunt ut labore et dolore magna aliqua. Ut enim ad minim veniam, quis nostrud exercitation ullamco laboris nisi ut aliquip ex ea commodo consequat. Duis aute irure dolor in reprehenderit in voluptate velit esse cillum dolore eu fugiat nulla pariatur. Excepteur sint occaecat cupidatat non proident, sunt in culpa qui officia deserunt mollit anim id est laborum.",
                "final": "Lorem ipsum dolor sit amet, consectetur adipisicing elit, sed do eiusmodtempor incididunt ut labore et dolore magna aliqua. Ut enim ad minim veniam, quis nostrud exercitation ullamco laboris nisi ut aliquip ex ea commodo consequat. Duis aute irure dolor in reprehenderit in voluptate velit esse cillum dolore eu fugiat nulla pariatur. Excepteur sint occaecat cupidatat non proident, sunt in culpa qui officia deserunt mollit anim id est laborum."
          }
        },
        "_buttons":{
            "submit":"Valider",
            "reset":"",
            "showCorrectAnswer":"",
            "hideCorrectAnswer":""
        },
        "_pageLevelProgress": {
        "_isEnabled": true
      }
    },
    {
        "_id":"c-85",
        "_parentId":"b-55",
        "_type":"component",
        "_component":"graphic",
        "_classes":"",
        "_layout":"right",
        "_graphic": {
            "alt": "Summary icon clipboard",
            "title": "Summary icon clipboard",
            "large": "course/fr/images/odi-footer.png",
            "medium": "course/fr/images/odi-footer.png",
            "small": "course/fr/images/odi-footer.png",
            "*source":"http://www.shutterstock.com/pic-189810137.html",
            "*credit":"Kritchanut",
            "*license":"Shutterstock Standard License"
        }
    },
    {
        "_id":"c-90",
        "_parentId":"b-55",
        "_type":"component",
        "_component":"text",
        "_classes":"",
        "_layout":"left",
        "title":"Êtes-vous prêt(e) à générer de la valeur ?",
        "displayTitle":"Êtes-vous prêt(e) à générer de la valeur ?",
        "body":"<p>L’open data a le potentiel de contribuer à la croissance économique, de transformer les sociétés et de protéger l’environnement.</p><p>L’open data peut aider les gouvernements à contribuer à la croissance économique, à améliorer les prestations de services et à faire des économies.</p><p>L’open data peut bénéficier à la société en améliorant notre façon de nous déplacer, de travailler et de gouverner.</p><p>L’open data peut sauver des vies, protéger l’environnement et aider à mieux comprendre le monde dans lequel nous vivons.</p><p>Êtes-vous prêt(e) à vous engager ? Lors du prochain module, nous verrons comment se lancer dans l’utilisation de l’open data.</p><p><a class='course_link' href='../module3/'>Prochain module</a></p><p><a class='course_link' href='../'>Menu principal</a></p>",
        "_pageLevelProgress": {
          "_isEnabled": true
        }
    },
    {
       "_id":"c-95",
       "_parentId":"b-55",
       "_type":"component",
       "_component":"text",
       "_classes":"separator",
       "_layout":"full"
    },
    {
       "_id":"c-96",
       "_parentId":"b-55",
       "_type":"component",
       "_component":"text",
       "_classes": "attribution",
       "body":"&copy; <a href='https://ec.europa.eu/commission/index_en' target='_blank'>European Commission</a>",
       "_layout":"full"
    },
    {
        "_id":"c-100",
        "_parentId":"b-55",
        "_type":"component",
        "_component":"graphic",
        "_classes":"footer-logo",
        "_layout":"left",
        "_graphic": {
            "alt": "Open data institute logo",
            "title": "Open data institute logo",
            "large": "course/fr/images/logo-small.png",
            "medium": "course/fr/images/logo-small.png",
            "small": "course/fr/images/logo-small.png",
            "*source":"http://theodi.org",
            "*credit":"The Open Data Institute",
            "*license":"All rights reserved"
        }
    },
    {
        "_id":"c-105",
        "_parentId":"b-55",
        "_type":"component",
        "_component":"text",
        "_classes":"social-buttons",
        "_layout":"right",
        "body":"<a class='social' target='_blank' href='https://twitter.com/ODIHQ'><img src='course/fr/images/social/twitter.png'></a><a class='social' target='_blank' href='https://soundcloud.com/theodi'><img src='course/fr/images/social/sound.png'></a><a class='social' target='_blank' href='https://www.scribd.com/OpenDataInstitute'><img src='course/fr/images/social/scribd.png'></a><a class='social' target='_blank' href='https://github.com/theodi'><img src='course/fr/images/social/github.png'></a><a class='social' target='_blank' href='https://vimeo.com/theodiuk'><img src='course/fr/images/social/vimeo.png'></a><a class='social' target='_blank' href='https://www.youtube.com/user/OpenDataInstituteUK'><img src='course/fr/images/social/youtube.png'></a><a class='social' target='_blank' href='https://www.flickr.com/photos/ukodi/'><img src='course/fr/images/social/flickr.png'></a>"
    }
]
