[
    {
        "_id":"c-01",
        "_parentId":"b-01",
        "_type":"component",
        "_component":"graphic",
        "_classes":"intro-logo",
        "_layout":"right",
        "title":"",
        "displayTitle":"",
        "body":"",
        "instruction":"",
        "_graphic": {
            "alt": "",
            "title": "",
            "large": "",
            "medium": "",
            "small": ""
        }
    },
    {
        "_id":"c-02",
        "_parentId":"b-01",
        "_type":"component",
        "_component":"text",
        "_classes":"",
        "_layout":"left",
        "title":"What makes quality open data",
        "displayTitle":"What makes quality open data",
        "body":"<p>Assessing how usable open data is cannot be done quickly.</p><p>There are a number of community-based standards and quality marques that can help you assess how usable data is.</p><h5>In this module we’ll explore the following:</h5><ul class='ticks'><li>What makes data usable</li><li>How standards help increase the usability of data</li><li>Marques of quality</li></ul>",
        "instruction":"",
        "_pageLevelProgress": {
            "_isEnabled": true
        }
    },
    {
    "_id":"c-11",
    "_parentId":"b-10",
    "_type":"component",
    "_component":"iFrame-vimeo",
    "_classes":"",
    "_layout":"full",
        "title":"Assessing open data quality – in 2 minutes",
        "displayTitle": "Assessing open data quality – in 2 minutes",
        "body": "ODI Trainer David Tarrant explains what quality data is, how to recognise it and which quality marques consumers of open data should look for.",
        "instruction": "To turn subtitles on and off, click the 'cc' button at the bottom right of the video",
        "_setCompletionOn":"ended",
        "_source": "//europa.eu/webtools/crs/iframe/?lang=en&oriurl=https://www.youtube.com/embed/OOQvgxKjqn0&list=PLT5rARDev_rnG9rj7hZG0hALPWQS8mLGA&index=5",
        "_media": {
		"mp4": "course/en/video/video.mp4",
		"poster": "course/en/video/placeholder.jpg"
	},
        "_height": {
            "_small" : 250,
            "_medium" : 350,
            "_large" : 508
        }
    },
    {
        "_id":"c-21",
        "_parentId":"b-20",
        "_type":"component",
        "_component":"graphic",
        "_classes":"",
        "_layout":"right",
        "_graphic": {
            "alt": "What is open data quality?",
            "title": "What is open data quality?",
            "large": "course/en/images/odi-1.jpg",
            "medium": "course/en/images/odi-1.jpg",
            "small": "course/en/images/odi-1.jpg",
            "*source":"http://www.shutterstock.com/pic-54795127.html",
            "*credit":"robodread",
            "*license":"Shutterstock Standard License"
        }
    },
    {
        "_id":"c-22",
        "_parentId":"b-20",
        "_type":"component",
        "_component":"text",
        "_classes":"",
        "_layout":"left",
        "title":"What is open data quality?",
        "displayTitle":"What is open data quality?",
        "body":"<p>Open data becomes usable when a human can understand it and a machine can manipulate it.</p><p>Users of open data need the permission of its publisher, granted by an open licence. But the open licence alone is not enough to guarantee the usability of data.</p><p>It is unlikely that people will be able to engage with data to derive insights and demonstrate benefits unless it is usable.</p>"
    },
     {
        "_id": "c-25",
        "_parentId": "b-25",
        "_classes": "",
        "_type":"component",
        "_layout": "full",
        "_component": "narrative",
        "title": "Community-driven standards",
        "displayTitle": "Community-driven standards",
        "body": "Community-driven standards define the legal, practical, technical and social requirements for an open dataset to be useful.",
        "instruction": "<em class='desktop-instruction'>Click the forward arrow to see more.</em><em class='mobile-instruction'>Select the ‘+’ sign to explore further, then swipe the image to see more.</em>",
        "_items": [
            {
                "title": "Legal requirements",
                "body": "<p>In addition to the open licence, there are three legal requirements that need to be considered. You must:</p><p><ul><li>Protect sensitive information like personal data.</li><li>Preserve the rights of data owners.</li><li>Promote correct use of the data.</li></ul></p>",
                "_graphic": {
                    "src": "course/en/images/odi-2.jpg",
                    "alt": "Legal",
                    "title": "Legal",
                    "*source":"http://www.shutterstock.com/pic-102447179.html",
                    "*credit":"hoperan",
                    "*license":"Shutterstock Standard License"
                },
                "strapline": "Legal"
            },
            {
                "title": "Practical requirements",
                "body": "<p>It is important that open data can be found and relied upon by users.</p><p>This means that open data publishers must:</p><p><ul><li>Link to the data from their website.</li><li>Update the data regularly if it changes.</li><li>Commit to continue to make the data available.</li></ul></p>",
                "_graphic": {
                    "src": "course/en/images/odi-3.jpg",
                    "alt": "Practical",
                    "title": "Practical",
                    "*source":"http://www.shutterstock.com/pic-235025131.html",
                    "*credit":"McIek",
                    "*license":"Shutterstock Standard License"
                },
                "strapline": "Practical"
            },
            {
                "title": "Technical requirements",
                "body": "<p>There are three recommendations that define the technical aspects of open data:</p><p><ul><li>The format in which the data is published.</li><li>The structure of the data.</li><li>The channels through which the data is available.</li></ul></p>",
                "_graphic": {
                    "src": "course/en/images/odi-4.jpg",
                    "alt": "Technical",
                    "title": "Technical",
                    "*source":"http://www.shutterstock.com/pic-154744388.html",
                    "*credit":"Oleksiy Mark",
                    "*license":"Shutterstock Standard License"
                },
                "strapline": "Technical"
            },
            {
                "title": "Social requirements",
                "body": "<p>For data use to be sustainable, it is important to have an engaged community of users. The best datasets have:</p><p><ul><li>Active support channels.</li><li>Discussion groups and forums.</li><li>Published how-to guides on working with the data.</li></ul></p>",
                "_graphic": {
                    "src": "course/en/images/odi-5.jpg",
                    "alt": "Social",
                    "title": "Social",
                    "*source":"http://www.shutterstock.com/pic-187711424.html",
                    "*credit":"bluebay",
                    "*license":"Shutterstock Standard License"
                },
                "strapline": "Social"
            }
        ],
        "_pageLevelProgress": {
        "_isEnabled": true
        }
    },
    {
        "_id":"c-30",
        "_parentId":"b-28",
        "_type":"component",
        "_component":"graphic",
        "_classes":"",
        "_layout":"right",
        "_graphic": {
            "alt": "Marques of quality",
            "title": "Marques of quality",
            "large": "course/en/images/odi-6.jpg",
            "medium": "course/en/images/odi-6.jpg",
            "small": "course/en/images/odi-6.jpg",
            "*source":"http://www.shutterstock.com/pic-254316427.html",
            "*credit":"tostphoto",
            "*license":"Shutterstock Standard License"
        }
    },
    {
      "_id":"c-35",
      "_parentId":"b-28",
      "_type":"component",
      "_component":"accordion",
      "_classes":"",
      "_layout":"left",
      "title": "Marques of quality",
      "displayTitle": "Marques of quality",
      "body": "<p>Marques of quality provide users with confidence about the quality and usability of open data.</p><p>There are two key indicators of open data quality:</p>",
      "instruction": "<em>Click the headings to explore further.</em>",
      "_items": [
        {
          "alt": "5 Stars",
          "title": "5 Stars",
          "body": "<p>The '5 Stars of linked open data' include the basic legal definition and technical excellence of the published data.</p><p>The 5 Stars were developed by inventor of the Web, Sir Tim Berners-Lee, in 2001. The 5 Stars make recommendations for the format and structure of the data.</p><p>You can learn more about the 5 Stars in modules 10 and 13 of this course.</p>"
        },
        {
          "alt": "ODI Open Data Certificates",
          "title": "ODI Open Data Certificates",
          "body": "<p>The Open Data Institute's Open Data Certificates are practical, social, legal and technical guidelines to consider when publishing or using open data.</p><p>The certificates act as a self-assessment questionnaire for publishers, and in some cases users, to assess and benchmark the full usability of a dataset.<br /><a href='https://certificates.theodi.org/' target='_blank'>Take me to the ODI Open Data Certificates site</a></p>"
        }
      ],
      "_pageLevelProgress": {
        "_isEnabled": true
      }
    },

    {
        "_id":"c-42",
        "_parentId":"b-30",
        "_type":"component",
        "_component":"graphic",
        "_classes":"",
        "_layout":"right",
        "title":"",
        "displayTitle":"",
        "body":"",
        "instruction":"",
        "_graphic": {
            "alt": "",
            "title": "",
            "large": "course/en/images/burst-indigo.png",
            "medium": "course/en/images/burst-indigo.png",
            "small": "course/en/images/burst-indigo.png"
        }
    },
    {
        "_id":"c-43",
        "_parentId":"b-30",
        "_type":"component",
        "_component":"text",
        "_classes":"",
        "_layout":"left",
        "title":"Are you ready for quality open data?",
        "displayTitle":"Are you ready for quality open data?",
        "body":"<p>Can you recall the practical, technical, legal and social requirements for an open dataset to be useful?</p>",
        "instruction":"",
        "_pageLevelProgress": {
            "_isEnabled": true
        }
    },
    {
        "_id":"c-45",
        "_parentId":"b-32",
        "_type":"component",
        "_component":"graphic",
        "_classes":"illustration",
        "_layout":"right",
        "_graphic": {
            "alt": "What is quality open data?",
            "title": "What is quality open data?",
            "large": "course/en/images/odi-7.jpg",
            "medium": "course/en/images/odi-7.jpg",
            "small": "course/en/images/odi-7.jpg",
            "*source":"http://www.shutterstock.com/pic-54795127.html",
            "*credit":"robodread",
            "*license":"Shutterstock Standard License"
        }
    },

    {
        "_id":"c-50",
        "_parentId":"b-32",
        "_type":"component",
        "_component":"mcq",
        "_adapt2id":"588f38a8b61c46e176e7ea8f",
        "_classes":"",
        "_layout":"left",
        "_attempts":1,
        "_questionWeight":1,
        "_isRandom":true,
        "_selectable":1,
        "title": "What is quality open data?",
        "displayTitle": "What is quality open data?",
        "body": "<p>Open data becomes usable when...</p>",
        "instruction": "<em>Choose your answer, then click 'Submit'</em>",
        "_items": [
            {
                "text": "it is imported into our system",
                "_shouldBeSelected": false
            },
            {
                "text": "a human can understand it, machines can manipulate it and it has an open licence",
                "_shouldBeSelected": true
            },
            {
                "text": "the government publishes it",
                "_shouldBeSelected": false
            }
        ],
        "_feedback":{
            "correct":"<h5>That’s right!</h5><p>Open data becomes usable when a human can understand it, machines can manipulate it and it is made available under an open licence.</p>",
            "_incorrect": {
                "notFinal": "h5>Are you sure about that?</h5><p>Open data becomes usable when a human can understand it, machines can manipulate it and it is made available under an open licence.</p>",
                "final": "<h5>Are you sure about that?</h5><p>Open data becomes usable when a human can understand it, machines can manipulate it and it is made available under an open licence.</p>"
            },
            "_partlyCorrect": {
                "notFinal": "<h5>Are you sure about that?</h5><p>Open data becomes usable when a human can understand it, machines can manipulate it and it is made available under an open licence.</p>",
                "final": "<h5>Are you sure about that?</h5><p>Open data becomes usable when a human can understand it, machines can manipulate it and it is made available under an open licence.</p>"
          }
        },
        "_buttons":{
            "submit":"",
            "reset":"",
            "showCorrectAnswer":"",
            "hideCorrectAnswer":""
        },
        "_pageLevelProgress": {
        "_isEnabled": true
      }
    },
    {
        "_id":"c-55",
        "_parentId":"b-35",
        "_type":"component",
        "_component":"graphic",
        "_classes":"illustration",
        "_layout":"left",
        "_graphic": {
            "alt": "Legal considerations",
            "title": "",
            "large": "course/en/images/odi-8.jpg",
            "medium": "course/en/images/odi-8.jpg",
            "small": "course/en/images/odi-8.jpg",
            "*source":"http://www.shutterstock.com/pic-102447179.html",
            "*credit":"hoperan",
            "*license":"Shutterstock Standard License"
        }
    },
    {
        "_id":"c-60",
        "_parentId":"b-35",
        "_type":"component",
        "_component":"mcq",
        "_adapt2id":"588f3d0fb61c46e176e7ea98",
        "_classes":"",
        "_layout":"right",
        "_attempts":1,
        "_questionWeight":1,
        "_isRandom":true,
        "_selectable":1,
        "title": "Legal considerations",
        "displayTitle": "Legal considerations",
        "body": "<p>There are three legal considerations as part of the standards for publishing open data, one of which is...</p>",
        "instruction": "<em>Choose your answer, then click 'Submit'</em>",
        "_items": [
            {
                "text": "not to break the licensing law",
                "_shouldBeSelected": false
            },
            {
                "text": "to publish any type of data",
                "_shouldBeSelected": false
            },
            {
                "text": "to protect sensitive information such as personal data",
                "_shouldBeSelected": true
            }
        ],
        "_feedback":{
            "correct":"<h5>That’s right!</h5><p>In addition to the open licence, there are three legal requirements that need to be considered.  Protect sensitive information like personal data, preserve the rights of data owners and promote correct use of the data.</p>",
            "_incorrect": {
                "notFinal": "<h5>Are you sure about that?</h5><p>In addition to the open licence, there are three legal requirements that need to be considered.  Protect sensitive information like personal data, preserve the rights of data owners and promote correct use of the data.</p>",
                "final": "<h5>Are you sure about that?</h5><p>In addition to the open licence, there are three legal requirements that need to be considered.  Protect sensitive information like personal data, preserve the rights of data owners and promote correct use of the data.</p>"
            },
            "_partlyCorrect": {
                "notFinal": "<h5>Are you sure about that?</h5><p>In addition to the open licence, there are three legal requirements that need to be considered.  Protect sensitive information like personal data, preserve the rights of data owners and promote correct use of the data.</p>",
                "final": "<h5>Are you sure about that?</h5><p>In addition to the open licence, there are three legal requirements that need to be considered.  Protect sensitive information like personal data, preserve the rights of data owners and promote correct use of the data.</p>"
          }
        },
        "_buttons":{
            "submit":"",
            "reset":"",
            "showCorrectAnswer":"",
            "hideCorrectAnswer":""
        },
        "_pageLevelProgress": {
        "_isEnabled": true
      }
    },
    {
        "_id":"c-65",
        "_parentId":"b-40",
        "_type":"component",
        "_component":"graphic",
        "_classes":"illustration",
        "_layout":"right",
        "_graphic": {
            "alt": "Technical considerations",
            "title": "",
            "large": "course/en/images/odi-9.jpg",
            "medium": "course/en/images/odi-9.jpg",
            "small": "course/en/images/odi-9.jpg",
            "*source":"http://www.shutterstock.com/pic-154744388.html",
            "*credit":"Oleksiy Mark",
            "*license":"Shutterstock Standard License"
        }
    },
    {
        "_id":"c-70",
        "_parentId":"b-40",
        "_type":"component",
        "_component":"mcq",
        "_adapt2id":"588f3de4b61c46e176e7ea9a",
        "_classes":"",
        "_layout":"left",
        "_attempts":1,
        "_questionWeight":1,
        "_isRandom":true,
        "_selectable":1,
        "title": "Technical considerations",
        "displayTitle": "Technical considerations",
        "body": "<p>There are three technical considerations as part of the standards for publishing open data, one of which is...</p>",
        "instruction": "<em>Choose your answer, then click 'Submit'</em>",
        "_items": [
            {
                "text": "what format the open data is published in",
                "_shouldBeSelected": true
            },
            {
                "text": "whether it can it be used on a computer",
                "_shouldBeSelected": false
            },
            {
                "text": "whether it takes up much bandwidth",
                "_shouldBeSelected": false
            }
        ],
        "_feedback":{
            "correct":"<h5>That’s right!</h5><p>There are three recommendations that define the technical aspects of open data.  The format in which the data is published in, the structure of the data and the channels through which the data is available.</p>",
            "_incorrect": {
                "notFinal": "<h5>Are you sure about that?</h5><p>There are three recommendations that define the technical aspects of open data.  The format in which the data is published in, the structure of the data and the channels through which the data is available.</p>",
                "final": "<h5>Are you sure about that?</h5><p>There are three recommendations that define the technical aspects of open data.  The format in which the data is published in, the structure of the data and the channels through which the data is available.</p>"
            },
            "_partlyCorrect": {
                "notFinal": "<h5>Are you sure about that?</h5><p>There are three recommendations that define the technical aspects of open data.  The format in which the data is published in, the structure of the data and the channels through which the data is available.</p>",
                "final": "<h5>Are you sure about that?</h5><p>There are three recommendations that define the technical aspects of open data.  The format in which the data is published in, the structure of the data and the channels through which the data is available.</p>"
          }
        },
        "_buttons":{
            "submit":"",
            "reset":"",
            "showCorrectAnswer":"",
            "hideCorrectAnswer":""
        },
        "_pageLevelProgress": {
        "_isEnabled": true
      }
    },
    {
        "_id":"c-75",
        "_parentId":"b-45",
        "_type":"component",
        "_component":"graphic",
        "_classes":"illustration",
        "_layout":"left",
        "_graphic": {
            "alt": "Marques of quality",
            "title": "",
            "large": "course/en/images/odi-10.jpg",
            "medium": "course/en/images/odi-10.jpg",
            "small": "course/en/images/odi-10.jpg",
            "*source":"http://www.shutterstock.com/pic-254316427.html",
            "*credit":"tostphoto",
            "*license":"Shutterstock Standard License"
        }
    },
    {
        "_id":"c-80",
        "_parentId":"b-45",
        "_type":"component",
        "_component":"mcq",
        "_adapt2id":"588f3eb1b61c46e176e7eaa0",
        "_classes":"",
        "_layout":"right",
        "_attempts":1,
        "_questionWeight":1,
        "_isRandom":true,
        "_selectable":1,
        "title": "Marques of quality",
        "displayTitle": "Marques of quality",
        "body": "<p>The Open Data Institute advocates the use of its own quality marque known as...</p>",
        "instruction": "<em>Choose your answer, then click 'Submit'</em>",
        "_items": [
            {
                "text": "the ODI big green tick",
                "_shouldBeSelected": false
            },
            {
                "text": "the ODI stamp of approval",
                "_shouldBeSelected": false
            },
            {
                "text": "Open Data Certificates",
                "_shouldBeSelected": true
            }
        ],
        "_feedback":{
            "correct":"<h5>That’s right!</h5><p>The Open Data Institute has developed Open Data Certificates which include practical and social requirements alongside in-depth legal and technical guidelines to consider when publishing open data.</p>",
            "_incorrect": {
                "notFinal": "<h5>Are you sure about that?</h5><p>The Open Data Institute has developed Open Data Certificates which include practical and social requirements alongside in-depth legal and technical guidelines to consider when publishing open data.</p>",
                "final": "<h5>Are you sure about that?</h5><p>The Open Data Institute has developed Open Data Certificates which include practical and social requirements alongside in-depth legal and technical guidelines to consider when publishing open data.</p>"
            },
            "_partlyCorrect": {
                "notFinal": "<h5>Are you sure about that?</h5><p>The Open Data Institute has developed Open Data Certificates which include practical and social requirements alongside in-depth legal and technical guidelines to consider when publishing open data.</p>",
                "final": "<h5>Are you sure about that?</h5><p>The Open Data Institute has developed Open Data Certificates which include practical and social requirements alongside in-depth legal and technical guidelines to consider when publishing open data.</p>"
          }
        },
        "_buttons":{
            "submit":"",
            "reset":"",
            "showCorrectAnswer":"",
            "hideCorrectAnswer":""
        },
        "_pageLevelProgress": {
        "_isEnabled": true
      }
    },
    {
        "_id":"c-85",
        "_parentId":"b-50",
        "_type":"component",
        "_component":"graphic",
        "_classes":"",
        "_layout":"right",
        "_graphic": {
            "alt": "Summary icon clipboard",
            "title": "Summary icon clipboard",
            "large": "course/en/images/summary-icon.png",
            "medium": "course/en/images/summary-icon.png",
            "small": "course/en/images/summary-icon.png",
            "*source":"http://www.shutterstock.com/pic-189810137.html",
            "*credit":"Kritchanut",
            "*license":"Shutterstock Standard License"
        }
    },
    {
        "_id":"c-90",
        "_parentId":"b-50",
        "_type":"component",
        "_component":"text",
        "_classes":"",
        "_layout":"left",
        "title":"Standards + marques = quality open data",
        "displayTitle":"Standards + marques = quality open data",
        "body":"<p>Open data becomes usable when a human can understand it and a machine can manipulate it.</p><p>Both of these require the permission of the publisher, granted via an open licence. However, the open licence alone is not sufficient to guarantee the usability of data. Simply putting a file on a website with an open licence does not constitute open data.</p><p>It is unlikely that users will be able to properly engage with unusable data to derive insights and demonstrate benefits.</p><p>In the next module, we compare open data initiatives and look at the key performance indicators of successful ones.</p><p><a class='course_link' href='../module6/'>Next module</a></p><p><a class='course_link' href='../'>Main menu</a></p>",
        "_pageLevelProgress": {
          "_isEnabled": true
        }
    },
    {
       "_id":"c-95",
       "_parentId":"b-50",
       "_type":"component",
       "_component":"text",
       "_classes":"separator",
       "_layout":"full"
    },
    {
       "_id":"c-96",
       "_parentId":"b-50",
       "_type":"component",
       "_component":"text",
       "_classes": "attribution",
       "body":"&copy; <a href='https://ec.europa.eu/commission/index_en' target='_blank'>European Commission</a>",
       "_layout":"full"
    },
    {
        "_id":"c-100",
        "_parentId":"b-50",
        "_type":"component",
        "_component":"graphic",
        "_classes":"footer-logo",
        "_layout":"left",
        "_graphic": {
            "alt": "Open data institute logo",
            "title": "Open data institute logo",
            "large": "course/en/images/logo-small.png",
            "medium": "course/en/images/logo-small.png",
            "small": "course/en/images/logo-small.png",
            "*source":"http://theodi.org",
            "*credit":"The Open Data Institute",
            "*license":"All rights reserved"
        }
    },
    {
        "_id":"c-104",
        "_parentId":"b-50",
        "_type":"component",
        "_component":"text",
        "_classes":"attribution not-eu not-default",
        "_layout":"right",
        "body":"Content created by <a href='http://theodi.org' target='_blank'>The Open Data Institute</a>"
    },
    {
        "_id":"c-105",
        "_parentId":"b-50",
        "_type":"component",
        "_component":"text",
        "_classes":"social-buttons not-dlab",
        "_layout":"right",
        "body":"<a class='social' target='_blank' href='https://twitter.com/ODIHQ'><img src='course/en/images/social/twitter.png'></a><a class='social' target='_blank' href='https://soundcloud.com/theodi'><img src='course/en/images/social/sound.png'></a><a class='social' target='_blank' href='https://www.scribd.com/OpenDataInstitute'><img src='course/en/images/social/scribd.png'></a><a class='social' target='_blank' href='https://github.com/theodi'><img src='course/en/images/social/github.png'></a><a class='social' target='_blank' href='https://vimeo.com/theodiuk'><img src='course/en/images/social/vimeo.png'></a><a class='social' target='_blank' href='https://www.youtube.com/user/OpenDataInstituteUK'><img src='course/en/images/social/youtube.png'></a><a class='social' target='_blank' href='https://www.flickr.com/photos/ukodi/'><img src='course/en/images/social/flickr.png'></a>"
    }
]
