[
  {
    "_id": "59400156d084d5167a04f949",
    "_layout": "right",
    "_parentId": "b-01",
    "_type": "component",
    "body": "",
    "displayTitle": "",
    "title": "",
    "_isAvailable": true,
    "_isOptional": false,
    "_classes": "intro-logo",
    "_component": "graphic",
    "_pageLevelProgress": {
      "_isEnabled": false
    },
    "instruction": "",
    "_graphic": {
      "alt": "",
      "large": "",
      "small": "",
      "attribution": ""
    }
  },
  {
    "_id": "59400156d084d5167a04f94b",
    "_layout": "left",
    "_parentId": "b-02",
    "_type": "component",
    "body": "<p>La gestión del cambio consiste en el proceso de introducir una transición a largo plazo, un cambio o un desarrollo en una organización.</p><p>El objetivo fundamental de la gestión del cambio es cambiar la manera en la que la organización opera a largo plazo, desde adaptar sus sistemas, procesos y estructuras hasta cambiar la forma en la que sus integrantes piensan y actúan.</p><p>La gestión del cambio es igual de importante para los sectores público y privado, así como para las organizaciones de pequeño y gran tamaño.</p>",
    "displayTitle": "¿Qué es la gestión del cambio?",
    "title": "¿Qué es la gestión del cambio?",
    "_isAvailable": true,
    "_isOptional": false,
    "_classes": "",
    "_component": "text",
    "_pageLevelProgress": {
      "_isEnabled": true
    },
    "instruction": ""
  },
  {
    "_id": "59400156d084d5167a04f94c",
    "_layout": "right",
    "_parentId": "b-02",
    "_type": "component",
    "body": "",
    "displayTitle": "",
    "title": "",
    "_isAvailable": true,
    "_isOptional": false,
    "_classes": "",
    "_component": "graphic",
    "_pageLevelProgress": {
      "_isEnabled": false
    },
    "instruction": "",
    "_graphic": {
      "alt": "",
      "large": "course/es/assets/cdce8ea3ed04a12e226ca17c8e5be93fffe1fb11.png",
      "small": "course/es/assets/a699447adb040b8b78c36f46d46356ba124debf3.png",
      "attribution": ""
    }
  },
  {
    "_id": "59400156d084d5167a04f94d",
    "_layout": "right",
    "_parentId": "b-04",
    "_type": "component",
    "body": "",
    "displayTitle": "",
    "title": "",
    "_isAvailable": true,
    "_isOptional": false,
    "_classes": "",
    "_component": "graphic",
    "_pageLevelProgress": {
      "_isEnabled": false
    },
    "instruction": "",
    "_graphic": {
      "alt": "",
      "large": "course/es/assets/3b66beb92878268fd90bf52b67cb10c55f741f17.jpg",
      "small": "course/es/assets/3b66beb92878268fd90bf52b67cb10c55f741f17.jpg",
      "attribution": "<a href=\"https://www.shutterstock.com/image-vector/flat-style-vector-icons-set-mobile-203239417\" target=\"_blank\">Ozerina Anna</a> <span class='assetLicence'>[Shutterstock standard licence]</span>"
    }
  },
  {
    "_id": "59400156d084d5167a04f95f",
    "_layout": "left",
    "_parentId": "b-10",
    "_type": "component",
    "body": "<p dir=\"ltr\">La gestión del cambio consiste en el proceso de introducir una transición a largo plazo, un cambio o un desarrollo en una organización.</p><p dir=\"ltr\">Realizar una gestión eficaz es fundamental para el éxito de cualquier proyecto o iniciativa, y con un programa de cambio sucede lo mismo.</p><p dir=\"ltr\">Entre los elementos clave para que un programa de cambio tenga éxito se encuentran contar con una clara dirección y visión, el apoyo de los altos cargos, la medición del éxito a través de métricas claras y la comunicación del impacto.</p><p><a class='course_link' href='../module16/'>Módulo siguiente</a></p><p><a class='course_link' href='../'>Menú principal</a></p>",
    "displayTitle": "Cómo gestionar el cambio en los datos abiertos",
    "title": "Cómo gestionar el cambio en los datos abiertos",
    "_isAvailable": true,
    "_isOptional": false,
    "_classes": "",
    "_component": "text",
    "_pageLevelProgress": {
      "_isEnabled": true
    },
    "instruction": ""
  },
  {
    "_id": "59400156d084d5167a04f960",
    "_layout": "left",
    "_parentId": "b-01",
    "_type": "component",
    "body": "<p dir=\"ltr\">La gestión del cambio consiste en el proceso de introducir una transición a largo plazo, un cambio o un desarrollo en una organización. La gestión del cambio es especialmente importante a la hora de tratar con grandes cambios, como los cambios de cultura que las organizaciones deben realizar para llevar a cabo con éxito su estrategia de datos abiertos.</p><p dir=\"ltr\">En este módulo, estudiaremos por qué es importante para las organizaciones gestionar el cambio y elementos clave para ayudar a crear un proceso de gestión del cambio exitoso.</p><ul class='ticks'><li dir=\"ltr\">¿Qué es la gestión del cambio?</li><li dir=\"ltr\">¿Por qué la gestión del cambio es importante en las iniciativas de datos abiertos?</li><li dir=\"ltr\">¿Por qué es necesaria la gestión del cambio?</li><li dir=\"ltr\">¿Cuáles son los elementos clave de la gestión del cambio?</li></ul>",
    "displayTitle": "Cómo gestionar el cambio en los datos abiertos",
    "title": "Cómo gestionar el cambio en los datos abiertos",
    "_isAvailable": true,
    "_isOptional": false,
    "_classes": "ticks",
    "_component": "text",
    "_pageLevelProgress": {
      "_isEnabled": true
    },
    "instruction": ""
  },
  {
    "_id": "59400156d084d5167a04f961",
    "_layout": "left",
    "_parentId": "b-09",
    "_type": "component",
    "body": "<p><strong>Los tres elementos clave de la gestión del cambio son...</strong></p>",
    "displayTitle": "¿Cuáles son los elementos clave de la gestión del cambio?",
    "title": "¿Cuáles son los elementos clave de la gestión del cambio?",
    "_isAvailable": true,
    "_isOptional": false,
    "_classes": "",
    "_component": "mcq",
    "_pageLevelProgress": {
      "_isEnabled": true
    },
    "instruction": "",
    "_items": [
      {
        "text": "Usar la terminología correcta, trabajar desde cero e introducir el cambio rápidamente",
        "_shouldBeSelected": false,
        "feedback": ""
      },
      {
        "text": "Tener una visión clara y capacidad de liderazgo, comunicar el impacto y elaborar métricas",
        "_shouldBeSelected": true,
        "feedback": ""
      },
      {
        "text": "Trabajar desde arriba hacia abajo, ordenando la realización del cambio y aplicándolo rápidamente",
        "_shouldBeSelected": false,
        "feedback": ""
      }
    ],
    "_attempts": 1,
    "_canShowModelAnswer": true,
    "_canShowFeedback": true,
    "_canShowMarking": true,
    "_shouldDisplayAttempts": false,
    "_isRandom": true,
    "_recordInteraction": true,
    "_questionWeight": 1,
    "_selectable": 1,
    "_feedback": {
      "correct": "<p><strong>¡Exacto!</strong></p><p>Los tres elementos clave de la gestión del cambio son: tener una visión clara y capacidad de liderazgo, comunicar el impacto y elaborar métricas</p>",
      "_incorrect": {
        "final": "<p><strong>¿Está seguro?</strong></p><p>Los tres elementos clave de la gestión del cambio son: tener una visión clara y capacidad de liderazgo, comunicar el impacto y elaborar métricas</p>",
        "notFinal": ""
      },
      "_partlyCorrect": {
        "final": "",
        "notFinal": ""
      }
    },
    "_buttons":{
            "submit":"",
            "reset":"",
            "showCorrectAnswer":"",
            "hideCorrectAnswer":""
        }
  },
  {
    "_id": "59400156d084d5167a04f962",
    "_layout": "right",
    "_parentId": "b-06",
    "_type": "component",
    "body": "",
    "displayTitle": "",
    "title": "",
    "_isAvailable": true,
    "_isOptional": false,
    "_classes": "",
    "_component": "graphic",
    "_pageLevelProgress": {
      "_isEnabled": false
    },
    "instruction": "",
    "_graphic": {
      "alt": "",
      "large": "course/es/assets/a516261fb9cb309e3b3d1116a192ecfc2a70fbad.png",
      "small": "course/es/assets/a516261fb9cb309e3b3d1116a192ecfc2a70fbad.png",
      "attribution": ""
    }
  },
  {
    "_id": "59400157d084d5167a04f96b",
    "_layout": "left",
    "_parentId": "b-06",
    "_type": "component",
    "body": "",
    "displayTitle": "¿Preparado para un cambio de cultura?",
    "title": "¿Preparado para un cambio de cultura?",
    "_isAvailable": true,
    "_isOptional": false,
    "_classes": "",
    "_component": "text",
    "_pageLevelProgress": {
      "_isEnabled": true
    },
    "instruction": ""
  },
  {
    "_id": "59400157d084d5167a04f96c",
    "_layout": "right",
    "_parentId": "b-07",
    "_type": "component",
    "body": "",
    "displayTitle": "",
    "title": "",
    "_isAvailable": true,
    "_isOptional": false,
    "_classes": "",
    "_component": "graphic",
    "_pageLevelProgress": {
      "_isEnabled": false
    },
    "instruction": "",
    "_graphic": {
      "alt": "",
      "large": "course/es/assets/cdce8ea3ed04a12e226ca17c8e5be93fffe1fb11.png",
      "small": "course/es/assets/cdce8ea3ed04a12e226ca17c8e5be93fffe1fb11.png",
      "attribution": "<a href=\"http://www.shutterstock.com/pic-134315933.html\" target=\"_blank\">Photoraiz</a> <span class='assetLicence'>[Shutterstock standard licence]</span>"
    }
  },
  {
    "_id": "59400157d084d5167a04f96d",
    "_layout": "left",
    "_parentId": "b-08",
    "_type": "component",
    "body": "",
    "displayTitle": "",
    "title": "",
    "_isAvailable": true,
    "_isOptional": false,
    "_classes": "",
    "_component": "graphic",
    "_pageLevelProgress": {
      "_isEnabled": false
    },
    "instruction": "",
    "_graphic": {
      "alt": "",
      "large": "course/es/assets/3b66beb92878268fd90bf52b67cb10c55f741f17.jpg",
      "small": "course/es/assets/3b66beb92878268fd90bf52b67cb10c55f741f17.jpg",
      "attribution": "<a href=\"https://www.shutterstock.com/image-vector/flat-style-vector-icons-set-mobile-203239417\" target=\"_blank\">Ozerina Anna</a> <span class='assetLicence'>[Shutterstock standard licence]</span>"
    }
  },
  {
    "_id": "59400157d084d5167a04f96e",
    "_layout": "right",
    "_parentId": "b-09",
    "_type": "component",
    "body": "",
    "displayTitle": "",
    "title": "",
    "_isAvailable": true,
    "_isOptional": false,
    "_classes": "",
    "_component": "graphic",
    "_pageLevelProgress": {
      "_isEnabled": false
    },
    "instruction": "",
    "_graphic": {
      "alt": "",
      "large": "course/es/assets/4d0e90f8a701b90a49898fd147c75a0149ca472f.jpg",
      "small": "course/es/assets/4d0e90f8a701b90a49898fd147c75a0149ca472f.jpg",
      "attribution": "<a href=\"http://www.shutterstock.com/pic.mhtml?id=149924576&src=lb-35924366\" target=\"_blank\">Sergey Nivens</a> <span class='assetLicence'>[Shutterstock standard licence]</span>"
    }
  },
  {
    "_id": "59400157d084d5167a04f971",
    "_layout": "left",
    "_parentId": "b-07",
    "_type": "component",
    "body": "<p><strong>La gestión del cambio es...</strong></p>",
    "displayTitle": "¿Qué es la gestión del cambio?",
    "title": "¿Qué es la gestión del cambio?",
    "_isAvailable": true,
    "_isOptional": false,
    "_classes": "",
    "_component": "mcq",
    "_pageLevelProgress": {
      "_isEnabled": true
    },
    "instruction": "",
    "_items": [
      {
        "text": "so de introducir una transición a largo plazo, un cambio o un desarrollo en una organización.",
        "_shouldBeSelected": true,
        "feedback": ""
      },
      {
        "text": "so de introducir una modificación o un cambio a corto plazo en el sector público.",
        "_shouldBeSelected": false,
        "feedback": ""
      },
      {
        "text": "so para publicar datos abiertos.",
        "_shouldBeSelected": false,
        "feedback": ""
      }
    ],
    "_attempts": 1,
    "_canShowModelAnswer": true,
    "_canShowFeedback": true,
    "_canShowMarking": true,
    "_shouldDisplayAttempts": false,
    "_isRandom": false,
    "_recordInteraction": true,
    "_questionWeight": 1,
    "_selectable": 1,
    "_feedback": {
      "correct": "<p><strong>¡Exacto!</strong></p><p>La gestión del cambio consiste en el proceso de introducir una transición a largo plazo, un cambio o un desarrollo en una organización.</p>",
      "_incorrect": {
        "final": "<p><strong>¿Está seguro?</strong></p><p dir=\"ltr\">La gestión del cambio consiste en el proceso de introducir una transición a largo plazo, un cambio o un desarrollo en una organización.</p>",
        "notFinal": ""
      },
      "_partlyCorrect": {
        "final": "",
        "notFinal": ""
      }
    },
    "_buttons":{
            "submit":"",
            "reset":"",
            "showCorrectAnswer":"",
            "hideCorrectAnswer":""
        }
  },
  {
    "_id": "59400157d084d5167a04f972",
    "_layout": "right",
    "_parentId": "b-08",
    "_type": "component",
    "body": "<p><strong>Gestionar el cambio es importante porque...</strong></p>",
    "displayTitle": "¿Por qué gestionar el cambio es importante?",
    "title": "¿Por qué gestionar el cambio es importante?",
    "_isAvailable": true,
    "_isOptional": false,
    "_classes": "",
    "_component": "mcq",
    "_pageLevelProgress": {
      "_isEnabled": true
    },
    "instruction": "",
    "_items": [
      {
        "text": "podemos usar las últimas técnicas y estrategias",
        "_shouldBeSelected": true,
        "feedback": ""
      },
      {
        "text": "contribuye a garantizar la sostenibilidad y a reducir el riesgo",
        "_shouldBeSelected": true,
        "feedback": ""
      },
      {
        "text": "el proyecto obtendrá más presupuesto y recursos",
        "_shouldBeSelected": false,
        "feedback": ""
      }
    ],
    "_attempts": 1,
    "_canShowModelAnswer": true,
    "_canShowFeedback": true,
    "_canShowMarking": true,
    "_shouldDisplayAttempts": false,
    "_isRandom": true,
    "_recordInteraction": true,
    "_questionWeight": 1,
    "_selectable": 1,
    "_feedback": {
      "correct": "<p><strong>¡Exacto!</strong></p><p>La gestión del cambio es importante para el éxito de un programa, proyecto o iniciativa porque ayuda a asegurar la sostenibilidad y a reducir el riesgo.</p>",
      "_incorrect": {
        "final": "<p><strong>¿Está seguro?</strong></p><p>La gestión del cambio es importante para el éxito de un programa, proyecto o iniciativa porque ayuda a asegurar la sostenibilidad y a reducir el riesgo.</p>",
        "notFinal": ""
      },
      "_partlyCorrect": {
        "final": "",
        "notFinal": ""
      }
    },
    "_buttons":{
            "submit":"",
            "reset":"",
            "showCorrectAnswer":"",
            "hideCorrectAnswer":""
        }
  },
  {
    "_id": "59400157d084d5167a04f97c",
    "_layout": "right",
    "_parentId": "b-10",
    "_type": "component",
    "body": "",
    "displayTitle": " ",
    "title": " ",
    "_isAvailable": true,
    "_isOptional": false,
    "_classes": "color-six",
    "_component": "graphic",
    "_pageLevelProgress": {
      "_isEnabled": false
    },
    "instruction": "",
    "_graphic": {
      "alt": "",
      "large": "course/es/assets/7120bb7ad02055a11589656852c821cae30bf616.png",
      "small": "course/es/assets/7120bb7ad02055a11589656852c821cae30bf616.png",
      "attribution": "<a href=\"https://theodi.org\" target=\"_blank\">The Open Data Institute</a> <span class='assetLicence'>[CC-BY-SA]</span>"
    }
  },
  {
    "_id": "59400157d084d5167a04f97e",
    "_layout": "left",
    "_parentId": "b-03",
    "_type": "component",
    "body": "",
    "displayTitle": "",
    "title": "",
    "_isAvailable": true,
    "_isOptional": false,
    "_classes": "",
    "_component": "graphic",
    "_pageLevelProgress": {
      "_isEnabled": false
    },
    "instruction": "",
    "_graphic": {
      "alt": "",
      "large": "course/es/assets/1df129630da9e360cea725c7c5eebda0b337c7ba.jpg",
      "small": "course/es/assets/1df129630da9e360cea725c7c5eebda0b337c7ba.jpg",
      "attribution": "<a href=\"http://www.freepik.com\" target=\"_blank\">Jannoon028 / Freepik</a> <span class='assetLicence'>[CC-BY]</span>"
    }
  },
  {
    "_id": "59400157d084d5167a04f97f",
    "_layout": "right",
    "_parentId": "b-03",
    "_type": "component",
    "body": "<p dir=\"ltr\">Pese a que la tecnología de los datos abiertos ya existe desde hace 20 años, no ha sido habitual abrir los datos. Dicho esto, ha habido una gran demanda de transparencia, impulsada por escándalos como el escándalo de los <a href=\"https://en.wikipedia.org/wiki/United_Kingdom_parliamentary_expenses_scandal\">gastos de los diputados británicos en 2009</a> y el de la <a href=\"https://www.britannica.com/topic/FIFA-Corruption-Scandal-The-2076091\">corrupción de la FIFA en 2016</a>.</p><p dir=\"ltr\">La mayor parte de las organizaciones aún se sienten muy cómodas con no abrir los datos por defecto y permitir el acceso a la información y los datos solo cuando se les solicita o porque así lo establece un acuerdo de intercambio de información. Según el enfoque de apertura por defecto, todos los datos y la información deben abrirse de forma automática salvo que exista una justificación de peso para no hacerlo. La gestión del cambio es esencial tanto para el éxito del proyecto como para ayudar a las personas a través del proceso a las que les resultara difícil cambiar su mentalidad para adoptar los datos abiertos.</p><p>Para favorecer este proceso de gestión del cambio, la <a href=\"http://opendatacharter.net/\">Carta de Datos Abiertos</a> ofrece distintos principios para llevar a cabo con éxito las iniciativas de datos abiertos. Son muchos los países que ya han firmado la Carta, entre ellos <a href=\"https://opendatacharter.net/government-adopters\">Francia, Italia y el Reino Unido</a>. <a href=\"https://www.opengovpartnership.org/stories/how-ukraine-used-the-charter-to-develop-an-open-data-roadmap\">Ucrania ha utilizado la Carta para ayudar a orientar su hoja de ruta a largo plazo</a> y obtener el apoyo de todas las partes del Gobierno.</p>",
    "displayTitle": "¿Por qué la gestión del cambio es importante en las iniciativas de datos abiertos?",
    "title": "¿Por qué la gestión del cambio es importante en las iniciativas de datos abiertos?",
    "_isAvailable": true,
    "_isOptional": false,
    "_classes": "",
    "_component": "text",
    "_pageLevelProgress": {
      "_isEnabled": true
    },
    "instruction": ""
  },
  {
    "_id": "59400157d084d5167a04f980",
    "_layout": "left",
    "_parentId": "b-04",
    "_type": "component",
    "body": "<p>Realizar una gestión eficaz es fundamental para el éxito de cualquier proyecto o iniciativa. La gestión del cambio no es una excepción. A continuación analizamos algunas de las razones clave por las que debemos gestionar el proceso del cambio.</p>",
    "displayTitle": "¿Por qué es necesaria la gestión del cambio?",
    "title": "¿Por qué es necesaria la gestión del cambio?",
    "_isAvailable": true,
    "_isOptional": false,
    "_classes": "",
    "_component": "accordion",
    "_pageLevelProgress": {
      "_isEnabled": true
    },
    "instruction": "",
    "_items": [
      {
        "title": "El cambio no se produce de la noche a la mañana",
        "body": "<p dir=\"ltr\">Es muy difícil realizar cambios rápidamente, especialmente en las organizaciones de gran tamaño. Con el tiempo, las organizaciones se acostumbran a operar de determinada manera.</p><p dir=\"ltr\">Puesto que aplicar los cambios lleva tiempo, debe haber una persona o un equipo que se ocupe de supervisar y gestionar el proceso del cambio. Esto también sirve para garantizar que el proceso no se interrumpa.</p><p dir=\"ltr\">Según un <a href=\"http://www.nortonrosefulbright.com/knowledge/publications/136571/the-digital-transformation-of-the-german-emmittelstandem\">informe de Alemania</a>, la colaboración es clave para la gestión del cambio y la transformación digital en las empresas de pequeño y mediano tamaño.</p>",
        "_graphic": {
          "alt": "",
          "src": "",
          "attribution": ""
        },
        "_classes": ""
      },
      {
        "title": "Reducción del riesgo",
        "body": "<p>Gestionar el proceso del cambio reduce los riesgos generales para una organización.</p><p>Existen diferentes razones por las que una organización puede querer realizar un proceso de gestión del cambio. A veces esto puede deberse a las consecuencias negativas de su proceso, su sistema, su estructura o su manera de trabajar actuales.</p><p dir=\"ltr\">En estos casos, es un riesgo mantener la situación actual puesto que puede conducir a una pérdida de ingresos o un deterioro de la reputación. Este fue el caso de <a href=\"https://www.landmark.co.uk/\">Landmark</a>, una empresa del Reino Unido cuyo modelo de negocio se puso en riesgo cuando se abrieron los datos en los que se basaban para vendérselos a otros. Para evitar el desastre <a href=\"https://theodi.org/lunchtime-lectures/friday-lunchtime-lecture-changing-tracks-with-hs2-open-data\" target=\"_blank\">tuvieron que cambiar su negocio</a>, liderados por el CEO e impulsados por el equipo.</p><p>No obstante, puede resultar igual de peligroso realizar el cambio con demasiada rapidez. Gestionar el proceso de cambio es una forma de controlar estos riesgos y asegurarse de que el cambio sea positivo.</p>",
        "_graphic": {
          "alt": "",
          "src": "",
          "attribution": ""
        },
        "_classes": ""
      },
      {
        "title": "Garantizar la sostenibilidad",
        "body": "<p dir=\"ltr\">Gestionar el proceso del cambio es fundamental para la sostenibilidad. Contar con un líder que gestione el proceso del cambio significa que será más probable que el cambio sea sostenible a largo plazo. Este no tiene por qué ser necesariamente la persona más veterana de la organización, aunque debe poder tomar decisiones.</p><p dir=\"ltr\">Estos nombran a otros para que dirijan el cambio junto con aquellos que poseen las habilidades y las responsabilidades necesarias para cambiar el funcionamiento de la organización. Este es especialmente cierto en el caso de Europa en el ámbito digital y de los datos, ya que ahora se exige que las organizaciones cuenten con un responsable en materia de protección de datos si manejan datos de clientes. A medida que la digitalización y la apertura se convierten en normas, la gestión del cambio y contar con el personal adecuado para dirigirlo serán esenciales para el éxito de las organizaciones.</p><p>También forma parte de esta función asegurarse de que los demás, tanto de dentro como de fuera de la organización, comprendan por qué el cambio es necesario y lo apoyen. De lo contrario, es muy poco probable que ningún cambio sea sostenible.</p>",
        "_graphic": {
          "alt": "",
          "src": "",
          "attribution": ""
        },
        "_classes": ""
      }
    ],
    "_shouldCollapseItems": true
  },
  {
    "_id": "59400157d084d5167a04f981",
    "_layout": "full",
    "_parentId": "b-05",
    "_type": "component",
    "body": "<p dir=\"ltr\">Existen varios elementos clave que son necesarios para gestionar con éxito el cambio dentro de una organización. Estos elementos son importantes tanto para el sector privado como para el público.</p>",
    "displayTitle": "¿Cuáles son los elementos clave de la gestión del cambio?",
    "title": "¿Cuáles son los elementos clave de la gestión del cambio?",
    "_isAvailable": true,
    "_isOptional": false,
    "_classes": "",
    "_component": "narrative",
    "_pageLevelProgress": {
      "_isEnabled": true
    },
    "instruction": "",
    "mobileInstruction": "",
    "_hasNavigationInTextArea": false,
    "_setCompletionOn": "allItems",
    "_items": [
      {
        "title": "Visión clara",
        "body": "<p dir=\"ltr\">Tener una visión clara es importante para la gestión del cambio y para poder obtener apoyo interno y externo para la iniciativa. Esta visión debe alinearse con los objetivos de la organización, de lo contrario, chocará con sus valores, la marca o la imagen.</p><p dir=\"ltr\">Con respecto a los datos abiertos, esta visión debería definir aspectos como la apertura por defecto, el lugar del que provendrán todos los datos y bajo qué licencia.</p><p>El líder del proyecto debe poder articular esta visión para asegurar el apoyo tanto a nivel interno como externo.</p><p>En Francia, se ha designado a un <a href=\"http://www.computerweekly.com/news/450284803/France-takes-the-lead-in-the-global-open-data-race\">Director de Datos (CDO) del Gobierno</a> precisamente para hacerlo, y para que informe sobre el progreso de la obtención de apoyo dentro y fuera del Gobierno.</p>",
        "_graphic": {
          "src": "course/es/assets/e476d5412f3c230ba6365724bc2935db25901c21.jpg",
          "alt": "",
          "attribution": "<a href=\"http://www.shutterstock.com/pic-238771996.html\" target=\"_blank\">Mangsaab</a> <span class='assetLicence'>[Shutterstock standard licence]</span>"
        },
        "strapline": "Visión clara"
      },
      {
        "title": "Plan de gestión de los datos",
        "body": "<p dir=\"ltr\">Todas las organizaciones deberían contar con un plan de gestión de los datos en el que se explique cómo se almacenan, se realiza una copia de seguridad y se accede a los mismos. Los datos forman parte de la infraestructura de una empresa moderna y, al igual que los edificios y otros activos, necesitan una gestión cuidadosa.</p><p>Los datos abiertos no deben verse como una actividad separada de las actividades clave de la gestión de datos. Un buen punto de partida para integrar los datos abiertos en su plan de gestión de datos es aplicarle la visión. Esto ayuda a asegurar la integración de la estrategia en los procesos y procedimientos operativos a largo plazo de la organización.</p>",
        "_graphic": {
          "src": "course/es/assets/641546c15c0af8c554b833be3cc3dfc09ac0b997.jpg",
          "alt": "",
          "attribution": "<a href=\"theodi.org\" target=\"_blank\">Sponge UK</a> <span class='assetLicence'>[CC-BY]</span>"
        },
        "strapline": "Plan de gestión de los datos"
      },
      {
        "title": "Apoyo de los altos cargos",
        "body": "<p>Con cualquier programa de cambio, es normal que los que lo dirigen se encuentren con una cierta resistencia dentro de sus organizaciones.</p><p>El apoyo de los altos cargos puede ayudar a promover la aceptación institucional.</p><p>Trabajar con estos altos cargos es esencial, dado que una «estrategia de insurgencia» para introducir el cambio es poco probable que sea sostenible.</p>",
        "_graphic": {
          "src": "course/es/assets/4b63c6af07902f3f8460f8a4ca00a26d4df61cf9.jpg",
          "alt": "",
          "attribution": "<a href=\"https://pixabay.com/en/building-blocks-toys-block-building-717309/\" target=\"_blank\">Spowell</a> <span class='assetLicence'>[CC0]</span>"
        },
        "strapline": "Apoyo de los altos cargos"
      },
      {
        "title": "Métricas",
        "body": "<p dir=\"ltr\">Además de contar con un plan de gestión de datos, las organizaciones deben establecer procesos y ciclos de vida clave en los que se detalle cómo se realiza la transición a sus datos abiertos y se mantienen posteriormente.</p><p dir=\"ltr\">Alinear estos planes y ciclos de vida con los indicadores clave de desempeño (KPI) para evaluar el éxito ayudará a justificar la inversión de tiempo y dinero en el programa del cambio.</p><p>En las iniciativas de datos abiertos, no piense únicamente en el número de conjuntos de datos que publica, sino en su impacto y la alineación con las métricas de éxito externas, incluido el propio <a href=\"https://www.data.europa.eu/en/highlights/open-data-maturity-europe\">Índice de madurez de los datos abiertos</a> del Portal Europeo de Datos, que es una buena métrica del cambio dentro de los países.</p>",
        "_graphic": {
          "src": "course/es/assets/2b5ec4242610756a70a3b5e12afaf1626f3f0d02.jpg",
          "alt": "",
          "attribution": "<a href=\"https://www.shutterstock.com/image-vector/3d-illustration-concept-kpi-174926546\" target=\"_blank\">leromin</a> <span class='assetLicence'>[Shutterstock standard licence]</span>"
        },
        "strapline": "Métricas"
      },
      {
        "title": "Comunicar el impacto",
        "body": "<p dir=\"ltr\">Comprender el impacto de un proceso del cambio ayudará a asegurar su futuro.</p><p dir=\"ltr\">Los que se ocupan del programa del cambio deben centrarse en el impacto tangible del resultado directo del programa. Un buen lugar para concentrarse son las victorias rápidas, es decir, aquellos ámbitos en los que con poco esfuerzo se consigue un efecto inmediato.</p><p dir=\"ltr\">Comunicar claramente historias sobre el impacto ayuda a conseguir el apoyo de todos los que participan en el programa.</p><p>En el sector público, muchos países muestran ejemplos en los que otros utilizan sus datos abiertos, como <a href=\"http://datos.gob.es/es/iniciativas\">España</a>, <a href=\"https://data.gov.ie/showcase\">Irlanda</a> y <a href=\"http://www.data.gouv.fr/fr/\">Francia</a>.</p>",
        "_graphic": {
          "src": "course/es/assets/1eef9340d96e57e84343777b61a3c23d138d02d7.jpg",
          "alt": "",
          "attribution": "<a href=\"http://www.shutterstock.com/pic.mhtml?id=149924576&src=lb-35924366\" target=\"_blank\">Sergey Nivens</a> <span class='assetLicence'>[Shutterstock standard licence]</span>"
        },
        "strapline": "Comunicar el impacto"
      },
      {
        "title": "Alinear las prioridades",
        "body": "<p>Alinear las prioridades del proyecto, el programa o la iniciativa con las prioridades de la persona responsable del presupuesto.</p><p>Podría ser el CEO de su empresa, o la organización que gestiona sus fondos. Puede que incluso sean sus clientes los que le pidan datos abiertos para compartirlos con los demás, como fue el caso de Thomson Reuters. Puede leer el libro blanco completo <a href=\"https://theodi.org/guides/data-identifiers-white-paper\">aquí</a>.</p><p>Alinear sus prioridades ayudará a asegurar la sostenibilidad y el impacto de su programa.</p>",
        "_graphic": {
          "src": "course/es/assets/7fec32b99da9f008a88d2622d258aaea82bf1513.jpg",
          "alt": "",
          "attribution": "<a href=\"https://www.shutterstock.com/image-vector/background-colorful-airplanes-vector-illustration-103013084?src=id\" target=\"_blank\">Laralova</a> <span class='assetLicence'>[Shutterstock standard licence]</span>"
        },
        "strapline": "Alinear las prioridades"
      }
    ]
  },
  {
       "_id":"c-95",
       "_parentId":"b-10",
       "_type":"component",
       "_component":"text",
       "_classes":"separator",
       "_layout":"full"
    },
    {
       "_id":"c-96",
       "_parentId":"b-10",
       "_type":"component",
       "_component":"text",
       "_classes": "attribution",
       "body":"&copy; <a href='https://theodi.org' target='_blank'>Open Data Institute</a>",
       "_layout":"full"
    },
    {
        "_id":"c-100",
        "_parentId":"b-10",
        "_type":"component",
        "_component":"graphic",
        "_classes":"footer-logo",
        "_layout":"left",
        "_graphic": {
            "alt": "Open data institute logo",
            "title": "Open data institute logo",
            "large": "course/es/images/logo-small.png",
            "medium": "course/es/images/logo-small.png",
            "small": "course/es/images/logo-small.png",
            "*source":"http://theodi.org",
            "*credit":"The Open Data Institute",
            "*license":"All rights reserved"
        }
    },
    {
        "_id":"c-104",
        "_parentId":"b-10",
        "_type":"component",
        "_component":"text",
        "_classes":"attribution not-eu not-default",
        "_layout":"right",
        "body":"<a href='http://theodi.org' target='_blank'>The Open Data Institute</a>"
    },
    {
        "_id":"c-105",
        "_parentId":"b-10",
        "_type":"component",
        "_component":"text",
        "_classes":"social-buttons not-dlab",
        "_layout":"right",
        "body":"<a class='social' target='_blank' href='https://twitter.com/ODIHQ'><img src='course/es/images/social/twitter.png'></a><a class='social' target='_blank' href='https://soundcloud.com/theodi'><img src='course/es/images/social/sound.png'></a><a class='social' target='_blank' href='https://www.scribd.com/OpenDataInstitute'><img src='course/es/images/social/scribd.png'></a><a class='social' target='_blank' href='https://github.com/theodi'><img src='course/es/images/social/github.png'></a><a class='social' target='_blank' href='https://vimeo.com/theodiuk'><img src='course/es/images/social/vimeo.png'></a><a class='social' target='_blank' href='https://www.youtube.com/user/OpenDataInstituteUK'><img src='course/es/images/social/youtube.png'></a><a class='social' target='_blank' href='https://www.flickr.com/photos/ukodi/'><img src='course/es/images/social/flickr.png'></a>"
    }
]
