[
    {
        "_id":"c-01",
        "_parentId":"b-01",
        "_type":"component",
        "_component":"graphic",
        "_classes":"intro-logo",
        "_layout":"right",
        "title":"",
        "displayTitle":"",
        "body":"",
        "instruction":"",
        "_graphic": {
            "alt": "",
            "title": "",
            "large": "",
            "medium": "",
            "small": "",
            "*source":"",
            "*credit":"",
            "*license":""
        }
    },
    {
        "_id":"c-02",
        "_parentId":"b-01",
        "_type":"component",
        "_component":"text",
        "_classes":"",
        "_layout":"left",
        "title":"Getting to grips with platforms",
        "displayTitle":"Getting to grips with platforms",
        "body":"<p>A platform is a major piece of software on which smaller pieces of software and content can be run. For open data, the largest platform is the Web. However, lots of other purpose-built software can help you to publish open data, or provide interactive tools to help you to explore it.</p><h5>In this module we’ll explore the following:</h5><ul class='ticks'><li>Recognising open data platforms</li><li>Understanding why platforms are important to users</li><li>Evaluating key platform options</li><li>Using platforms to explore data</li></ul>",
        "instruction":"",
        "_pageLevelProgress": {
            "_isEnabled": true
        }
    },
    {
    "_id":"c-11",
    "_parentId":"b-10",
    "_type":"component",
    "_component":"iFrame-vimeo",
    "_classes":"",
    "_layout":"full",
        "title":"Open data platforms – in 2 minutes",
        "displayTitle": "Open data platforms – in 2 minutes",
        "body": "ODI Trainer David Tarrant explains what open data platforms are, the different platforms available and the advantages of platforms for users.",
        "instruction": "To turn subtitles on and off, click the 'cc' button at the bottom right of the video",
        "_setCompletionOn":"ended",
        "_source": "//europa.eu/webtools/crs/iframe/?lang=en&oriurl=https://www.youtube.com/embed/H7jqjN3NHeY&list=PLT5rARDev_rnG9rj7hZG0hALPWQS8mLGA&index=8",
        "_media": {
		"mp4": "course/en/video/video.mp4",
		"poster": "course/en/video/placeholder.jpg"
	},
        "_height": {
            "_small" : 250,
            "_medium" : 350,
            "_large" : 508
        }
    },
    {
        "_id":"c-21",
        "_parentId":"b-20",
        "_type":"component",
        "_component":"graphic",
        "_classes":"",
        "_layout":"right",
        "_graphic": {
            "alt": "What is an open data platform?",
            "title": "What is an open data platform?",
            "*source": "http://www.shutterstock.com/pic.mhtml?id=103013084&src=id",
            "*credit": "Laralova",
            "*licence": "Shutterstock standard licence",
            "large": "course/en/images/odi-001.jpg",
            "medium": "course/en/images/odi-001.jpg",
            "small": "course/en/images/odi-001.jpg"
        }
    },
    {
        "_id":"c-22",
        "_parentId":"b-20",
        "_type":"component",
        "_component":"text",
        "_classes":"",
        "_layout":"left",
        "title":"What is an open data platform?",
        "displayTitle":"What is an open data platform?",
        "body":"<p>Open data platforms are pieces of software that make it simpler to publish and manage open data on the Web.</p><p>For publishers, an open data platform provides a pathway to publish data. Platforms guide publishers through the process of publishing data, and offer users consistency and ease of access to open data from around the world.</p>"
    },
     {
        "_id": "c-25",
        "_parentId": "b-25",
        "_classes": "",
        "_type":"component",
        "_layout": "full",
        "_component": "narrative",
        "title": "Key features of open data platforms",
        "displayTitle": "Key features of open data platforms",
        "body": "Open data platforms make open data <em>discoverable</em> and <em>usable</em> in a <em>consistent</em> way.",
        "instruction": "<em class='desktop-instruction'>Click the forward arrow for more.</em><em class='mobile-instruction'>Select the ‘+’ sign to explore further, then swipe the image to see more.</em>",
        "_items": [
            {
                "title": "Discoverable data",
                "body": "<p>Open data platforms promote open data to users. Platforms are designed to allow users to quickly find and reuse relevant open data.</p><p>Platforms are search-optimised to make it easier to find relevant resources. Platforms also provide data-feeds that can be discovered and indexed in systems across the Web.</p><p>These data feeds allow search engines like Enigma.io to index open data and make it easier to find.<br /><a href='http://www.enigma.io' target='_blank'>Discover more at enigma.io</a></p>",
                "_graphic": {
                    "src": "course/en/images/odi-002.jpg",
                    "alt": "Discovery",
                    "title": "Discovery",
                    "*source": "https://www.flickr.com/photos/mjtmail/3008566512",
                    "*credit": "mjtmail (tiggy)",
                    "*licence": "CC-BY 2.0"
                },
                "strapline": "Data"
            },
            {
                "title": "Consistent user experience",
                "body": "<p>There are a limited number of open data platforms, which means you don’t need to understand lots of different technologies to discover large amounts of open data.</p><p>Open data platforms are designed with the user in mind – their layout and design can make it easier to discover data.</p><p>For examples of sites using open data platforms, look at: <a href='http://www.data.gov.uk' target='_blank'>data.gov.uk</a>, <a href='https://africaopendata.org/' target='_blank'>africaopendata.org</a> and <a class='not-dlab' href='http://www.data.gov.md' target='_blank'>data.gov.md</a><a class='not-eu not-default' href='https://tanzania.opendataforafrica.org/' target='_blank'>opendata.go.tz</a></p><p>Note that many governments use a standard naming convention for the Web address of the data platform, so a simple starting point for finding open data for a country is to enter data.gov.[country top-level domain].</p>",
                "_graphic": {
                    "src": "course/en/images/odi-003.jpg",
                    "alt": "Consistency",
                    "title": "Consistency",
                    "*source": "http://www.shutterstock.com/pic.mhtml?id=200818673&src=lb-36497927",
                    "*credit": "April Cat",
                    "*licence": "Shutterstock standard license"
                },
                "strapline": "Information"
            },
            {
                "title": "Consistent access to data",
                "body": "<p>The development of open standards by the Web community has led to consistent Application Programming Interfaces (APIs) for discovering, accessing and using data.</p><p>The limited number of open data platforms and consistent features of their user interfaces make it simple for people to use the different features while feeling comfortable with the software.</p><p>The platforms also have similar structures and formats for exposing metadata, as well as the data itself.</p>",
                "_graphic": {
                    "src": "course/en/images/odi-004.jpg",
                    "alt": "Access granted",
                    "title": "Access granted",
                    "*source": "http://www.shutterstock.com/pic.mhtml?id=154822901&src=id",
                    "*credit": "Kirill_m",
                    "*licence": "Shutterstock standard licence"
                },
                "strapline": "Knowledge"
            }
        ],
        "_pageLevelProgress": {
        "_isEnabled": true
        }
    },
    {
        "_id":"c-30",
        "_parentId":"b-28",
        "_type":"component",
        "_component":"graphic",
        "_classes":"",
        "_layout":"right",
        "_graphic": {
            "alt": "Approaches",
            "title": "Approaches",
            "large": "course/en/images/odi-005.jpg",
            "medium": "course/en/images/odi-005.jpg",
            "small": "course/en/images/odi-005.jpg",
            "*source": "http://www.shutterstock.com/pic.mhtml?id=277792007&src=id",
            "*credit": "Nicotombo",
            "*licence": "Shutterstock standard licence"
        }
    },
    {
      "_id":"c-35",
      "_parentId":"b-28",
      "_type":"component",
      "_component":"accordion",
      "_classes":"",
      "_layout":"left",
      "title": "Approaches to open data platform design",
      "displayTitle": "Approaches to open data platform design",
      "body": "<p>Platforms provide different approaches to publishing and exposing open data. Discover the different approaches below:</p>",
      "instruction": "",
      "_items": [
        {
          "alt": "Data catalogs",
          "title": "Data catalogs",
          "body": "<p>An open data catalog is a platform that lists datasets on the Web. Data catalogs are like directories. They know what open data exists, what it is about, where it is and how to get hold of it.</p><p>An open data catalog links users to data that is located somewhere else on the Web. They offer a consistent way of locating a diverse set of data that is widely scattered.</p><p class='not-dlab'>The CKAN platform, used by places like Amsterdam (<a href='http://data.amsterdam.nl' target='_blank'>Take me to Amsterdam CKAN portal</a>)</span>, Berlin (<a href='http://daten.berlin.de/' target='_blank'>Take me to Berlin CKAN portal</a>) and Copenhagen (<a href='http://data.kk.dk/' target='_blank'>Take me to Copenhagen CKAN portal</a>), can be used as a data catalog.</p><p class='not-eu not-default'>The CKAN platform, used by places like the UK (<a href='https://data.gov.uk/data/search' target='_blank'>Take me to the UK CKAN portal</a>)</span>, Tanzania (<a href='https://tanzania.opendataforafrica.org/' target='_blank'>Take me to Tanzania CKAN portal</a>) and Open Africa (<a href='https://africaopendata.org/dataset' target='_blank'>Take me to Open Africa</a>), can be used as a data catalog.</p>"
        },
        {
          "alt": "Data management",
          "title": "Data management",
          "body": "<p>Open data management platforms can also play an active role in the way a publisher manages and maintains a dataset. Publishers can update data directly in the platform and regularly provide updates.</p><p>For users, searching for and manipulating open data without having to download it can make reusing it a lot easier.</p><p>For publishers however, there is a much greater challenge in structuring and formatting data for the platform. This can be overcome if the publisher also uses the publishing platform to access the data.</p><p class='not-dlab'>The Socrata platform, used by the Lombardy region of Italy (<a href='https://www.dati.lombardia.it/' target='_blank'>Take me to Lombardy open data portal</a>), and the Open Data Soft platform used by the city of Issy-les-Moulineaux in France (<a href='https://data.issy.com/' target='_blank'>Take me to Issy open data portal</a>) are good examples of data management platforms.</p><p class='not-eu not-default'>The Socrata platform, used by the City of Chicago in the US (<a href='https://data.cityofchicago.org/' target='_blank'>Take me to the Chicago open data portal</a>), and the Open Data Soft platform used by the city and county of Durham (<a href='https://opendata.durham.ca/' target='_blank'>Take me to Durham open data portal</a>) are good examples of data management platforms.</p>"
        },
        {
          "alt": "Comparison",
          "title": "Comparison",
          "body": "<p>Data catalogs provide:</p></ul><li>Federated search across a wide domain.</li><li>Mechanisms for discovery.</li><li>Key metadata relating to licence and how up to date data is.</li></ul></p><p>Data management platforms provide:</p><ul><li>Authoritative sources for data.</li><li>Increased data quality.</li><li>The ability to search and manipulate data.</li></ul><p>The distinctions between data management platforms and data catalogs can also vary between providers. <a href='https://how-to.usopendata.org/en/latest/The-Basics-of-Open-Data/Data-Repositories/' target='_blank'>Take me to comparative analysis of data platforms</a></p>"
        }
      ],
      "_pageLevelProgress": {
        "_isEnabled": true
      }
    },
    {
        "_id":"c-31",
        "_parentId":"b-30",
        "_type":"component",
        "_component":"graphic",
        "_classes":"",
        "_layout":"right",
        "_graphic": {
            "alt": "Open data platforms across Europe",
            "title": "Open data platforms across Europe",
            "*source": "http://www.shutterstock.com/pic.mhtml?id=117748444&src=id",
            "*credit": "koyacsf",
            "*licence": "Shutterstock standard licence",
            "large": "course/en/images/odi-006.jpg",
            "medium": "course/en/images/odi-006.jpg",
            "small": "course/en/images/odi-006.jpg"
        }
    },
    {
        "_id":"c-32",
        "_parentId":"b-30",
        "_type":"component",
        "_component":"text",
        "_classes":"",
        "_layout":"left",
        "title":"Open data platforms across Europe",
        "displayTitle":"Open data platforms across Europe",
        "body":"<p>Europe is home to hundreds of open data platforms at the local, regional and national level. When searching for open data, it can be useful to access a directory of these platforms to help you locate what sources of data are available. The OpenDataMonitor project is a European index of open data sites and provides a useful reference guide. Why not explore the index to discover what data is available for different countries, regions and cities?<br /><a href='https://www.opendatamonitor.eu/frontend/web/index.php?r=dashboard%2Findex' target='_blank'>Take me to OpenDataMonitor</a></p>"
    },
    {
        "_id":"c-42",
        "_parentId":"b-33",
        "_type":"component",
        "_component":"graphic",
        "_classes":"",
        "_layout":"right",
        "title":"",
        "displayTitle":"",
        "body":"",
        "instruction":"",
        "_graphic": {
            "alt": "",
            "title": "",
            "large": "course/en/images/burst.png",
            "medium": "course/en/images/burst.png",
            "small": "course/en/images/burst.png"
        }
    },
    {
        "_id":"c-43",
        "_parentId":"b-33",
        "_type":"component",
        "_component":"text",
        "_classes":"",
        "_layout":"left",
        "title":"Are you ready to explore open data platforms?",
        "displayTitle":"Are you ready to explore open data platforms?",
        "body":"<p>There are three helpful things to remember when thinking about open data platforms. Can you recall them?</p>",
        "instruction":"",
        "_pageLevelProgress": {
            "_isEnabled": true
        }
    },
    {
        "_id":"c-45",
        "_parentId":"b-35",
        "_type":"component",
        "_component":"graphic",
        "_classes":"illustration",
        "_layout":"right",
        "_graphic": {
            "alt": "What is an open data platform?",
            "title": "",
            "*source": "http://www.shutterstock.com/pic.mhtml?id=103013084&src=id",
            "*credit": "Laralova",
            "*licence": "Shutterstock standard licence",
            "large": "course/en/images/odi-007.jpg",
            "medium": "course/en/images/odi-007.jpg",
            "small": "course/en/images/odi-007.jpg"
        }
    },
    {
        "_id":"c-50",
        "_parentId":"b-35",
        "_type":"component",
        "_component":"mcq",
        "_adapt2id":"58905c59b61c46e176e7eb53",
        "_classes":"",
        "_layout":"left",
        "_attempts":1,
        "_questionWeight":1,
        "_isRandom":true,
        "_selectable":1,
        "title": "What is an open data platform?",
        "displayTitle": "What is an open data platform?",
        "body": "<p>An open data platform is...</p>",
        "instruction": "<em>Choose your answer, then click 'Submit'</em>",
        "_items": [
            {
                "text": "a sales platform for businesses",
                "_shouldBeSelected": false
            },
            {
                "text": "a piece of software that helps get open data on the Web",
                "_shouldBeSelected": true
            },
            {
                "text": "an internal data management tool",
                "_shouldBeSelected": false
            }
        ],
        "_feedback":{
            "correct":"<h5>That’s right!</h5><p>An open data platform is a piece of software that helps get open data on the Web. It provides publishers a streamed process for publishing data and users a consistent way to access, use and share data.</p>",
            "_incorrect": {
                "notFinal": "<h5>Are you sure about that?</h5><p>An open data platform is a piece of software that helps get open data on the Web. It provides publishers a streamed process for publishing data and users a consistent way to access, use and share data.</p>",
                "final": "<h5>Are you sure about that?</h5><p>An open data platform is a piece of software that helps get open data on the Web. It provides publishers a streamed process for publishing data and users a consistent way to access, use and share data.</p>"
            },
            "_partlyCorrect": {
                "notFinal": "An open data platform is piece of software that helps get open data on the Web. It provides publishers a streamed process for publishing data and users a consistent way to access, use and share data.",
                "final": "An open data platform is piece of software that helps get open data on the Web. It provides publishers a streamed process for publishing data and users a consistent way to access, use and share data."
          }
        },
        "_buttons":{
            "submit":"",
            "reset":"",
            "showCorrectAnswer":"",
            "hideCorrectAnswer":""
        },
        "_pageLevelProgress": {
        "_isEnabled": true
      }
    },
    {
        "_id":"c-55",
        "_parentId":"b-40",
        "_type":"component",
        "_component":"graphic",
        "_classes":"",
        "_layout":"left",
        "_graphic": {
            "alt": "Approaches",
            "title": "",
            "large": "course/en/images/odi-008.jpg",
            "medium": "course/en/images/odi-008.jpg",
            "small": "course/en/images/odi-008.jpg",
            "*source": "http://www.shutterstock.com/pic.mhtml?id=277792007&src=id",
            "*credit": "Nicotombo",
            "*licence": "Shutterstock standard licence"
        }
    },
    {
        "_id":"c-60",
        "_parentId":"b-40",
        "_type":"component",
        "_component":"mcq",
        "_adapt2id":"58905d4db61c46e176e7eb58",
        "_classes":"",
        "_layout":"right",
        "_attempts":1,
        "_questionWeight":1,
        "_isRandom":true,
        "_selectable":1,
        "title": "What is a data catalog?",
        "displayTitle": "What is a data catalog?",
        "body": "<p>A data catalog is...</p>",
        "instruction": "<em>Choose your answer, then click 'Submit'</em>",
        "_items": [
            {
                "text": "a list of open datasets an organisation holds",
                "_shouldBeSelected": false
            },
            {
                "text": "a list of datasets and prices",
                "_shouldBeSelected": false
            },
            {
                "text": "a list of open datasets available on the Web",
                "_shouldBeSelected": true
            }
        ],
        "_feedback":{
            "correct":"<h5>That’s right!</h5><p>A data catalog lists datasets that are available on the Web, that do not all have to be owned by the owner of the catalog. Most catalogs are domain or subject specific in order to keep the context simpler to understand.</p>",
            "_incorrect": {
                "notFinal": "<h5>Are you sure about that?</h5><p>A data catalog lists datasets that are available on the Web, that do not all have to be owned by the owner of the catalog. Most catalogs are domain or subject specific in order to keep the context simpler to understand.</p>",
                "final": "<h5>Are you sure about that?</h5><p>A data catalog lists datasets that are available on the Web, that do not all have to be owned by the owner of the catalog. Most catalogs are domain or subject specific in order to keep the context simpler to understand.</p>"
            },
            "_partlyCorrect": {
                "notFinal": "Are you sure about that?</h5><p>A data catalog lists datasets that are available on the Web, they do not all have to be owned by the owner of the catalog. Most catalogs are domain or subject specific in order to keep the context simpler to understand.",
                "final": "Are you sure about that?</h5><p>A data catalog lists datasets that are available on the Web, they do not all have to be owned by the owner of the catalog. Most catalogs are domain or subject specific in order to keep the context simpler to understand.."
          }
        },
        "_buttons":{
            "submit":"",
            "reset":"",
            "showCorrectAnswer":"",
            "hideCorrectAnswer":""
        },
        "_pageLevelProgress": {
        "_isEnabled": true
      }
    },
    {
        "_id":"c-65",
        "_parentId":"b-45",
        "_type":"component",
        "_component":"graphic",
        "_classes":"illustration",
        "_layout":"right",
        "_graphic": {
            "alt": "What do open data platforms help with?",
            "title": "What do open data platforms help with?",
            "large": "course/en/images/odi-009.jpg",
            "medium": "course/en/images/odi-009.jpg",
            "small": "course/en/images/odi-009.jpg",
            "*source": "http://www.shutterstock.com/pic-241493050/",
            "*credit": "dencg",
            "*licence": "Shutterstock standard licence"
        }
    },
    {
        "_id":"c-70",
        "_parentId":"b-45",
        "_type":"component",
        "_component":"mcq",
        "_adapt2id":"58905de5b61c46e176e7eb5e",
        "_classes":"",
        "_layout":"left",
        "_attempts":1,
        "_questionWeight":1,
        "_isRandom":true,
        "_selectable":3,
        "title": "Which three things do open data platforms help with?",
        "displayTitle": "Which three things do open data platforms help with?",
        "body": "<p></p>",
        "instruction": "<em>Select three options, then click 'Submit'</em>",
        "_items": [
            {
                "text": "facilitating open data discovery",
                "_shouldBeSelected": true
            },
            {
                "text": "ensuring consistancy",
                "_shouldBeSelected": true
            },
            {
                "text": "supporting open data access",
                "_shouldBeSelected": true
            },
            {
                "text": "providing context",
                "_shouldBeSelected": false
            },
            {
                "text": "building a community",
                "_shouldBeSelected": false
            }
        ],
        "_feedback":{
            "correct":"<h5>That’s right!</h5><p>The three main benefits of open data platforms are <em>discovery</em>, <em>consistency</em> and <em>access</em>. Although they can assist with establishing context and community, these aspects require additional effort from the publisher and remain two of the key challenges in open data.</p>",
            "_incorrect": {
                "notFinal": "<h5>Are you sure about that?</h5><p>The three main benefits of open data platforms are <em>discovery</em>, <em>consistency</em> and <em>access</em>. Although they can assist with establishing context and community, these aspects require additional effort from the publisher and remain two of the key challenges in open data.</p>"
            },
            "_partlyCorrect": {
                "notFinal": "<p>The three main benefits of open data platforms are <em>discovery</em>, <em>consistency</em> and <em>access</em>. Although they can assist with establishing context and community these aspects require additional effort from the publisher and remain two of the key challenges in open data.</p>",
                "final": "<p>The three main benefits of open data platforms are <em>discovery</em>, <em>consistency</em> and <em>access</em>. Although they can assist with establishing context and community these aspects require additional effort from the publisher and remain two of the key challenges in open data.</p>"
          }
        },
        "_buttons":{
            "submit":"",
            "reset":"",
            "showCorrectAnswer":"",
            "hideCorrectAnswer":""
        },
        "_pageLevelProgress": {
        "_isEnabled": true
      }
    },
    {
        "_id":"c-85",
        "_parentId":"b-55",
        "_type":"component",
        "_component":"graphic",
        "_classes":"",
        "_layout":"right",
        "_graphic": {
            "alt": "Summary icon clipboard",
            "title": "Summary icon clipboard",
            "large": "course/en/images/summary-icon.png",
            "medium": "course/en/images/summary-icon.png",
            "small": "course/en/images/summary-icon.png",
            "*source":"http://www.shutterstock.com/pic-189810137.html",
            "*credit":"Kritchanut",
            "*license":"Shutterstock Standard License"
        }
    },
    {
        "_id":"c-90",
        "_parentId":"b-55",
        "_type":"component",
        "_component":"text",
        "_classes":"",
        "_layout":"left",
        "title":"Open data platforms",
        "displayTitle":"Open data platforms",
        "body":"<p>Open data platforms are pieces of software that make it simpler to publish and manage open data on the Web.</p><p>For publishers, an open data platform provides a pathway to publish data, guiding them through the process.</p><p>For users, platforms can help make open data from around the world consistent and easy to access.</p><p><a class='course_link' href='../module9/'>Next module</a></p><p><a class='course_link' href='../'>Main menu</a></p>",
        "_pageLevelProgress": {
          "_isEnabled": true
        }
    },
    {
       "_id":"c-95",
       "_parentId":"b-55",
       "_type":"component",
       "_component":"text",
       "_classes":"separator",
       "_layout":"full"
    },
    {
       "_id":"c-96",
       "_parentId":"b-55",
       "_type":"component",
       "_component":"text",
       "_classes": "attribution",
       "body":"&copy; <a href='https://ec.europa.eu/commission/index_en' target='_blank'>European Commission</a>",
       "_layout":"full"
    },
    {
        "_id":"c-100",
        "_parentId":"b-55",
        "_type":"component",
        "_component":"graphic",
        "_classes":"footer-logo",
        "_layout":"left",
        "_graphic": {
            "alt": "Open data institute logo",
            "title": "Open data institute logo",
            "large": "course/en/images/logo-small.png",
            "medium": "course/en/images/logo-small.png",
            "small": "course/en/images/logo-small.png",
            "*source":"http://theodi.org",
            "*credit":"The Open Data Institute",
            "*license":"All rights reserved"
        }
    },
    {
        "_id":"c-104",
        "_parentId":"b-55",
        "_type":"component",
        "_component":"text",
        "_classes":"attribution not-eu not-default",
        "_layout":"right",
        "body":"Content created by <a href='http://theodi.org' target='_blank'>The Open Data Institute</a>"
    },
    {
        "_id":"c-105",
        "_parentId":"b-55",
        "_type":"component",
        "_component":"text",
        "_classes":"social-buttons not-dlab",
        "_layout":"right",
        "body":"<a class='social' target='_blank' href='https://twitter.com/ODIHQ'><img src='course/en/images/social/twitter.png'></a><a class='social' target='_blank' href='https://soundcloud.com/theodi'><img src='course/en/images/social/sound.png'></a><a class='social' target='_blank' href='https://www.scribd.com/OpenDataInstitute'><img src='course/en/images/social/scribd.png'></a><a class='social' target='_blank' href='https://github.com/theodi'><img src='course/en/images/social/github.png'></a><a class='social' target='_blank' href='https://vimeo.com/theodiuk'><img src='course/en/images/social/vimeo.png'></a><a class='social' target='_blank' href='https://www.youtube.com/user/OpenDataInstituteUK'><img src='course/en/images/social/youtube.png'></a><a class='social' target='_blank' href='https://www.flickr.com/photos/ukodi/'><img src='course/en/images/social/flickr.png'></a>"
    }
]
